<?xml version="1.0" encoding="UTF-8"?>
<svg width="84px" height="19px" viewBox="0 0 84 19" version="1.1" xmlns="http://www.w3.org/2000/svg" xmlns:xlink="http://www.w3.org/1999/xlink">
    <!-- Generator: Sketch 52 (66869) - http://www.bohemiancoding.com/sketch -->
    <title>PT Sans</title>
    <desc>Created with Sketch.</desc>
    <g id="Page-1" stroke="none" stroke-width="1" fill="none" fill-rule="evenodd">
        <g id="Desktop-HD" transform="translate(-839.000000, -900.000000)" fill="#FFFFFF">
            <path d="M839.512,900.7364 C840.217604,900.601999 840.994596,900.497 841.843,900.4214 C842.691404,900.3458 843.535596,900.308 844.3756,900.308 C845.249204,900.308 846.126996,900.379399 847.009,900.5222 C847.891004,900.665001 848.684796,900.950598 849.3904,901.379 C850.096004,901.807402 850.671398,902.403796 851.1166,903.1682 C851.561802,903.932604 851.7844,904.927994 851.7844,906.1544 C851.7844,907.263206 851.591202,908.199796 851.2048,908.9642 C850.818398,909.728604 850.306003,910.354398 849.6676,910.8416 C849.029197,911.328802 848.302604,911.681599 847.4878,911.9 C846.672996,912.118401 845.828804,912.2276 844.9552,912.2276 L844.552,912.2276 C844.367199,912.2276 844.174001,912.2234 843.9724,912.215 C843.770799,912.2066 843.573401,912.194 843.3802,912.1772 C843.186999,912.1604 843.0484,912.1436 842.9644,912.1268 L842.9644,918.2 L839.512,918.2 L839.512,900.7364 Z M844.6528,903.2816 C844.316798,903.2816 843.997602,903.2942 843.6952,903.3194 C843.392798,903.3446 843.149201,903.374 842.9644,903.4076 L842.9644,909.128 C843.0316,909.1448 843.132399,909.1616 843.2668,909.1784 C843.401201,909.1952 843.543999,909.2078 843.6952,909.2162 C843.846401,909.2246 843.993399,909.2288 844.1362,909.2288 L844.4512,909.2288 C844.904802,909.2288 845.354198,909.1868 845.7994,909.1028 C846.244602,909.0188 846.643598,908.863401 846.9964,908.6366 C847.349202,908.409799 847.630599,908.094802 847.8406,907.6916 C848.050601,907.288398 848.1556,906.759203 848.1556,906.104 C848.1556,905.549597 848.054801,905.091802 847.8532,904.7306 C847.651599,904.369398 847.387002,904.079601 847.0594,903.8612 C846.731798,903.642799 846.358002,903.4916 845.938,903.4076 C845.517998,903.3236 845.089602,903.2816 844.6528,903.2816 Z M866.4508,903.6344 L861.31,903.6344 L861.31,918.2 L857.8576,918.2 L857.8576,903.6344 L852.6916,903.6344 L852.6916,900.56 L866.4508,900.56 L866.4508,903.6344 Z M882.226,913.4624 C882.226,912.924797 882.028602,912.488002 881.6338,912.152 C881.238998,911.815998 880.743403,911.509401 880.147,911.2322 C879.550597,910.954999 878.903803,910.669401 878.2066,910.3754 C877.509397,910.081399 876.862603,909.720202 876.2662,909.2918 C875.669797,908.863398 875.174202,908.330003 874.7794,907.6916 C874.384598,907.053197 874.1872,906.238405 874.1872,905.2472 C874.1872,904.390396 874.329999,903.647003 874.6156,903.017 C874.901201,902.386997 875.308597,901.862002 875.8378,901.442 C876.367003,901.021998 876.992796,900.711201 877.7152,900.5096 C878.437604,900.307999 879.243996,900.2072 880.1344,900.2072 C881.159205,900.2072 882.125195,900.295399 883.0324,900.4718 C883.939605,900.648201 884.687197,900.904398 885.2752,901.2404 L884.1916,904.1384 C883.821998,903.903199 883.267604,903.689001 882.5284,903.4958 C881.789196,903.302599 880.991204,903.206 880.1344,903.206 C879.327996,903.206 878.710602,903.365598 878.2822,903.6848 C877.853798,904.004002 877.6396,904.432397 877.6396,904.97 C877.6396,905.474003 877.836998,905.893998 878.2318,906.23 C878.626602,906.566002 879.122197,906.876799 879.7186,907.1624 C880.315003,907.448001 880.961797,907.741998 881.659,908.0444 C882.356203,908.346802 883.002997,908.712198 883.5994,909.1406 C884.195803,909.569002 884.691398,910.098197 885.0862,910.7282 C885.481002,911.358203 885.6784,912.143595 885.6784,913.0844 C885.6784,914.025205 885.523002,914.835797 885.2122,915.5162 C884.901398,916.196603 884.464603,916.763598 883.9018,917.2172 C883.338997,917.670802 882.658604,918.006799 881.8606,918.2252 C881.062596,918.443601 880.184805,918.5528 879.2272,918.5528 C877.967194,918.5528 876.858405,918.435201 875.9008,918.2 C874.943195,917.964799 874.237602,917.729601 873.784,917.4944 L874.8928,914.546 C875.077601,914.646801 875.316999,914.755999 875.611,914.8736 C875.905001,914.991201 876.236798,915.100399 876.6064,915.2012 C876.976002,915.302001 877.366598,915.386 877.7782,915.4532 C878.189802,915.5204 878.613998,915.554 879.0508,915.554 C880.075605,915.554 880.860997,915.381802 881.407,915.0374 C881.953003,914.692998 882.226,914.168004 882.226,913.4624 Z M887.8204,906.3308 C888.492403,906.028398 889.290395,905.789001 890.2144,905.6126 C891.138405,905.436199 892.104395,905.348 893.1124,905.348 C893.986004,905.348 894.716797,905.452999 895.3048,905.663 C895.892803,905.873001 896.358998,906.171198 896.7034,906.5576 C897.047802,906.944002 897.291399,907.405997 897.4342,907.9436 C897.577001,908.481203 897.6484,909.085997 897.6484,909.758 C897.6484,910.497204 897.6232,911.240596 897.5728,911.9882 C897.5224,912.735804 897.493,913.470796 897.4846,914.1932 C897.4762,914.915604 897.4972,915.616997 897.5476,916.2974 C897.598,916.977803 897.723999,917.620397 897.9256,918.2252 L895.2544,918.2252 L894.7252,916.4864 L894.5992,916.4864 C894.263198,917.007203 893.797003,917.456598 893.2006,917.8346 C892.604197,918.212602 891.835605,918.4016 890.8948,918.4016 C890.306797,918.4016 889.777602,918.313401 889.3072,918.137 C888.836798,917.960599 888.433602,917.708602 888.0976,917.381 C887.761598,917.053398 887.501201,916.667002 887.3164,916.2218 C887.131599,915.776598 887.0392,915.276803 887.0392,914.7224 C887.0392,913.949596 887.211398,913.298603 887.5558,912.7694 C887.900202,912.240197 888.395797,911.811802 889.0426,911.4842 C889.689403,911.156598 890.462196,910.929801 891.361,910.8038 C892.259804,910.677799 893.263594,910.64 894.3724,910.6904 C894.490001,909.749595 894.422801,909.073402 894.1708,908.6618 C893.918799,908.250198 893.356004,908.0444 892.4824,908.0444 C891.827197,908.0444 891.134204,908.111599 890.4034,908.246 C889.672596,908.380401 889.072002,908.556799 888.6016,908.7752 L887.8204,906.3308 Z M891.9784,915.7052 C892.633603,915.7052 893.154398,915.558201 893.5408,915.2642 C893.927202,914.970199 894.212799,914.655202 894.3976,914.3192 L894.3976,912.6812 C893.876797,912.6308 893.377002,912.6224 892.8982,912.656 C892.419398,912.6896 891.995202,912.765199 891.6256,912.8828 C891.255998,913.000401 890.962001,913.168399 890.7436,913.3868 C890.525199,913.605201 890.416,913.882398 890.416,914.2184 C890.416,914.688802 890.554599,915.054199 890.8318,915.3146 C891.109001,915.575001 891.491198,915.7052 891.9784,915.7052 Z M908.1064,918.2 L908.1064,911.0432 C908.1064,910.018395 907.959401,909.279202 907.6654,908.8256 C907.371399,908.371998 906.871604,908.1452 906.166,908.1452 C905.544397,908.1452 905.019402,908.325798 904.591,908.687 C904.162598,909.048202 903.856001,909.497597 903.6712,910.0352 L903.6712,918.2 L900.3952,918.2 L900.3952,905.6 L902.9908,905.6 L903.3688,907.2632 L903.4696,907.2632 C903.856002,906.725597 904.368397,906.255202 905.0068,905.852 C905.645203,905.448798 906.468395,905.2472 907.4764,905.2472 C908.098003,905.2472 908.652398,905.331199 909.1396,905.4992 C909.626802,905.667201 910.038398,905.944398 910.3744,906.3308 C910.710402,906.717202 910.962399,907.242197 911.1304,907.9058 C911.298401,908.569403 911.3824,909.388395 911.3824,910.3628 L911.3824,918.2 L908.1064,918.2 Z M919.3456,914.7224 C919.3456,914.386398 919.202801,914.117601 918.9172,913.916 C918.631599,913.714399 918.278802,913.529601 917.8588,913.3616 C917.438798,913.193599 916.976803,913.021401 916.4728,912.845 C915.968797,912.668599 915.506802,912.425002 915.0868,912.1142 C914.666798,911.803398 914.314001,911.408602 914.0284,910.9298 C913.742799,910.450998 913.6,909.833604 913.6,909.0776 C913.6,907.834394 913.969596,906.885203 914.7088,906.23 C915.448004,905.574797 916.514793,905.2472 917.9092,905.2472 C918.866805,905.2472 919.731996,905.347999 920.5048,905.5496 C921.277604,905.751201 921.882398,905.977999 922.3192,906.23 L921.5884,908.5988 C921.201998,908.447599 920.714803,908.288001 920.1268,908.12 C919.538797,907.951999 918.942403,907.868 918.3376,907.868 C917.363195,907.868 916.876,908.245996 916.876,909.002 C916.876,909.304402 917.018799,909.547999 917.3044,909.7328 C917.590001,909.917601 917.942798,910.089799 918.3628,910.2494 C918.782802,910.409001 919.244797,910.581199 919.7488,910.766 C920.252803,910.950801 920.714798,911.190199 921.1348,911.4842 C921.554802,911.778201 921.907599,912.160398 922.1932,912.6308 C922.478801,913.101202 922.6216,913.705996 922.6216,914.4452 C922.6216,915.722006 922.214204,916.725796 921.3994,917.4566 C920.584596,918.187404 919.362408,918.5528 917.7328,918.5528 C916.842396,918.5528 916.006604,918.439401 915.2254,918.2126 C914.444196,917.985799 913.810002,917.721202 913.3228,917.4188 L914.23,914.9744 C914.616402,915.192801 915.128797,915.406999 915.7672,915.617 C916.405603,915.827001 917.060797,915.932 917.7328,915.932 C918.220002,915.932 918.610599,915.839601 918.9046,915.6548 C919.198601,915.469999 919.3456,915.159202 919.3456,914.7224 Z" id="PT-Sans"></path>
        </g>
    </g>
</svg>