<svg width="24" height="24" viewBox="0 0 24 24" fill="none" xmlns="http://www.w3.org/2000/svg">
<path d="M17.5406 1.40625C18.8906 1.40625 20.1609 1.93125 21.1172 2.8875C22.0687 3.84375 22.5937 5.10938 22.5937 6.45938V17.5359C22.5937 18.8859 22.0687 20.1562 21.1125 21.1125C20.1562 22.0688 18.8906 22.5938 17.5406 22.5938H6.45937C5.10938 22.5938 3.83906 22.0688 2.88281 21.1125C1.93125 20.1562 1.40625 18.8906 1.40625 17.5406V6.45938C1.40625 5.10938 1.93125 3.84375 2.8875 2.8875C3.84375 1.93125 5.10938 1.40625 6.45937 1.40625H17.5406ZM17.5406 0H6.45937C2.89219 0 0 2.89219 0 6.45938V17.5359C0 21.1078 2.89219 24 6.45937 24H17.5359C21.1031 24 23.9953 21.1078 23.9953 17.5406V6.45938C24 2.89219 21.1078 0 17.5406 0Z" fill="#A6D3F6"/>
<path d="M12 6.84375C13.3781 6.84375 14.6719 7.37812 15.6469 8.35312C16.6219 9.32812 17.1562 10.6219 17.1562 12C17.1562 13.3781 16.6219 14.6719 15.6469 15.6469C14.6719 16.6219 13.3781 17.1562 12 17.1562C10.6219 17.1562 9.32812 16.6219 8.35312 15.6469C7.37812 14.6719 6.84375 13.3781 6.84375 12C6.84375 10.6219 7.37812 9.32812 8.35312 8.35312C9.32812 7.37812 10.6219 6.84375 12 6.84375ZM12 5.4375C8.37656 5.4375 5.4375 8.37656 5.4375 12C5.4375 15.6234 8.37656 18.5625 12 18.5625C15.6234 18.5625 18.5625 15.6234 18.5625 12C18.5625 8.37656 15.6234 5.4375 12 5.4375Z" fill="#A6D3F6"/>
<path d="M18.717 4.51416C19.0123 4.51416 19.2514 4.75322 19.2514 5.04853C19.2514 5.34385 19.0123 5.58291 18.717 5.58291C18.4217 5.58291 18.1826 5.34385 18.1826 5.04853C18.1826 4.75322 18.4264 4.51416 18.717 4.51416ZM18.717 3.10791C17.6482 3.10791 16.7764 3.9751 16.7764 5.04853C16.7764 6.12197 17.6436 6.98916 18.717 6.98916C19.7904 6.98916 20.6576 6.12197 20.6576 5.04853C20.6576 3.9751 19.7904 3.10791 18.717 3.10791Z" fill="#A6D3F6"/>
</svg>
