<svg width="107" height="107" viewBox="0 0 107 107" fill="none" xmlns="http://www.w3.org/2000/svg">
<path opacity="0.1" fill-rule="evenodd" clip-rule="evenodd" d="M53.5 107C83.0472 107 107 83.0472 107 53.5C107 23.9528 83.0472 0 53.5 0C23.9528 0 0 23.9528 0 53.5C0 83.0472 23.9528 107 53.5 107ZM53.5 98.5748C78.3941 98.5748 98.5748 78.3941 98.5748 53.5C98.5748 28.6059 78.3941 8.42518 53.5 8.42518C28.6059 8.42518 8.42521 28.6059 8.42521 53.5C8.42521 78.3941 28.6059 98.5748 53.5 98.5748Z" fill="#E3674F"/>
<path fill-rule="evenodd" clip-rule="evenodd" d="M98.5729 53.9213C98.3467 78.6214 78.2535 98.5748 53.5 98.5748C28.6059 98.5748 8.42521 78.3941 8.42521 53.5C8.42521 28.6059 28.6059 8.42518 53.5 8.42518C53.6406 8.42518 53.781 8.42582 53.9212 8.4271L53.9212 8.4252C56.2478 8.4252 58.1338 6.53915 58.1338 4.2126C58.1338 1.88604 56.2478 0 53.9212 0C53.8904 0 53.8597 0.000331209 53.829 0.000990262C53.7194 0.000330401 53.6097 0 53.5 0C23.9528 0 0 23.9528 0 53.5C0 83.0472 23.9528 107 53.5 107C82.8517 107 106.683 83.3633 106.997 54.086C106.999 54.0313 107 53.9764 107 53.9213C107 51.5948 105.114 49.7087 102.787 49.7087C100.461 49.7087 98.5748 51.5948 98.5748 53.9213L98.5729 53.9213Z" fill="url(#paint0_linear)"/>
<path d="M33.888 49.456C33.888 47.76 34.288 46.408 35.088 45.4C35.904 44.376 37.072 43.864 38.592 43.864C40.08 43.864 41.264 44.392 42.144 45.448C43.04 46.504 43.488 48.088 43.488 50.2C43.488 52.056 43.288 53.664 42.888 55.024C42.488 56.368 41.952 57.488 41.28 58.384C40.608 59.28 39.832 59.968 38.952 60.448C38.072 60.928 37.16 61.224 36.216 61.336L35.544 58.936C36.984 58.648 38.104 58.024 38.904 57.064C39.704 56.088 40.216 54.912 40.44 53.536C40.136 53.936 39.808 54.216 39.456 54.376C39.104 54.536 38.648 54.616 38.088 54.616C37.592 54.616 37.088 54.52 36.576 54.328C36.08 54.12 35.632 53.808 35.232 53.392C34.832 52.96 34.504 52.424 34.248 51.784C34.008 51.128 33.888 50.352 33.888 49.456ZM36.648 49.288C36.648 50.2 36.84 50.896 37.224 51.376C37.624 51.84 38.128 52.072 38.736 52.072C39.2 52.072 39.592 51.992 39.912 51.832C40.232 51.656 40.48 51.416 40.656 51.112C40.688 50.936 40.704 50.752 40.704 50.56C40.72 50.368 40.728 50.184 40.728 50.008C40.728 49.512 40.688 49.048 40.608 48.616C40.528 48.168 40.4 47.784 40.224 47.464C40.048 47.144 39.824 46.888 39.552 46.696C39.28 46.504 38.952 46.408 38.568 46.408C37.96 46.408 37.488 46.664 37.152 47.176C36.816 47.688 36.648 48.392 36.648 49.288ZM45.3009 52.576C45.3009 51.008 45.4049 49.672 45.6129 48.568C45.8369 47.464 46.1569 46.568 46.5729 45.88C46.9889 45.176 47.5009 44.664 48.1089 44.344C48.7169 44.024 49.4129 43.864 50.1969 43.864C51.0289 43.864 51.7489 44.024 52.3569 44.344C52.9809 44.664 53.4929 45.176 53.8929 45.88C54.3089 46.568 54.6129 47.464 54.8049 48.568C55.0129 49.672 55.1169 51.008 55.1169 52.576C55.1169 54.16 55.0049 55.512 54.7809 56.632C54.5569 57.736 54.2369 58.64 53.8209 59.344C53.4049 60.032 52.8929 60.536 52.2849 60.856C51.6769 61.176 50.9809 61.336 50.1969 61.336C49.3649 61.336 48.6369 61.176 48.0129 60.856C47.4049 60.52 46.9009 60 46.5009 59.296C46.1009 58.576 45.7969 57.664 45.5889 56.56C45.3969 55.456 45.3009 54.128 45.3009 52.576ZM48.1569 52.576C48.1569 54.72 48.3169 56.296 48.6369 57.304C48.9569 58.296 49.4849 58.792 50.2209 58.792C50.5729 58.792 50.8769 58.68 51.1329 58.456C51.4049 58.232 51.6209 57.872 51.7809 57.376C51.9409 56.88 52.0609 56.24 52.1409 55.456C52.2209 54.672 52.2609 53.712 52.2609 52.576C52.2609 50.448 52.1009 48.888 51.7809 47.896C51.4769 46.904 50.9489 46.408 50.1969 46.408C49.8289 46.408 49.5169 46.52 49.2609 46.744C49.0049 46.968 48.7969 47.328 48.6369 47.824C48.4769 48.32 48.3569 48.96 48.2769 49.744C48.1969 50.528 48.1569 51.472 48.1569 52.576ZM56.9059 47.992C56.9059 47.256 56.9939 46.632 57.1699 46.12C57.3459 45.608 57.5939 45.192 57.9139 44.872C58.2339 44.536 58.6099 44.296 59.0419 44.152C59.4899 43.992 59.9779 43.912 60.5059 43.912C61.0339 43.912 61.5139 43.984 61.9459 44.128C62.3939 44.256 62.7779 44.48 63.0979 44.8C63.4179 45.12 63.6659 45.544 63.8419 46.072C64.0339 46.584 64.1299 47.224 64.1299 47.992C64.1299 48.76 64.0339 49.408 63.8419 49.936C63.6659 50.448 63.4179 50.864 63.0979 51.184C62.7779 51.504 62.3939 51.736 61.9459 51.88C61.5139 52.008 61.0339 52.072 60.5059 52.072C59.9779 52.072 59.4899 52.008 59.0419 51.88C58.6099 51.736 58.2339 51.504 57.9139 51.184C57.5939 50.864 57.3459 50.448 57.1699 49.936C56.9939 49.408 56.9059 48.76 56.9059 47.992ZM59.4499 47.992C59.4499 48.76 59.5299 49.304 59.6899 49.624C59.8659 49.928 60.1379 50.08 60.5059 50.08C60.6979 50.08 60.8579 50.056 60.9859 50.008C61.1299 49.944 61.2419 49.832 61.3219 49.672C61.4179 49.512 61.4819 49.296 61.5139 49.024C61.5619 48.752 61.5859 48.408 61.5859 47.992C61.5859 47.176 61.4979 46.624 61.3219 46.336C61.1459 46.048 60.8739 45.904 60.5059 45.904C60.1379 45.904 59.8659 46.048 59.6899 46.336C59.5299 46.624 59.4499 47.176 59.4499 47.992ZM65.2579 56.872C65.2579 56.136 65.3459 55.512 65.5219 55C65.6979 54.488 65.9459 54.072 66.2659 53.752C66.5859 53.416 66.9619 53.176 67.3939 53.032C67.8419 52.872 68.3299 52.792 68.8579 52.792C69.3859 52.792 69.8659 52.864 70.2979 53.008C70.7459 53.136 71.1299 53.36 71.4499 53.68C71.7699 54 72.0179 54.424 72.1939 54.952C72.3859 55.464 72.4819 56.104 72.4819 56.872C72.4819 57.64 72.3859 58.288 72.1939 58.816C72.0179 59.328 71.7699 59.744 71.4499 60.064C71.1299 60.384 70.7459 60.616 70.2979 60.76C69.8659 60.888 69.3859 60.952 68.8579 60.952C68.3299 60.952 67.8419 60.888 67.3939 60.76C66.9619 60.616 66.5859 60.384 66.2659 60.064C65.9459 59.744 65.6979 59.328 65.5219 58.816C65.3459 58.288 65.2579 57.64 65.2579 56.872ZM67.8019 56.872C67.8019 57.64 67.8819 58.184 68.0419 58.504C68.2179 58.808 68.4899 58.96 68.8579 58.96C69.0499 58.96 69.2099 58.936 69.3379 58.888C69.4819 58.824 69.5939 58.712 69.6739 58.552C69.7699 58.392 69.8339 58.176 69.8659 57.904C69.9139 57.632 69.9379 57.288 69.9379 56.872C69.9379 56.056 69.8499 55.504 69.6739 55.216C69.4979 54.928 69.2259 54.784 68.8579 54.784C68.4899 54.784 68.2179 54.928 68.0419 55.216C67.8819 55.504 67.8019 56.056 67.8019 56.872ZM69.7219 43.864L71.4019 45.256L59.5459 61.336L57.8419 59.92L69.7219 43.864Z" fill="#F6C000"/>
<defs>
<linearGradient id="paint0_linear" x1="53.5" y1="-2.95043e-06" x2="103" y2="57.5" gradientUnits="userSpaceOnUse">
<stop stop-color="#F6C000"/>
<stop offset="1" stop-color="#FFDF6D"/>
</linearGradient>
</defs>
</svg>
