<svg width="24" height="24" viewBox="0 0 24 24" fill="none" xmlns="http://www.w3.org/2000/svg">
<path d="M17.5951 15.3102C17.4144 15.1613 17.1545 15.1577 16.9698 15.3016L15.8085 16.2065C14.8089 16.9853 13.3847 16.8931 12.4939 15.9919C11.7409 15.23 10.9857 14.4705 10.2285 13.7132C9.47119 12.9559 8.71163 12.2008 7.94979 11.4478C7.04854 10.557 6.95633 9.13276 7.73519 8.13318L8.6406 6.97118C8.78442 6.7866 8.78099 6.52696 8.63235 6.34624C7.07834 4.45697 6.03403 3.21898 5.51571 2.64997C4.94235 2.93929 4.07347 3.6341 2.94848 4.72469C2.13805 5.51033 1.95457 6.74157 2.50073 7.72937C3.97704 10.3995 5.9708 12.9911 8.48354 15.5038C10.9907 18.011 13.5666 19.9916 16.2106 21.4473C17.1964 21.9901 18.4234 21.8073 19.2082 21.0007C20.3399 19.8375 21.043 18.9624 21.3013 18.4356C20.7475 17.9328 19.5055 16.8849 17.5951 15.3102ZM8.524 8.74781C8.05669 9.34756 8.11202 10.2021 8.65277 10.7366C9.41599 11.4909 10.1769 12.2475 10.9356 13.0061C11.6942 13.7648 12.4507 14.5257 13.2051 15.2889C13.7396 15.8297 14.5941 15.885 15.1939 15.4177L16.3552 14.5128C16.9094 14.081 17.689 14.0917 18.2312 14.5386C20.5158 16.4218 21.8407 17.5473 22.2381 17.9447C22.361 18.0676 22.4112 18.2455 22.3708 18.4145C22.2006 19.1265 21.3943 20.1878 19.9249 21.698C18.8263 22.8273 17.1085 23.0832 15.7283 22.3233C12.9982 20.8203 10.3478 18.7823 7.77643 16.2109C5.19981 13.6343 3.14901 10.9685 1.62559 8.21324C0.860967 6.83032 1.11783 5.10658 2.25243 4.00669C3.68639 2.61659 4.74579 1.81289 5.49486 1.57973C5.67226 1.52452 5.86564 1.57222 5.99701 1.70359C6.42082 2.1274 7.54784 3.45358 9.40466 5.711C9.85059 6.25316 9.86088 7.03207 9.42941 7.58581L8.524 8.74781Z" fill="#A6D3F6"/>
</svg>
