<?xml version="1.0" encoding="utf-8"?>
<!-- Generator: Adobe Illustrator 23.0.6, SVG Export Plug-In . SVG Version: 6.00 Build 0)  -->
<svg version="1.1" id="Слой_1" xmlns="http://www.w3.org/2000/svg" xmlns:xlink="http://www.w3.org/1999/xlink" x="0px" y="0px"
	 viewBox="0 0 48 48" style="enable-background:new 0 0 48 48;" xml:space="preserve">
<style type="text/css">
	.st0{fill:#44884A;}
</style>
<path class="st0" d="M21,28.9l11.3-11.3c0.9-0.9,2.4,0.5,1.4,1.4l-12,12l0,0c-0.2,0.2-0.4,0.3-0.7,0.3c-0.3,0-0.5-0.1-0.7-0.3
	c0,0,0,0,0,0c0,0,0,0,0,0l-6-6c-0.9-0.9,0.5-2.4,1.4-1.4L21,28.9z"/>
</svg>
