<svg xmlns="http://www.w3.org/2000/svg" width="48" height="48" viewBox="0 0 48 48">
  <g id="02-Sign-Control/Arrow-Bottom-2" fill="none" fill-rule="evenodd">
    <path id="Arrow-Bottom-2" fill="#292F48" fill-rule="nonzero" d="M25,37.5790597 C25.0194505,37.561554 25.0385537,37.5434501 25.0572858,37.5247479 L38.2935221,24.3120242 C38.6843934,23.9218472 39.3175581,23.92241 39.7077351,24.3132814 C40.0979121,24.7041527 40.0973492,25.3373174 39.7064779,25.7274944 L26.470304,38.9401558 C25.8745453,39.534961 25.1178807,39.8703985 24.3406421,39.9465396 C24.1225256,40.0175799 23.8798537,40.0178193 23.6615716,39.9472579 C22.8806692,39.872427 22.1201407,39.5359456 21.5222507,38.9378859 L8.29285523,25.7070688 C7.90235192,25.3165235 7.90238594,24.6833585 8.29293121,24.2928552 C8.68347649,23.9023519 9.31664146,23.9023859 9.70714477,24.2929312 L22.9366025,37.5238106 C22.9572914,37.5445054 22.9784346,37.5644693 23,37.5837025 L23,5 C23,3.66666667 25,3.66666667 25,5 L25,37.5790597 Z"/>
  </g>
</svg>
