<svg width="909" height="471" viewBox="0 0 909 471" fill="none" xmlns="http://www.w3.org/2000/svg">
<path d="M44.3245 3.22578C44.8244 2.72578 48.8244 3.22578 49.3244 3.72578C49.393 3.79431 49.0765 4.70933 48.438 6.22578C48.017 7.22578 42.5091 6.22578 43.1049 5.22578C43.8272 4.01347 44.2615 3.28877 44.3245 3.22578Z" fill="#D7D7D7"/>
<path d="M135.324 3.22578C135.824 2.72578 139.824 3.22578 140.324 3.72578C140.484 3.88554 138.551 8.64654 135.324 14.9031C134.642 16.2258 128.269 14.9031 129.824 12.35C132.984 7.16482 135.177 3.37358 135.324 3.22578Z" fill="#D7D7D7"/>
<path d="M226.324 3.22578C226.824 2.72578 230.824 3.22578 231.324 3.72578C231.539 3.9402 227.983 12.4431 222.59 21.7258C221.719 23.2258 214.319 22.7258 215.6 20.7258C221.34 11.7637 226.104 3.44611 226.324 3.22578Z" fill="#D7D7D7"/>
<path d="M317.324 3.22578C317.824 2.72578 321.824 3.22578 322.324 3.72578C322.593 3.99387 316.967 17.2195 309.225 28.7258C308.824 30.2258 300.824 30.2258 302.322 27.2258C309.774 16.2528 317.051 3.49932 317.324 3.22578Z" fill="#D7D7D7"/>
<path d="M408.324 3.22578C408.824 2.72578 412.824 3.22578 413.324 3.72578C413.662 4.06356 404.644 24.9705 393.824 37.0921C392.324 38.7726 386.824 37.0921 388.701 33.7258C397.437 22.1113 407.994 3.55633 408.324 3.22578Z" fill="#D7D7D7"/>
<path d="M499.324 3.22578C499.824 2.72578 503.824 3.22578 504.324 3.72578C504.748 4.14966 490.439 36.965 476.324 44.1627C470.324 46.2258 473.324 41.0783 473.824 40.6054C482.698 32.2124 498.914 3.6367 499.324 3.22578Z" fill="#D7D7D7"/>
<path d="M560.324 42.7258C565.924 45.9258 589.825 3.72578 590.324 3.22578C590.824 2.72578 594.824 3.22578 595.324 3.72578C595.824 4.22578 575.825 49.7972 559.825 45.2258C554.824 43.2258 559.449 42.2258 560.324 42.7258Z" fill="#D7D7D7"/>
<path d="M651.324 42.7258C656.924 45.9258 680.824 3.72578 681.324 3.22578C681.824 2.72578 685.824 3.22578 686.324 3.72578C686.824 4.22578 666.824 49.7972 650.824 45.2258C647.302 44.2192 646.945 40.9332 648.16 37.7258C650.824 32.2258 651.919 37.3976 651.324 38.2302C650.104 39.9392 649.683 41.6317 651.324 42.7258Z" fill="#D7D7D7"/>
<path d="M742.324 42.7258C747.924 45.9258 771.824 3.72578 772.324 3.22578C772.824 2.72578 776.824 3.22578 777.324 3.72578C777.824 4.22578 757.824 49.7972 741.824 45.2258C736.609 43.7358 738.332 37.2503 741.824 33.4195C744.351 30.6479 748.324 32.7258 745.528 34.9045C742.628 37.361 739.568 40.8879 742.324 42.7258Z" fill="#D7D7D7"/>
<path d="M833.324 42.7258C838.924 45.9258 862.824 3.72578 863.324 3.22578C863.824 2.72578 867.824 3.22578 868.324 3.72578C868.824 4.22578 848.824 49.7972 832.824 45.2258C825.824 43.2258 831.324 32.2258 836.824 30.7258C841.624 31.1258 840.324 32.2258 840.324 32.2258C839.824 32.2258 828.824 39.7258 833.324 42.7258Z" fill="#D7D7D7"/>
<path d="M14.3245 101.726C19.9245 104.926 43.8245 62.7258 44.3245 62.2258C44.8244 61.7258 48.8244 62.2258 49.3244 62.7258C49.8244 63.2258 29.8245 108.797 13.8245 104.226C6.82446 102.226 12.3245 91.2258 17.8245 89.7258C22.6245 90.1258 21.3245 91.2258 21.3245 91.2258C20.8245 91.2258 9.82446 98.7258 14.3245 101.726Z" fill="#D7D7D7"/>
<path d="M50.3245 60.2258C50.7122 59.2258 54.3245 61.7258 54.8245 64.2258C54.5654 64.7286 54.312 65.2286 54.0642 65.7258C53.3245 67.2094 49.5455 64.2258 49.5455 62.2258C49.8079 61.5545 50.0678 60.8876 50.3245 60.2258Z" fill="#D7D7D7"/>
<path d="M105.324 101.726C110.924 104.926 134.824 62.7258 135.324 62.2258C135.824 61.7258 139.824 62.2258 140.324 62.7258C140.824 63.2258 120.824 108.797 104.824 104.226C97.8245 102.226 103.324 91.2258 108.824 89.7258C113.624 90.1258 112.324 91.2258 112.324 91.2258C111.824 91.2258 100.824 98.7258 105.324 101.726Z" fill="#D7D7D7"/>
<path d="M141.325 60.2258C141.712 59.2258 145.324 61.7258 145.825 64.2258C144.679 66.4487 143.644 68.6163 142.711 70.7258C142.047 72.2258 137.304 70.476 138.324 67.8799C139.345 65.2838 140.358 62.7185 141.325 60.2258Z" fill="#D7D7D7"/>
<path d="M196.324 101.726C201.924 104.926 225.824 62.7258 226.324 62.2258C226.824 61.7258 230.824 62.2258 231.324 62.7258C231.824 63.2258 211.824 108.797 195.824 104.226C188.824 102.226 194.324 91.2258 199.824 89.7258C204.624 90.1258 203.324 91.2258 203.324 91.2258C202.824 91.2258 191.824 98.7258 196.324 101.726Z" fill="#D7D7D7"/>
<path d="M232.325 60.2258C232.712 59.2258 236.324 61.7258 236.825 64.2258C234.848 68.062 233.2 71.7336 231.834 75.2258C231.052 77.2258 225.283 78.299 227.045 73.7258C228.807 69.1525 230.637 64.5786 232.325 60.2258Z" fill="#D7D7D7"/>
<path d="M287.324 101.726C292.924 104.926 316.824 62.7258 317.324 62.2258C317.824 61.7258 321.824 62.2258 322.324 62.7258C322.824 63.2258 302.824 108.797 286.824 104.226C279.824 102.226 285.324 91.2258 290.824 89.7258C295.624 90.1258 294.324 91.2258 294.324 91.2258C293.824 91.2258 282.824 98.7258 287.324 101.726Z" fill="#D7D7D7"/>
<path d="M323.325 60.2258C323.712 59.2258 327.325 61.7258 327.825 64.2258C324.88 69.9409 322.664 75.2904 321.026 80.2258C320.362 82.2258 315.221 81.2258 316.338 78.2258C318.589 72.1821 321.082 66.0089 323.325 60.2258Z" fill="#D7D7D7"/>
<path d="M378.324 101.726C383.924 104.926 407.824 62.7258 408.324 62.2258C408.824 61.7258 412.824 62.2258 413.324 62.7258C413.824 63.2258 393.824 108.797 377.824 104.226C370.824 102.226 376.324 91.2258 381.824 89.7258C386.624 90.1258 385.324 91.2258 385.324 91.2258C384.824 91.2258 373.824 98.7258 378.324 101.726Z" fill="#D7D7D7"/>
<path d="M414.324 60.2258C414.712 59.2258 418.324 61.7258 418.824 64.2258C414.7 72.2316 412.004 79.5202 410.324 85.9576C409.863 87.7258 404.324 88.7258 404.838 85.2258C407.6 77.07 411.205 68.2705 414.324 60.2258Z" fill="#D7D7D7"/>
<path d="M469.324 101.726C474.924 104.926 498.824 62.7258 499.324 62.2258C499.824 61.7258 503.824 62.2258 504.324 62.7258C504.824 63.2258 484.824 108.797 468.824 104.226C461.824 102.226 467.324 91.2258 472.824 89.7258C477.624 90.1258 476.324 91.2258 476.324 91.2258C475.824 91.2258 464.824 98.7258 469.324 101.726Z" fill="#D7D7D7"/>
<path d="M505.324 60.2258C505.712 59.2258 509.324 61.7258 509.825 64.2258C504.646 74.2784 501.719 83.2001 500.228 90.7258C499.535 94.2258 493.824 93.7258 494.324 89.9262C497.172 80.5404 501.595 69.8437 505.324 60.2258Z" fill="#D7D7D7"/>
<path d="M560.324 101.726C565.924 104.926 589.824 62.7258 590.324 62.2258C590.824 61.7258 594.824 62.2258 595.324 62.7258C595.824 63.2258 575.824 108.797 559.824 104.226C552.824 102.226 558.324 91.2258 563.824 89.7258C568.624 90.1258 567.324 91.2258 567.324 91.2258C566.824 91.2258 555.824 98.7258 560.324 101.726Z" fill="#D7D7D7"/>
<path d="M596.324 60.2258C596.712 59.2258 600.324 61.7258 600.824 64.2258C593.395 78.6477 590.601 90.7418 590.03 99.7258C589.871 102.226 583.097 104.726 583.097 98.7258C585.169 87.7372 591.361 73.0261 596.324 60.2258Z" fill="#D7D7D7"/>
<path d="M651.324 101.726C656.924 104.926 680.824 62.7258 681.324 62.2258C681.824 61.7258 685.824 62.2258 686.324 62.7258C686.824 63.2258 666.824 108.797 650.824 104.226C643.824 102.226 649.324 91.2258 654.824 89.7258C659.624 90.1258 658.324 91.2258 658.324 91.2258C657.824 91.2258 646.824 98.7258 651.324 101.726Z" fill="#D7D7D7"/>
<path d="M687.324 60.2258C687.712 59.2258 691.324 61.7258 691.824 64.2258C682.751 81.8399 680.591 95.9818 680.951 105.226C681.068 108.226 673.824 111.226 673.385 105.226C673.457 94.1343 681.297 75.771 687.324 60.2258Z" fill="#D7D7D7"/>
<path d="M742.324 101.726C747.924 104.926 771.824 62.7258 772.324 62.2258C772.824 61.7258 776.824 62.2258 777.324 62.7258C777.824 63.2258 757.824 108.797 741.824 104.226C734.824 102.226 740.324 91.2258 745.824 89.7258C750.624 90.1258 749.324 91.2258 749.324 91.2258C748.824 91.2258 737.824 98.7258 742.324 101.726Z" fill="#D7D7D7"/>
<path d="M778.324 60.2258C778.712 59.2258 782.324 61.7258 782.824 64.2258C772.12 85.0046 771.039 100.951 772.364 109.726C772.666 111.726 766.824 113.726 765.324 110.867C761.292 101.494 771.107 78.8396 778.324 60.2258Z" fill="#D7D7D7"/>
<path d="M833.324 101.726C838.924 104.926 862.824 62.7258 863.324 62.2258C863.824 61.7258 867.824 62.2258 868.324 62.7258C868.824 63.2258 848.824 108.797 832.824 104.226C825.824 102.226 831.324 91.2258 836.824 89.7258C841.624 90.1258 840.324 91.2258 840.324 91.2258C839.824 91.2258 828.824 98.7258 833.324 101.726Z" fill="#D7D7D7"/>
<path d="M864.824 115.226C845.824 116.226 859.824 84.7258 869.324 60.2258C869.712 59.2258 873.324 61.7258 873.824 64.2258C860.224 90.6258 862.158 109.226 864.824 115.226Z" fill="#D7D7D7"/>
<path d="M14.3245 160.726C19.9245 163.926 43.8245 121.726 44.3245 121.226C44.8244 120.726 48.8244 121.226 49.3244 121.726C49.8244 122.226 29.8245 167.797 13.8245 163.226C6.82446 161.226 12.3245 150.226 17.8245 148.726C22.6245 149.126 21.3245 150.226 21.3245 150.226C20.8245 150.226 9.82446 157.726 14.3245 160.726Z" fill="#D7D7D7"/>
<path d="M45.8245 174.226C26.8245 175.226 40.8245 143.726 50.3245 119.226C50.7122 118.226 54.3245 120.726 54.8245 123.226C41.2245 149.626 43.1578 168.226 45.8245 174.226Z" fill="#D7D7D7"/>
<path d="M49.8244 127.226C51.3244 126.726 53.3244 129.226 52.8244 129.726C52.4797 130.157 52.1462 130.617 51.8244 131.1C51.3245 131.85 48.5625 129.226 49.1906 128.226C49.4138 127.87 49.6262 127.535 49.8244 127.226Z" fill="#D7D7D7"/>
<path d="M105.324 160.726C110.924 163.926 134.824 121.726 135.324 121.226C135.824 120.726 139.824 121.226 140.324 121.726C140.824 122.226 120.824 167.797 104.824 163.226C97.8245 161.226 103.324 150.226 108.824 148.726C113.624 149.126 112.324 150.226 112.324 150.226C111.824 150.226 100.824 157.726 105.324 160.726Z" fill="#D7D7D7"/>
<path d="M136.824 174.226C117.824 175.226 131.824 143.726 141.324 119.226C141.712 118.226 145.324 120.726 145.824 123.226C132.224 149.626 134.158 168.226 136.824 174.226Z" fill="#D7D7D7"/>
<path d="M140.824 127.226C142.324 126.726 144.324 129.226 143.824 129.726C143.108 130.622 142.439 131.646 141.824 132.733C140.98 134.226 137.433 132.733 138.824 130.439C139.556 129.234 140.25 128.124 140.824 127.226Z" fill="#D7D7D7"/>
<path d="M196.324 160.726C201.924 163.926 225.824 121.726 226.324 121.226C226.824 120.726 230.824 121.226 231.324 121.726C231.824 122.226 211.824 167.797 195.824 163.226C188.824 161.226 194.324 150.226 199.824 148.726C204.624 149.126 203.324 150.226 203.324 150.226C202.824 150.226 191.824 157.726 196.324 160.726Z" fill="#D7D7D7"/>
<path d="M227.824 174.226C208.824 175.226 222.824 143.726 232.324 119.226C232.712 118.226 236.324 120.726 236.824 123.226C223.224 149.626 225.158 168.226 227.824 174.226Z" fill="#D7D7D7"/>
<path d="M231.824 127.226C233.324 126.726 235.324 129.226 234.824 129.726C233.627 131.223 232.564 133.079 231.662 134.984C231.153 136.06 227.324 135.226 228.324 132.963C229.569 130.823 230.863 128.728 231.824 127.226Z" fill="#D7D7D7"/>
<path d="M287.324 160.726C292.924 163.926 316.824 121.726 317.324 121.226C317.824 120.726 321.824 121.226 322.324 121.726C322.824 122.226 302.824 167.797 286.824 163.226C279.824 161.226 285.324 150.226 290.824 148.726C295.624 149.126 294.324 150.226 294.324 150.226C293.824 150.226 282.824 157.726 287.324 160.726Z" fill="#D7D7D7"/>
<path d="M318.824 174.226C299.824 175.226 313.824 143.726 323.324 119.226C323.712 118.226 327.324 120.726 327.824 123.226C314.224 149.626 316.158 168.226 318.824 174.226Z" fill="#D7D7D7"/>
<path d="M322.824 127.226C324.324 126.726 326.324 129.226 325.824 129.726C324.052 131.941 322.575 134.941 321.479 137.726C321.085 138.726 316.663 137.726 318.041 135.226C319.612 132.378 321.524 129.258 322.824 127.226Z" fill="#D7D7D7"/>
<path d="M378.324 160.726C383.924 163.926 407.824 121.726 408.324 121.226C408.824 120.726 412.824 121.226 413.324 121.726C413.824 122.226 393.824 167.797 377.824 163.226C370.824 161.226 376.324 150.226 381.824 148.726C386.624 149.126 385.324 150.226 385.324 150.226C384.824 150.226 373.824 157.726 378.324 160.726Z" fill="#D7D7D7"/>
<path d="M409.824 174.226C390.824 175.226 404.824 143.726 414.324 119.226C414.712 118.226 418.324 120.726 418.824 123.226C405.224 149.626 407.158 168.226 409.824 174.226Z" fill="#D7D7D7"/>
<path d="M413.824 127.226C415.324 126.726 417.324 129.226 416.824 129.726C414.503 132.628 412.687 136.877 411.571 140.226C410.905 142.226 406.951 139.226 407.975 137.226C409.651 133.951 412.209 129.75 413.824 127.226Z" fill="#D7D7D7"/>
<path d="M469.324 160.726C474.924 163.926 498.824 121.726 499.324 121.226C499.824 120.726 503.824 121.226 504.324 121.726C504.824 122.226 484.824 167.797 468.824 163.226C461.824 161.226 467.324 150.226 472.824 148.726C477.624 149.126 476.324 150.226 476.324 150.226C475.824 150.226 464.824 157.726 469.324 160.726Z" fill="#D7D7D7"/>
<path d="M500.824 174.226C481.824 175.226 495.824 143.726 505.324 119.226C505.712 118.226 509.324 120.726 509.824 123.226C496.224 149.626 498.158 168.226 500.824 174.226Z" fill="#D7D7D7"/>
<path d="M504.824 127.226C506.324 126.726 508.324 129.226 507.824 129.726C504.876 133.412 502.742 139.271 501.824 142.697C501.281 144.726 496.986 141.726 497.824 139.676C499.164 136.404 502.762 130.449 504.824 127.226Z" fill="#D7D7D7"/>
<path d="M560.324 160.726C565.924 163.926 589.824 121.726 590.324 121.226C590.824 120.726 594.824 121.226 595.324 121.726C595.824 122.226 575.824 167.797 559.824 163.226C552.824 161.226 558.324 150.226 563.824 148.726C568.624 149.126 567.324 150.226 567.324 150.226C566.824 150.226 555.824 157.726 560.324 160.726Z" fill="#D7D7D7"/>
<path d="M591.824 174.226C572.824 175.226 586.824 143.726 596.324 119.226C596.712 118.226 600.324 120.726 600.824 123.226C587.224 149.626 589.158 168.226 591.824 174.226Z" fill="#D7D7D7"/>
<path d="M588.324 141.726C587.924 140.126 593.158 131.392 595.824 127.226C597.324 126.726 599.324 129.226 598.824 129.726C594.824 134.726 592.324 143.726 592.324 145.226C591.324 145.226 588.824 143.726 588.324 141.726Z" fill="#D7D7D7"/>
<path d="M651.324 160.726C656.924 163.926 680.824 121.726 681.324 121.226C681.824 120.726 685.824 121.226 686.324 121.726C686.824 122.226 666.824 167.797 650.824 163.226C643.824 161.226 649.324 150.226 654.824 148.726C659.624 149.126 658.324 150.226 658.324 150.226C657.824 150.226 646.824 157.726 651.324 160.726Z" fill="#D7D7D7"/>
<path d="M682.824 174.226C663.824 175.226 677.824 143.726 687.324 119.226C687.712 118.226 691.324 120.726 691.824 123.226C678.224 149.626 680.158 168.226 682.824 174.226Z" fill="#D7D7D7"/>
<path d="M679.324 141.726C678.924 140.126 684.158 131.392 686.824 127.226C688.324 126.726 690.324 129.226 689.824 129.726C685.824 134.726 683.324 143.726 683.324 145.226C682.324 145.226 679.824 143.726 679.324 141.726Z" fill="#D7D7D7"/>
<path d="M684.324 131.726L682.824 137.726C683.167 137.315 683.861 136.854 684.824 136.373C685.824 135.873 688.136 130.726 685.824 131.33C685.295 131.468 684.793 131.601 684.324 131.726Z" fill="#D7D7D7"/>
<path d="M742.324 160.726C747.924 163.926 771.824 121.726 772.324 121.226C772.824 120.726 776.824 121.226 777.324 121.726C777.824 122.226 757.824 167.797 741.824 163.226C734.824 161.226 740.324 150.226 745.824 148.726C750.624 149.126 749.324 150.226 749.324 150.226C748.824 150.226 737.824 157.726 742.324 160.726Z" fill="#D7D7D7"/>
<path d="M773.824 174.226C754.824 175.226 768.824 143.726 778.324 119.226C778.712 118.226 782.324 120.726 782.824 123.226C769.224 149.626 771.158 168.226 773.824 174.226Z" fill="#D7D7D7"/>
<path d="M770.324 141.726C769.924 140.126 775.158 131.392 777.824 127.226C779.324 126.726 781.324 129.226 780.824 129.726C776.824 134.726 774.324 143.726 774.324 145.226C773.324 145.226 770.824 143.726 770.324 141.726Z" fill="#D7D7D7"/>
<path d="M775.324 131.726L773.824 137.726C774.459 136.964 776.301 136.032 778.824 135.113C779.824 134.749 785.324 129.187 781.154 130.226C778.958 130.773 776.945 131.294 775.324 131.726Z" fill="#D7D7D7"/>
<path d="M833.324 160.726C838.924 163.926 862.824 121.726 863.324 121.226C863.824 120.726 867.824 121.226 868.324 121.726C868.824 122.226 848.824 167.797 832.824 163.226C825.824 161.226 831.324 150.226 836.824 148.726C841.624 149.126 840.324 150.226 840.324 150.226C839.824 150.226 828.824 157.726 833.324 160.726Z" fill="#D7D7D7"/>
<path d="M864.824 174.226C845.824 175.226 859.824 143.726 869.324 119.226C869.712 118.226 873.324 120.726 873.824 123.226C860.224 149.626 862.158 168.226 864.824 174.226Z" fill="#D7D7D7"/>
<path d="M861.324 141.726C860.924 140.126 866.158 131.392 868.824 127.226C870.324 126.726 872.324 129.226 871.824 129.726C867.824 134.726 865.324 143.726 865.324 145.226C864.324 145.226 861.824 143.726 861.324 141.726Z" fill="#D7D7D7"/>
<path d="M866.324 131.726L864.824 137.726C865.829 136.521 869.858 134.887 874.824 133.559C878.324 132.226 878.324 128.736 876.324 129.211C872.556 130.105 868.932 131.03 866.324 131.726Z" fill="#D7D7D7"/>
<path d="M14.3245 396.726C19.9245 399.926 43.8245 357.726 44.3245 357.226C44.8244 356.726 48.8244 357.226 49.3244 357.726C49.8244 358.226 29.8245 403.797 13.8245 399.226C6.82446 397.226 12.3245 386.226 17.8245 384.726C22.6245 385.126 21.3245 386.226 21.3245 386.226C20.8245 386.226 9.82446 393.726 14.3245 396.726Z" fill="#D7D7D7"/>
<path d="M45.8245 410.226C26.8245 411.226 40.8245 379.726 50.3245 355.226C50.7122 354.226 54.3245 356.726 54.8245 359.226C41.2245 385.626 43.1578 404.226 45.8245 410.226Z" fill="#D7D7D7"/>
<path d="M42.3245 377.726C41.9245 376.126 47.1578 367.392 49.8245 363.226C51.3244 362.726 53.3244 365.226 52.8244 365.726C48.8244 370.726 46.3244 379.726 46.3244 381.226C45.3244 381.226 42.8245 379.726 42.3245 377.726Z" fill="#D7D7D7"/>
<path d="M74.3245 362.226C70.7245 361.826 54.8245 365.726 47.3245 367.726L45.8245 373.726C47.8245 371.326 61.8245 367.226 71.3245 367.226C73.8245 365.726 75.6083 362.368 74.3245 362.226Z" fill="#D7D7D7"/>
<path d="M47.8245 385.726C49.0245 385.726 65.3245 370.726 73.3245 363.226C73.8245 363.226 77.3245 364.726 76.3245 367.226C75.3245 369.726 49.8245 390.226 48.8245 390.226C47.8245 390.226 46.3245 385.726 47.8245 385.726Z" fill="#D7D7D7"/>
<path d="M88.3245 394.226C75.9245 386.226 54.8245 385.892 45.8245 386.726C44.8244 387.226 46.3245 391.726 46.8245 391.726C46.8245 391.726 46.9911 391.059 47.3245 390.726C64.3245 389.226 86.3245 397.726 87.3245 398.226C88.1245 398.626 87.9911 399.726 87.8245 400.226C90.3245 400.726 90.3245 395.226 88.3245 394.226Z" fill="#D7D7D7"/>
<path d="M2.83553 380.226C0.74534 381.997 0.260509 384.293 2.32441 387.226C2.57148 386.485 3.08639 385.8 3.82441 385.172C2.32441 383.726 3.82441 379.388 2.83553 380.226Z" fill="#D7D7D7"/>
<path d="M105.324 396.726C110.924 399.926 134.824 357.726 135.324 357.226C135.824 356.726 139.824 357.226 140.324 357.726C140.824 358.226 120.824 403.797 104.824 399.226C97.8245 397.226 103.324 386.226 108.824 384.726C113.624 385.126 112.324 386.226 112.324 386.226C111.824 386.226 100.824 393.726 105.324 396.726Z" fill="#D7D7D7"/>
<path d="M136.824 410.226C117.824 411.226 131.824 379.726 141.324 355.226C141.712 354.226 145.324 356.726 145.824 359.226C132.224 385.626 134.158 404.226 136.824 410.226Z" fill="#D7D7D7"/>
<path d="M133.324 377.726C132.924 376.126 138.158 367.392 140.824 363.226C142.324 362.726 144.324 365.226 143.824 365.726C139.824 370.726 137.324 379.726 137.324 381.226C136.324 381.226 133.824 379.726 133.324 377.726Z" fill="#D7D7D7"/>
<path d="M165.324 362.226C161.724 361.826 145.824 365.726 138.324 367.726L136.824 373.726C138.824 371.326 152.824 367.226 162.324 367.226C164.824 365.726 166.608 362.368 165.324 362.226Z" fill="#D7D7D7"/>
<path d="M138.824 385.726C140.024 385.726 156.324 370.726 164.324 363.226C164.824 363.226 168.324 364.726 167.324 367.226C166.324 369.726 140.824 390.226 139.824 390.226C138.824 390.226 137.324 385.726 138.824 385.726Z" fill="#D7D7D7"/>
<path d="M179.324 394.226C166.924 386.226 145.824 385.892 136.824 386.726C135.824 387.226 137.324 391.726 137.824 391.726C137.824 391.726 137.991 391.059 138.324 390.726C155.324 389.226 177.324 397.726 178.324 398.226C179.124 398.626 178.991 399.726 178.824 400.226C181.324 400.726 181.324 395.226 179.324 394.226Z" fill="#D7D7D7"/>
<path d="M96.8245 378.444C92.4704 380.361 90.4845 383.19 93.3245 387.226C93.7554 385.933 95.0012 384.813 96.8245 383.86C98.3245 382.226 97.8245 378.004 96.8245 378.444Z" fill="#D7D7D7"/>
<path d="M196.324 396.726C201.924 399.926 225.824 357.726 226.324 357.226C226.824 356.726 230.824 357.226 231.324 357.726C231.824 358.226 211.824 403.797 195.824 399.226C188.824 397.226 194.324 386.226 199.824 384.726C204.624 385.126 203.324 386.226 203.324 386.226C202.824 386.226 191.824 393.726 196.324 396.726Z" fill="#D7D7D7"/>
<path d="M227.824 410.226C208.824 411.226 222.824 379.726 232.324 355.226C232.712 354.226 236.324 356.726 236.824 359.226C223.224 385.626 225.158 404.226 227.824 410.226Z" fill="#D7D7D7"/>
<path d="M224.324 377.726C223.924 376.126 229.158 367.392 231.824 363.226C233.324 362.726 235.324 365.226 234.824 365.726C230.824 370.726 228.324 379.726 228.324 381.226C227.324 381.226 224.824 379.726 224.324 377.726Z" fill="#D7D7D7"/>
<path d="M256.324 362.226C252.724 361.826 236.824 365.726 229.324 367.726L227.824 373.726C229.824 371.326 243.824 367.226 253.324 367.226C255.824 365.726 257.608 362.368 256.324 362.226Z" fill="#D7D7D7"/>
<path d="M229.824 385.726C231.024 385.726 247.324 370.726 255.324 363.226C255.824 363.226 259.324 364.726 258.324 367.226C257.324 369.726 231.824 390.226 230.824 390.226C229.824 390.226 228.324 385.726 229.824 385.726Z" fill="#D7D7D7"/>
<path d="M270.324 394.226C257.924 386.226 236.824 385.892 227.824 386.726C226.824 387.226 228.324 391.726 228.824 391.726C228.824 391.726 228.991 391.059 229.324 390.726C246.324 389.226 268.324 397.726 269.324 398.226C270.124 398.626 269.991 399.726 269.824 400.226C272.324 400.726 272.324 395.226 270.324 394.226Z" fill="#D7D7D7"/>
<path d="M191.824 377.084C184.896 378.92 180.717 382.099 184.324 387.226C184.993 385.221 187.621 383.631 191.324 382.435C194.824 380.726 192.587 376.882 191.824 377.084Z" fill="#D7D7D7"/>
<path d="M287.324 396.726C292.924 399.926 316.824 357.726 317.324 357.226C317.824 356.726 321.824 357.226 322.324 357.726C322.824 358.226 302.824 403.797 286.824 399.226C279.824 397.226 285.324 386.226 290.824 384.726C295.624 385.126 294.324 386.226 294.324 386.226C293.824 386.226 282.824 393.726 287.324 396.726Z" fill="#D7D7D7"/>
<path d="M318.824 410.226C299.824 411.226 313.824 379.726 323.324 355.226C323.712 354.226 327.324 356.726 327.824 359.226C314.224 385.626 316.158 404.226 318.824 410.226Z" fill="#D7D7D7"/>
<path d="M315.324 377.726C314.924 376.126 320.158 367.392 322.824 363.226C324.324 362.726 326.324 365.226 325.824 365.726C321.824 370.726 319.324 379.726 319.324 381.226C318.324 381.226 315.824 379.726 315.324 377.726Z" fill="#D7D7D7"/>
<path d="M347.324 362.226C343.724 361.826 327.824 365.726 320.324 367.726L318.824 373.726C320.824 371.326 334.824 367.226 344.324 367.226C346.824 365.726 348.608 362.368 347.324 362.226Z" fill="#D7D7D7"/>
<path d="M320.824 385.726C322.024 385.726 338.324 370.726 346.324 363.226C346.824 363.226 350.324 364.726 349.324 367.226C348.324 369.726 322.824 390.226 321.824 390.226C320.824 390.226 319.324 385.726 320.824 385.726Z" fill="#D7D7D7"/>
<path d="M361.324 394.226C348.924 386.226 327.824 385.892 318.824 386.726C317.824 387.226 319.324 391.726 319.824 391.726C319.824 391.726 319.991 391.059 320.324 390.726C337.324 389.226 359.324 397.726 360.324 398.226C361.124 398.626 360.991 399.726 360.824 400.226C363.324 400.726 363.324 395.226 361.324 394.226Z" fill="#D7D7D7"/>
<path d="M287.824 376.048C278.153 377.596 270.911 380.954 275.324 387.226C276.265 384.404 281.088 382.406 287.324 381.167C289.824 380.226 288.824 375.889 287.824 376.048Z" fill="#D7D7D7"/>
<path d="M378.324 396.726C383.924 399.926 407.824 357.726 408.324 357.226C408.824 356.726 412.824 357.226 413.324 357.726C413.824 358.226 393.824 403.797 377.824 399.226C370.824 397.226 376.324 386.226 381.824 384.726C386.624 385.126 385.324 386.226 385.324 386.226C384.824 386.226 373.824 393.726 378.324 396.726Z" fill="#D7D7D7"/>
<path d="M409.824 410.226C390.824 411.226 404.824 379.726 414.324 355.226C414.712 354.226 418.324 356.726 418.824 359.226C405.224 385.626 407.158 404.226 409.824 410.226Z" fill="#D7D7D7"/>
<path d="M406.324 377.726C405.924 376.126 411.158 367.392 413.824 363.226C415.324 362.726 417.324 365.226 416.824 365.726C412.824 370.726 410.324 379.726 410.324 381.226C409.324 381.226 406.824 379.726 406.324 377.726Z" fill="#D7D7D7"/>
<path d="M438.324 362.226C434.724 361.826 418.824 365.726 411.324 367.726L409.824 373.726C411.824 371.326 425.824 367.226 435.324 367.226C437.824 365.726 439.608 362.368 438.324 362.226Z" fill="#D7D7D7"/>
<path d="M411.824 385.726C413.024 385.726 429.324 370.726 437.324 363.226C437.824 363.226 441.324 364.726 440.324 367.226C439.324 369.726 413.824 390.226 412.824 390.226C411.824 390.226 410.324 385.726 411.824 385.726Z" fill="#D7D7D7"/>
<path d="M452.324 394.226C439.924 386.226 418.824 385.892 409.824 386.726C408.824 387.226 410.324 391.726 410.824 391.726C410.824 391.726 410.991 391.059 411.324 390.726C428.324 389.226 450.324 397.726 451.324 398.226C452.124 398.626 451.991 399.726 451.824 400.226C454.324 400.726 454.324 395.226 452.324 394.226Z" fill="#D7D7D7"/>
<path d="M382.824 375.521C371.305 376.747 361.319 380.113 366.324 387.226C367.435 383.895 373.955 381.712 381.824 380.57C386.324 379.726 383.824 375.415 382.824 375.521Z" fill="#D7D7D7"/>
<path d="M469.324 396.726C474.924 399.926 498.824 357.726 499.324 357.226C499.824 356.726 503.824 357.226 504.324 357.726C504.824 358.226 484.824 403.797 468.824 399.226C461.824 397.226 467.324 386.226 472.824 384.726C477.624 385.126 476.324 386.226 476.324 386.226C475.824 386.226 464.824 393.726 469.324 396.726Z" fill="#D7D7D7"/>
<path d="M500.824 410.226C481.824 411.226 495.824 379.726 505.324 355.226C505.712 354.226 509.324 356.726 509.824 359.226C496.224 385.626 498.158 404.226 500.824 410.226Z" fill="#D7D7D7"/>
<path d="M497.324 377.726C496.924 376.126 502.158 367.392 504.824 363.226C506.324 362.726 508.324 365.226 507.824 365.726C503.824 370.726 501.324 379.726 501.324 381.226C500.324 381.226 497.824 379.726 497.324 377.726Z" fill="#D7D7D7"/>
<path d="M529.324 362.226C525.724 361.826 509.824 365.726 502.324 367.726L500.824 373.726C502.824 371.326 516.824 367.226 526.324 367.226C528.824 365.726 530.608 362.368 529.324 362.226Z" fill="#D7D7D7"/>
<path d="M502.825 385.726C504.025 385.726 520.325 370.726 528.325 363.226C528.825 363.226 532.325 364.726 531.325 367.226C530.325 369.726 504.825 390.226 503.825 390.226C502.825 390.226 501.325 385.726 502.825 385.726Z" fill="#D7D7D7"/>
<path d="M543.324 394.226C530.924 386.226 509.824 385.892 500.824 386.726C499.824 387.226 501.324 391.726 501.824 391.726C501.824 391.726 501.991 391.059 502.324 390.726C519.324 389.226 541.324 397.726 542.324 398.226C543.124 398.626 542.991 399.726 542.824 400.226C545.324 400.726 545.324 395.226 543.324 394.226Z" fill="#D7D7D7"/>
<path d="M475.324 375.374C463.195 376.464 452.103 379.806 457.324 387.226C458.551 383.548 466.372 381.269 475.324 380.248C480.324 379.226 476.324 375.284 475.324 375.374Z" fill="#D7D7D7"/>
<path d="M560.324 396.726C565.924 399.926 589.824 357.726 590.324 357.226C590.824 356.726 594.824 357.226 595.324 357.726C595.824 358.226 575.824 403.797 559.824 399.226C552.824 397.226 558.324 386.226 563.824 384.726C568.624 385.126 567.324 386.226 567.324 386.226C566.824 386.226 555.824 393.726 560.324 396.726Z" fill="#D7D7D7"/>
<path d="M591.824 410.226C572.824 411.226 586.824 379.726 596.324 355.226C596.712 354.226 600.324 356.726 600.824 359.226C587.224 385.626 589.158 404.226 591.824 410.226Z" fill="#D7D7D7"/>
<path d="M588.324 377.726C587.924 376.126 593.158 367.392 595.824 363.226C597.324 362.726 599.324 365.226 598.824 365.726C594.824 370.726 592.324 379.726 592.324 381.226C591.324 381.226 588.824 379.726 588.324 377.726Z" fill="#D7D7D7"/>
<path d="M620.324 362.226C616.724 361.826 600.824 365.726 593.324 367.726L591.824 373.726C593.824 371.326 607.824 367.226 617.324 367.226C619.824 365.726 621.608 362.368 620.324 362.226Z" fill="#D7D7D7"/>
<path d="M593.825 385.726C595.025 385.726 611.325 370.726 619.325 363.226C619.825 363.226 623.325 364.726 622.325 367.226C621.325 369.726 595.825 390.226 594.825 390.226C593.825 390.226 592.325 385.726 593.825 385.726Z" fill="#D7D7D7"/>
<path d="M634.324 394.226C621.924 386.226 600.824 385.892 591.824 386.726C590.824 387.226 592.324 391.726 592.824 391.726C592.824 391.726 592.991 391.059 593.324 390.726C610.324 389.226 632.324 397.726 633.324 398.226C634.124 398.626 633.991 399.726 633.824 400.226C636.324 400.726 636.324 395.226 634.324 394.226Z" fill="#D7D7D7"/>
<path d="M574.824 374.955C560.288 375.122 541.879 378.067 548.324 387.226C549.931 382.406 562.864 379.989 574.824 379.655C581.324 379.474 577.324 374.226 574.824 374.955Z" fill="#D7D7D7"/>
<path d="M651.324 396.726C656.924 399.926 680.824 357.726 681.324 357.226C681.824 356.726 685.824 357.226 686.324 357.726C686.824 358.226 666.824 403.797 650.824 399.226C643.824 397.226 649.324 386.226 654.824 384.726C659.624 385.126 658.324 386.226 658.324 386.226C657.824 386.226 646.824 393.726 651.324 396.726Z" fill="#D7D7D7"/>
<path d="M682.824 410.226C663.824 411.226 677.824 379.726 687.324 355.226C687.712 354.226 691.324 356.726 691.824 359.226C678.224 385.626 680.158 404.226 682.824 410.226Z" fill="#D7D7D7"/>
<path d="M679.324 377.726C678.924 376.126 684.158 367.392 686.824 363.226C688.324 362.726 690.324 365.226 689.824 365.726C685.824 370.726 683.324 379.726 683.324 381.226C682.324 381.226 679.824 379.726 679.324 377.726Z" fill="#D7D7D7"/>
<path d="M711.324 362.226C707.724 361.826 691.824 365.726 684.324 367.726L682.824 373.726C684.824 371.326 698.824 367.226 708.324 367.226C710.824 365.726 712.608 362.368 711.324 362.226Z" fill="#D7D7D7"/>
<path d="M684.825 385.726C686.025 385.726 702.325 370.726 710.325 363.226C710.825 363.226 714.325 364.726 713.325 367.226C712.325 369.726 686.825 390.226 685.825 390.226C684.825 390.226 683.325 385.726 684.825 385.726Z" fill="#D7D7D7"/>
<path d="M725.324 394.226C712.924 386.226 691.824 385.892 682.824 386.726C681.824 387.226 683.324 391.726 683.824 391.726C683.824 391.726 683.991 391.059 684.324 390.726C701.324 389.226 723.324 397.726 724.324 398.226C725.124 398.626 724.991 399.726 724.824 400.226C727.324 400.726 727.324 395.226 725.324 394.226Z" fill="#D7D7D7"/>
<path d="M673.824 375.16C659.611 374.195 631.595 376.242 639.324 387.226C641.277 381.369 659.955 379.061 673.288 379.726C677.324 379.226 676.324 375.16 673.824 375.16Z" fill="#D7D7D7"/>
<path d="M742.324 396.726C747.924 399.926 771.824 357.726 772.324 357.226C772.824 356.726 776.824 357.226 777.324 357.726C777.824 358.226 757.824 403.797 741.824 399.226C734.824 397.226 740.324 386.226 745.824 384.726C750.624 385.126 749.324 386.226 749.324 386.226C748.824 386.226 737.824 393.726 742.324 396.726Z" fill="#D7D7D7"/>
<path d="M773.824 410.226C754.824 411.226 768.824 379.726 778.324 355.226C778.712 354.226 782.324 356.726 782.824 359.226C769.224 385.626 771.158 404.226 773.824 410.226Z" fill="#D7D7D7"/>
<path d="M770.324 377.726C769.924 376.126 775.158 367.392 777.824 363.226C779.324 362.726 781.324 365.226 780.824 365.726C776.824 370.726 774.324 379.726 774.324 381.226C773.324 381.226 770.824 379.726 770.324 377.726Z" fill="#D7D7D7"/>
<path d="M802.324 362.226C798.724 361.826 782.824 365.726 775.324 367.726L773.824 373.726C775.824 371.326 789.824 367.226 799.324 367.226C801.824 365.726 803.608 362.368 802.324 362.226Z" fill="#D7D7D7"/>
<path d="M775.825 385.726C777.025 385.726 793.325 370.726 801.325 363.226C801.825 363.226 805.325 364.726 804.325 367.226C803.325 369.726 777.825 390.226 776.825 390.226C775.825 390.226 774.325 385.726 775.825 385.726Z" fill="#D7D7D7"/>
<path d="M816.324 394.226C803.924 386.226 782.824 385.892 773.824 386.726C772.824 387.226 774.324 391.726 774.824 391.726C774.824 391.726 774.991 391.059 775.324 390.726C792.324 389.226 814.324 397.726 815.324 398.226C816.124 398.626 815.991 399.726 815.824 400.226C818.324 400.726 818.324 395.226 816.324 394.226Z" fill="#D7D7D7"/>
<path d="M771.824 376.226C765.324 373.726 720.824 373.726 730.324 387.226C732.757 379.929 761.15 378.14 772.824 380.747C775.324 380.747 777.657 378.469 771.824 376.226Z" fill="#D7D7D7"/>
<path d="M833.324 396.726C838.924 399.926 862.824 357.726 863.324 357.226C863.824 356.726 867.824 357.226 868.324 357.726C868.824 358.226 848.824 403.797 832.824 399.226C825.824 397.226 831.324 386.226 836.824 384.726C841.624 385.126 840.324 386.226 840.324 386.226C839.824 386.226 828.824 393.726 833.324 396.726Z" fill="#D7D7D7"/>
<path d="M864.824 410.226C845.824 411.226 859.824 379.726 869.324 355.226C869.712 354.226 873.324 356.726 873.824 359.226C860.224 385.626 862.158 404.226 864.824 410.226Z" fill="#D7D7D7"/>
<path d="M861.324 377.726C860.924 376.126 866.158 367.392 868.824 363.226C870.324 362.726 872.324 365.226 871.824 365.726C867.824 370.726 865.324 379.726 865.324 381.226C864.324 381.226 861.824 379.726 861.324 377.726Z" fill="#D7D7D7"/>
<path d="M893.324 362.226C889.724 361.826 873.824 365.726 866.324 367.726L864.824 373.726C866.824 371.326 880.824 367.226 890.324 367.226C892.824 365.726 894.608 362.368 893.324 362.226Z" fill="#D7D7D7"/>
<path d="M866.825 385.726C868.025 385.726 884.325 370.726 892.325 363.226C892.825 363.226 896.325 364.726 895.325 367.226C894.325 369.726 868.825 390.226 867.825 390.226C866.825 390.226 865.325 385.726 866.825 385.726Z" fill="#D7D7D7"/>
<path d="M907.324 394.226C894.924 386.226 873.824 385.892 864.824 386.726C863.824 387.226 865.324 391.726 865.824 391.726C865.824 391.726 865.991 391.059 866.324 390.726C883.324 389.226 905.324 397.726 906.324 398.226C907.124 398.626 906.991 399.726 906.824 400.226C909.324 400.726 909.324 395.226 907.324 394.226Z" fill="#D7D7D7"/>
<path d="M862.824 376.226C856.324 373.726 811.824 373.726 821.324 387.226C824.124 378.826 861.324 377.726 867.824 382.226C868.824 380.726 869.324 378.726 862.824 376.226Z" fill="#D7D7D7"/>
<path d="M14.3245 455.726C19.9245 458.926 43.8245 416.726 44.3245 416.226C44.8244 415.726 48.8244 416.226 49.3244 416.726C49.8244 417.226 29.8245 462.797 13.8245 458.226C6.82446 456.226 12.3245 445.226 17.8245 443.726C22.6245 444.126 21.3245 445.226 21.3245 445.226C20.8245 445.226 9.82446 452.726 14.3245 455.726Z" fill="#D7D7D7"/>
<path d="M45.8245 469.226C26.8245 470.226 40.8245 438.726 50.3245 414.226C50.7122 413.226 54.3245 415.726 54.8245 418.226C41.2245 444.626 43.1578 463.226 45.8245 469.226Z" fill="#D7D7D7"/>
<path d="M42.3245 436.726C41.9245 435.126 47.1578 426.392 49.8245 422.226C51.3244 421.726 53.3244 424.226 52.8244 424.726C48.8244 429.726 46.3244 438.726 46.3244 440.226C45.3244 440.226 42.8245 438.726 42.3245 436.726Z" fill="#D7D7D7"/>
<path d="M74.3245 421.226C70.7245 420.826 54.8245 424.726 47.3245 426.726L45.8245 432.726C47.8245 430.326 61.8245 426.226 71.3245 426.226C73.8245 424.726 75.6083 421.368 74.3245 421.226Z" fill="#D7D7D7"/>
<path d="M47.8245 444.726C49.0245 444.726 65.3245 429.726 73.3245 422.226C73.8245 422.226 77.3245 423.726 76.3245 426.226C75.3245 428.726 49.8245 449.226 48.8245 449.226C47.8245 449.226 46.3245 444.726 47.8245 444.726Z" fill="#D7D7D7"/>
<path d="M88.3245 453.226C75.9245 445.226 54.8245 444.892 45.8245 445.726C44.8244 446.226 46.3245 450.726 46.8245 450.726C46.8245 450.726 46.9911 450.059 47.3245 449.726C64.3245 448.226 86.3245 456.726 87.3245 457.226C88.1245 457.626 87.9911 458.726 87.8245 459.226C90.3245 459.726 90.3245 454.226 88.3245 453.226Z" fill="#D7D7D7"/>
<path d="M43.8245 435.226C37.3245 432.726 -7.17555 432.726 2.32446 446.226C5.12447 437.826 42.3245 436.726 48.8245 441.226C49.8245 439.726 50.3245 437.726 43.8245 435.226Z" fill="#D7D7D7"/>
<circle cx="13" cy="422" r="2" fill="#8F8F8F"/>
<circle cx="80" cy="437" r="2" fill="#8F8F8F"/>
<circle cx="26" cy="464" r="2" fill="#8F8F8F"/>
<circle cx="59" cy="458" r="2" fill="#8F8F8F"/>
<circle cx="58" cy="431" r="1" fill="#8F8F8F"/>
<path d="M105.324 455.726C110.924 458.926 134.824 416.726 135.324 416.226C135.824 415.726 139.824 416.226 140.324 416.726C140.824 417.226 120.824 462.797 104.824 458.226C97.8245 456.226 103.324 445.226 108.824 443.726C113.624 444.126 112.324 445.226 112.324 445.226C111.824 445.226 100.824 452.726 105.324 455.726Z" fill="#D7D7D7"/>
<path d="M136.824 469.226C117.824 470.226 131.824 438.726 141.324 414.226C141.712 413.226 145.324 415.726 145.824 418.226C132.224 444.626 134.158 463.226 136.824 469.226Z" fill="#D7D7D7"/>
<path d="M133.324 436.726C132.924 435.126 138.158 426.392 140.824 422.226C142.324 421.726 144.324 424.226 143.824 424.726C139.824 429.726 137.324 438.726 137.324 440.226C136.324 440.226 133.824 438.726 133.324 436.726Z" fill="#D7D7D7"/>
<path d="M165.324 421.226C161.724 420.826 145.824 424.726 138.324 426.726L136.824 432.726C138.824 430.326 152.824 426.226 162.324 426.226C164.824 424.726 166.608 421.368 165.324 421.226Z" fill="#D7D7D7"/>
<path d="M138.824 444.726C140.024 444.726 156.324 429.726 164.324 422.226C164.824 422.226 168.324 423.726 167.324 426.226C166.324 428.726 140.824 449.226 139.824 449.226C138.824 449.226 137.324 444.726 138.824 444.726Z" fill="#D7D7D7"/>
<path d="M179.324 453.226C166.924 445.226 145.824 444.892 136.824 445.726C135.824 446.226 137.324 450.726 137.824 450.726C137.824 450.726 137.991 450.059 138.324 449.726C155.324 448.226 177.324 456.726 178.324 457.226C179.124 457.626 178.991 458.726 178.824 459.226C181.324 459.726 181.324 454.226 179.324 453.226Z" fill="#D7D7D7"/>
<path d="M134.824 435.226C128.324 432.726 83.8244 432.726 93.3245 446.226C96.1245 437.826 133.324 436.726 139.824 441.226C140.824 439.726 141.325 437.726 134.824 435.226Z" fill="#D7D7D7"/>
<circle cx="110.5" cy="423.5" r="1.5" fill="#8F8F8F"/>
<circle cx="163" cy="441" r="1" fill="#8F8F8F"/>
<circle cx="120.5" cy="460.5" r="1.5" fill="#8F8F8F"/>
<circle cx="147" cy="455" r="1" transform="rotate(-180 147 455)" fill="#8F8F8F"/>
<circle r="0.5" transform="matrix(-1 0 0 1 147.5 432.5)" fill="#8F8F8F"/>
<path d="M196.324 455.726C201.924 458.926 225.824 416.726 226.324 416.226C226.824 415.726 230.824 416.226 231.324 416.726C231.824 417.226 211.824 462.797 195.824 458.226C188.824 456.226 194.324 445.226 199.824 443.726C204.624 444.126 203.324 445.226 203.324 445.226C202.824 445.226 191.824 452.726 196.324 455.726Z" fill="#D7D7D7"/>
<path d="M227.824 469.226C208.824 470.226 222.824 438.726 232.324 414.226C232.712 413.226 236.324 415.726 236.824 418.226C223.224 444.626 225.158 463.226 227.824 469.226Z" fill="#D7D7D7"/>
<path d="M224.324 436.726C223.924 435.126 229.158 426.392 231.824 422.226C233.324 421.726 235.324 424.226 234.824 424.726C230.824 429.726 228.324 438.726 228.324 440.226C227.324 440.226 224.824 438.726 224.324 436.726Z" fill="#D7D7D7"/>
<path d="M256.324 421.226C252.724 420.826 236.824 424.726 229.324 426.726L227.824 432.726C229.824 430.326 243.824 426.226 253.324 426.226C255.824 424.726 257.608 421.368 256.324 421.226Z" fill="#D7D7D7"/>
<path d="M229.824 444.726C231.024 444.726 247.324 429.726 255.324 422.226C255.824 422.226 259.324 423.726 258.324 426.226C257.324 428.726 231.824 449.226 230.824 449.226C229.824 449.226 228.324 444.726 229.824 444.726Z" fill="#D7D7D7"/>
<path d="M270.324 453.226C257.924 445.226 236.824 444.892 227.824 445.726C226.824 446.226 228.324 450.726 228.824 450.726C228.824 450.726 228.991 450.059 229.324 449.726C246.324 448.226 268.324 456.726 269.324 457.226C270.124 457.626 269.991 458.726 269.824 459.226C272.324 459.726 272.324 454.226 270.324 453.226Z" fill="#D7D7D7"/>
<path d="M225.824 435.226C219.324 432.726 174.824 432.726 184.324 446.226C187.124 437.826 224.324 436.726 230.824 441.226C231.824 439.726 232.325 437.726 225.824 435.226Z" fill="#D7D7D7"/>
<circle cx="209" cy="428" r="1" fill="#8F8F8F"/>
<circle cx="254" cy="441" r="1" fill="#8F8F8F"/>
<circle cx="213" cy="456" r="1" fill="#8F8F8F"/>
<circle cx="234.5" cy="452.5" r="0.5" transform="rotate(-180 234.5 452.5)" fill="#8F8F8F"/>
<circle r="0.5" transform="matrix(-1 0 0 1 235.5 435.5)" fill="#8F8F8F"/>
<path d="M287.324 455.726C292.924 458.926 316.824 416.726 317.324 416.226C317.824 415.726 321.824 416.226 322.324 416.726C322.824 417.226 302.824 462.797 286.824 458.226C279.824 456.226 285.324 445.226 290.824 443.726C295.624 444.126 294.324 445.226 294.324 445.226C293.824 445.226 282.824 452.726 287.324 455.726Z" fill="#D7D7D7"/>
<path d="M318.824 469.226C299.824 470.226 313.824 438.726 323.324 414.226C323.712 413.226 327.324 415.726 327.824 418.226C314.224 444.626 316.158 463.226 318.824 469.226Z" fill="#D7D7D7"/>
<path d="M315.324 436.726C314.924 435.126 320.158 426.392 322.824 422.226C324.324 421.726 326.324 424.226 325.824 424.726C321.824 429.726 319.324 438.726 319.324 440.226C318.324 440.226 315.824 438.726 315.324 436.726Z" fill="#D7D7D7"/>
<path d="M347.324 421.226C343.724 420.826 327.824 424.726 320.324 426.726L318.824 432.726C320.824 430.326 334.824 426.226 344.324 426.226C346.824 424.726 348.608 421.368 347.324 421.226Z" fill="#D7D7D7"/>
<path d="M320.824 444.726C322.024 444.726 338.324 429.726 346.324 422.226C346.824 422.226 350.324 423.726 349.324 426.226C348.324 428.726 322.824 449.226 321.824 449.226C320.824 449.226 319.324 444.726 320.824 444.726Z" fill="#D7D7D7"/>
<path d="M361.324 453.226C348.924 445.226 327.824 444.892 318.824 445.726C317.824 446.226 319.324 450.726 319.824 450.726C319.824 450.726 319.991 450.059 320.324 449.726C337.324 448.226 359.324 456.726 360.324 457.226C361.124 457.626 360.991 458.726 360.824 459.226C363.324 459.726 363.324 454.226 361.324 453.226Z" fill="#D7D7D7"/>
<path d="M316.824 435.226C310.324 432.726 265.824 432.726 275.324 446.226C278.124 437.826 315.324 436.726 321.824 441.226C322.824 439.726 323.325 437.726 316.824 435.226Z" fill="#D7D7D7"/>
<circle cx="300" cy="428" r="1" fill="#8F8F8F"/>
<circle cx="345" cy="441" r="1" fill="#8F8F8F"/>
<circle cx="304" cy="456" r="1" fill="#8F8F8F"/>
<circle cx="325.5" cy="452.5" r="0.5" transform="rotate(-180 325.5 452.5)" fill="#8F8F8F"/>
<circle r="0.5" transform="matrix(-1 0 0 1 326.5 435.5)" fill="#8F8F8F"/>
<path d="M378.324 455.726C383.924 458.926 407.824 416.726 408.324 416.226C408.824 415.726 412.824 416.226 413.324 416.726C413.824 417.226 393.824 462.797 377.824 458.226C370.824 456.226 376.324 445.226 381.824 443.726C386.624 444.126 385.324 445.226 385.324 445.226C384.824 445.226 373.824 452.726 378.324 455.726Z" fill="#D7D7D7"/>
<path d="M409.824 469.226C390.824 470.226 404.824 438.726 414.324 414.226C414.712 413.226 418.324 415.726 418.824 418.226C405.224 444.626 407.158 463.226 409.824 469.226Z" fill="#D7D7D7"/>
<path d="M406.324 436.726C405.924 435.126 411.158 426.392 413.824 422.226C415.324 421.726 417.324 424.226 416.824 424.726C412.824 429.726 410.324 438.726 410.324 440.226C409.324 440.226 406.824 438.726 406.324 436.726Z" fill="#D7D7D7"/>
<path d="M438.324 421.226C434.724 420.826 418.824 424.726 411.324 426.726L409.824 432.726C411.824 430.326 425.824 426.226 435.324 426.226C437.824 424.726 439.608 421.368 438.324 421.226Z" fill="#D7D7D7"/>
<path d="M411.824 444.726C413.024 444.726 429.324 429.726 437.324 422.226C437.824 422.226 441.324 423.726 440.324 426.226C439.324 428.726 413.824 449.226 412.824 449.226C411.824 449.226 410.324 444.726 411.824 444.726Z" fill="#D7D7D7"/>
<path d="M452.324 453.226C439.924 445.226 418.824 444.892 409.824 445.726C408.824 446.226 410.324 450.726 410.824 450.726C410.824 450.726 410.991 450.059 411.324 449.726C428.324 448.226 450.324 456.726 451.324 457.226C452.124 457.626 451.991 458.726 451.824 459.226C454.324 459.726 454.324 454.226 452.324 453.226Z" fill="#D7D7D7"/>
<path d="M407.824 435.226C401.324 432.726 356.824 432.726 366.324 446.226C369.124 437.826 406.324 436.726 412.824 441.226C413.824 439.726 414.325 437.726 407.824 435.226Z" fill="#D7D7D7"/>
<circle cx="391" cy="428" r="1" fill="#8F8F8F"/>
<circle cx="436" cy="441" r="1" fill="#8F8F8F"/>
<circle cx="395" cy="456" r="1" fill="#8F8F8F"/>
<circle cx="416.5" cy="452.5" r="0.5" transform="rotate(-180 416.5 452.5)" fill="#8F8F8F"/>
<circle r="0.5" transform="matrix(-1 0 0 1 417.5 435.5)" fill="#8F8F8F"/>
<path d="M469.324 455.726C474.924 458.926 498.824 416.726 499.324 416.226C499.824 415.726 503.824 416.226 504.324 416.726C504.824 417.226 484.824 462.797 468.824 458.226C461.824 456.226 467.324 445.226 472.824 443.726C477.624 444.126 476.324 445.226 476.324 445.226C475.824 445.226 464.824 452.726 469.324 455.726Z" fill="#D7D7D7"/>
<path d="M500.824 469.226C481.824 470.226 495.824 438.726 505.324 414.226C505.712 413.226 509.324 415.726 509.824 418.226C496.224 444.626 498.158 463.226 500.824 469.226Z" fill="#D7D7D7"/>
<path d="M497.324 436.726C496.924 435.126 502.158 426.392 504.824 422.226C506.324 421.726 508.324 424.226 507.824 424.726C503.824 429.726 501.324 438.726 501.324 440.226C500.324 440.226 497.824 438.726 497.324 436.726Z" fill="#D7D7D7"/>
<path d="M529.324 421.226C525.724 420.826 509.824 424.726 502.324 426.726L500.824 432.726C502.824 430.326 516.824 426.226 526.324 426.226C528.824 424.726 530.608 421.368 529.324 421.226Z" fill="#D7D7D7"/>
<path d="M502.825 444.726C504.025 444.726 520.325 429.726 528.325 422.226C528.825 422.226 532.325 423.726 531.325 426.226C530.325 428.726 504.825 449.226 503.825 449.226C502.825 449.226 501.325 444.726 502.825 444.726Z" fill="#D7D7D7"/>
<path d="M543.324 453.226C530.924 445.226 509.824 444.892 500.824 445.726C499.824 446.226 501.324 450.726 501.824 450.726C501.824 450.726 501.991 450.059 502.324 449.726C519.324 448.226 541.324 456.726 542.324 457.226C543.124 457.626 542.991 458.726 542.824 459.226C545.324 459.726 545.324 454.226 543.324 453.226Z" fill="#D7D7D7"/>
<path d="M498.824 435.226C492.324 432.726 447.824 432.726 457.324 446.226C460.124 437.826 497.324 436.726 503.824 441.226C504.824 439.726 505.325 437.726 498.824 435.226Z" fill="#D7D7D7"/>
<circle cx="482" cy="428" r="1" fill="#8F8F8F"/>
<circle cx="527" cy="441" r="1" fill="#8F8F8F"/>
<circle cx="486" cy="456" r="1" fill="#8F8F8F"/>
<circle cx="507.5" cy="452.5" r="0.5" transform="rotate(-180 507.5 452.5)" fill="#8F8F8F"/>
<circle r="0.5" transform="matrix(-1 0 0 1 508.5 435.5)" fill="#8F8F8F"/>
<path d="M560.324 455.726C565.924 458.926 589.824 416.726 590.324 416.226C590.824 415.726 594.824 416.226 595.324 416.726C595.824 417.226 575.824 462.797 559.824 458.226C552.824 456.226 558.324 445.226 563.824 443.726C568.624 444.126 567.324 445.226 567.324 445.226C566.824 445.226 555.824 452.726 560.324 455.726Z" fill="#D7D7D7"/>
<path d="M591.824 469.226C572.824 470.226 586.824 438.726 596.324 414.226C596.712 413.226 600.324 415.726 600.824 418.226C587.224 444.626 589.158 463.226 591.824 469.226Z" fill="#D7D7D7"/>
<path d="M588.324 436.726C587.924 435.126 593.158 426.392 595.824 422.226C597.324 421.726 599.324 424.226 598.824 424.726C594.824 429.726 592.324 438.726 592.324 440.226C591.324 440.226 588.824 438.726 588.324 436.726Z" fill="#D7D7D7"/>
<path d="M620.324 421.226C616.724 420.826 600.824 424.726 593.324 426.726L591.824 432.726C593.824 430.326 607.824 426.226 617.324 426.226C619.824 424.726 621.608 421.368 620.324 421.226Z" fill="#D7D7D7"/>
<path d="M593.825 444.726C595.025 444.726 611.325 429.726 619.325 422.226C619.825 422.226 623.325 423.726 622.325 426.226C621.325 428.726 595.825 449.226 594.825 449.226C593.825 449.226 592.325 444.726 593.825 444.726Z" fill="#D7D7D7"/>
<path d="M634.324 453.226C621.924 445.226 600.824 444.892 591.824 445.726C590.824 446.226 592.324 450.726 592.824 450.726C592.824 450.726 592.991 450.059 593.324 449.726C610.324 448.226 632.324 456.726 633.324 457.226C634.124 457.626 633.991 458.726 633.824 459.226C636.324 459.726 636.324 454.226 634.324 453.226Z" fill="#D7D7D7"/>
<path d="M589.824 435.226C583.324 432.726 538.824 432.726 548.324 446.226C551.124 437.826 588.324 436.726 594.824 441.226C595.824 439.726 596.324 437.726 589.824 435.226Z" fill="#D7D7D7"/>
<circle cx="573" cy="428" r="1" fill="#8F8F8F"/>
<circle cx="618" cy="441" r="1" fill="#8F8F8F"/>
<circle cx="577" cy="456" r="1" fill="#8F8F8F"/>
<circle cx="598.5" cy="452.5" r="0.5" transform="rotate(-180 598.5 452.5)" fill="#8F8F8F"/>
<circle r="0.5" transform="matrix(-1 0 0 1 599.5 435.5)" fill="#8F8F8F"/>
<path d="M651.324 455.726C656.924 458.926 680.824 416.726 681.324 416.226C681.824 415.726 685.824 416.226 686.324 416.726C686.824 417.226 666.824 462.797 650.824 458.226C643.824 456.226 649.324 445.226 654.824 443.726C659.624 444.126 658.324 445.226 658.324 445.226C657.824 445.226 646.824 452.726 651.324 455.726Z" fill="#D7D7D7"/>
<path d="M682.824 469.226C663.824 470.226 677.824 438.726 687.324 414.226C687.712 413.226 691.324 415.726 691.824 418.226C678.224 444.626 680.158 463.226 682.824 469.226Z" fill="#D7D7D7"/>
<path d="M679.324 436.726C678.924 435.126 684.158 426.392 686.824 422.226C688.324 421.726 690.324 424.226 689.824 424.726C685.824 429.726 683.324 438.726 683.324 440.226C682.324 440.226 679.824 438.726 679.324 436.726Z" fill="#D7D7D7"/>
<path d="M711.324 421.226C707.724 420.826 691.824 424.726 684.324 426.726L682.824 432.726C684.824 430.326 698.824 426.226 708.324 426.226C710.824 424.726 712.608 421.368 711.324 421.226Z" fill="#D7D7D7"/>
<path d="M684.825 444.726C686.025 444.726 702.325 429.726 710.325 422.226C710.825 422.226 714.325 423.726 713.325 426.226C712.325 428.726 686.825 449.226 685.825 449.226C684.825 449.226 683.325 444.726 684.825 444.726Z" fill="#D7D7D7"/>
<path d="M725.324 453.226C712.924 445.226 691.824 444.892 682.824 445.726C681.824 446.226 683.324 450.726 683.824 450.726C683.824 450.726 683.991 450.059 684.324 449.726C701.324 448.226 723.324 456.726 724.324 457.226C725.124 457.626 724.991 458.726 724.824 459.226C727.324 459.726 727.324 454.226 725.324 453.226Z" fill="#D7D7D7"/>
<path d="M680.824 435.226C674.324 432.726 629.824 432.726 639.324 446.226C642.124 437.826 679.324 436.726 685.824 441.226C686.824 439.726 687.324 437.726 680.824 435.226Z" fill="#D7D7D7"/>
<circle cx="664" cy="428" r="1" fill="#8F8F8F"/>
<circle cx="709" cy="441" r="1" fill="#8F8F8F"/>
<circle cx="668" cy="456" r="1" fill="#8F8F8F"/>
<circle cx="689.5" cy="452.5" r="0.5" transform="rotate(-180 689.5 452.5)" fill="#8F8F8F"/>
<circle r="0.5" transform="matrix(-1 0 0 1 690.5 435.5)" fill="#8F8F8F"/>
<path d="M742.324 455.726C747.924 458.926 771.824 416.726 772.324 416.226C772.824 415.726 776.824 416.226 777.324 416.726C777.824 417.226 757.824 462.797 741.824 458.226C734.824 456.226 740.324 445.226 745.824 443.726C750.624 444.126 749.324 445.226 749.324 445.226C748.824 445.226 737.824 452.726 742.324 455.726Z" fill="#D7D7D7"/>
<path d="M773.824 469.226C754.824 470.226 768.824 438.726 778.324 414.226C778.712 413.226 782.324 415.726 782.824 418.226C769.224 444.626 771.158 463.226 773.824 469.226Z" fill="#D7D7D7"/>
<path d="M770.324 436.726C769.924 435.126 775.158 426.392 777.824 422.226C779.324 421.726 781.324 424.226 780.824 424.726C776.824 429.726 774.324 438.726 774.324 440.226C773.324 440.226 770.824 438.726 770.324 436.726Z" fill="#D7D7D7"/>
<path d="M802.324 421.226C798.724 420.826 782.824 424.726 775.324 426.726L773.824 432.726C775.824 430.326 789.824 426.226 799.324 426.226C801.824 424.726 803.608 421.368 802.324 421.226Z" fill="#D7D7D7"/>
<path d="M775.825 444.726C777.025 444.726 793.325 429.726 801.325 422.226C801.825 422.226 805.325 423.726 804.325 426.226C803.325 428.726 777.825 449.226 776.825 449.226C775.825 449.226 774.325 444.726 775.825 444.726Z" fill="#D7D7D7"/>
<path d="M816.324 453.226C803.924 445.226 782.824 444.892 773.824 445.726C772.824 446.226 774.324 450.726 774.824 450.726C774.824 450.726 774.991 450.059 775.324 449.726C792.324 448.226 814.324 456.726 815.324 457.226C816.124 457.626 815.991 458.726 815.824 459.226C818.324 459.726 818.324 454.226 816.324 453.226Z" fill="#D7D7D7"/>
<path d="M771.824 435.226C765.324 432.726 720.824 432.726 730.324 446.226C733.124 437.826 770.324 436.726 776.824 441.226C777.824 439.726 778.324 437.726 771.824 435.226Z" fill="#D7D7D7"/>
<circle cx="755" cy="428" r="1" fill="#8F8F8F"/>
<circle cx="800" cy="441" r="1" fill="#8F8F8F"/>
<circle cx="759" cy="456" r="1" fill="#8F8F8F"/>
<circle cx="780.5" cy="452.5" r="0.5" transform="rotate(-180 780.5 452.5)" fill="#8F8F8F"/>
<circle r="0.5" transform="matrix(-1 0 0 1 781.5 435.5)" fill="#8F8F8F"/>
<path d="M833.324 455.726C838.924 458.926 862.824 416.726 863.324 416.226C863.824 415.726 867.824 416.226 868.324 416.726C868.824 417.226 848.824 462.797 832.824 458.226C825.824 456.226 831.324 445.226 836.824 443.726C841.624 444.126 840.324 445.226 840.324 445.226C839.824 445.226 828.824 452.726 833.324 455.726Z" fill="#D7D7D7"/>
<path d="M864.824 469.226C845.824 470.226 859.824 438.726 869.324 414.226C869.712 413.226 873.324 415.726 873.824 418.226C860.224 444.626 862.158 463.226 864.824 469.226Z" fill="#D7D7D7"/>
<path d="M861.324 436.726C860.924 435.126 866.158 426.392 868.824 422.226C870.324 421.726 872.324 424.226 871.824 424.726C867.824 429.726 865.324 438.726 865.324 440.226C864.324 440.226 861.824 438.726 861.324 436.726Z" fill="#D7D7D7"/>
<path d="M893.324 421.226C889.724 420.826 873.824 424.726 866.324 426.726L864.824 432.726C866.824 430.326 880.824 426.226 890.324 426.226C892.824 424.726 894.608 421.368 893.324 421.226Z" fill="#D7D7D7"/>
<path d="M866.825 444.726C868.025 444.726 884.325 429.726 892.325 422.226C892.825 422.226 896.325 423.726 895.325 426.226C894.325 428.726 868.825 449.226 867.825 449.226C866.825 449.226 865.325 444.726 866.825 444.726Z" fill="#D7D7D7"/>
<path d="M907.324 453.226C894.924 445.226 873.824 444.892 864.824 445.726C863.824 446.226 865.324 450.726 865.824 450.726C865.824 450.726 865.991 450.059 866.324 449.726C883.324 448.226 905.324 456.726 906.324 457.226C907.124 457.626 906.991 458.726 906.824 459.226C909.324 459.726 909.324 454.226 907.324 453.226Z" fill="#D7D7D7"/>
<path d="M862.824 435.226C856.324 432.726 811.824 432.726 821.324 446.226C824.124 437.826 861.324 436.726 867.824 441.226C868.824 439.726 869.324 437.726 862.824 435.226Z" fill="#D7D7D7"/>
<circle cx="846" cy="428" r="1" fill="#8F8F8F"/>
<circle cx="891" cy="441" r="1" fill="#8F8F8F"/>
<circle cx="850" cy="456" r="1" fill="#8F8F8F"/>
<circle cx="871.5" cy="452.5" r="0.5" transform="rotate(-180 871.5 452.5)" fill="#8F8F8F"/>
<circle r="0.5" transform="matrix(-1 0 0 1 872.5 435.5)" fill="#8F8F8F"/>
<path d="M14.3245 337.726C19.9245 340.926 43.8245 298.726 44.3245 298.226C44.8244 297.726 48.8244 298.226 49.3244 298.726C49.8244 299.226 29.8245 344.797 13.8245 340.226C6.82446 338.226 12.3245 327.226 17.8245 325.726C22.6245 326.126 21.3245 327.226 21.3245 327.226C20.8245 327.226 9.82446 334.726 14.3245 337.726Z" fill="#D7D7D7"/>
<path d="M45.8245 351.226C26.8245 352.226 40.8245 320.726 50.3245 296.226C50.7122 295.226 54.3245 297.726 54.8245 300.226C41.2245 326.626 43.1578 345.226 45.8245 351.226Z" fill="#D7D7D7"/>
<path d="M42.3245 318.726C41.9245 317.126 47.1578 308.392 49.8245 304.226C51.3244 303.726 53.3244 306.226 52.8244 306.726C48.8244 311.726 46.3244 320.726 46.3244 322.226C45.3244 322.226 42.8245 320.726 42.3245 318.726Z" fill="#D7D7D7"/>
<path d="M74.3245 303.226C70.7245 302.826 54.8245 306.726 47.3245 308.726L45.8245 314.726C47.8245 312.326 61.8245 308.226 71.3245 308.226C73.8245 306.726 75.6083 303.368 74.3245 303.226Z" fill="#D7D7D7"/>
<path d="M47.8245 326.726C49.0245 326.726 65.3245 311.726 73.3245 304.226C73.8245 304.226 77.3245 305.726 76.3245 308.226C75.3245 310.726 49.8245 331.226 48.8245 331.226C47.8245 331.226 46.3245 326.726 47.8245 326.726Z" fill="#D7D7D7"/>
<path d="M46.8244 332.726C46.8244 332.726 46.9911 332.059 47.3244 331.726C51.169 331.387 55.2692 331.559 59.3244 332.034C62.3245 332.386 61.5056 327.726 60.3244 327.647C54.495 327.259 49.272 327.407 45.8244 327.726C44.8244 328.226 46.3244 332.726 46.8244 332.726Z" fill="#D7D7D7"/>
<path d="M105.324 337.726C110.924 340.926 134.824 298.726 135.324 298.226C135.824 297.726 139.824 298.226 140.324 298.726C140.824 299.226 120.824 344.797 104.824 340.226C97.8245 338.226 103.324 327.226 108.824 325.726C113.624 326.126 112.324 327.226 112.324 327.226C111.824 327.226 100.824 334.726 105.324 337.726Z" fill="#D7D7D7"/>
<path d="M136.824 351.226C117.824 352.226 131.824 320.726 141.324 296.226C141.712 295.226 145.324 297.726 145.824 300.226C132.224 326.626 134.158 345.226 136.824 351.226Z" fill="#D7D7D7"/>
<path d="M133.324 318.726C132.924 317.126 138.158 308.392 140.824 304.226C142.324 303.726 144.324 306.226 143.824 306.726C139.824 311.726 137.324 320.726 137.324 322.226C136.324 322.226 133.824 320.726 133.324 318.726Z" fill="#D7D7D7"/>
<path d="M165.324 303.226C161.724 302.826 145.824 306.726 138.324 308.726L136.824 314.726C138.824 312.326 152.824 308.226 162.324 308.226C164.824 306.726 166.608 303.368 165.324 303.226Z" fill="#D7D7D7"/>
<path d="M138.824 326.726C140.024 326.726 156.324 311.726 164.324 304.226C164.824 304.226 168.324 305.726 167.324 308.226C166.324 310.726 140.824 331.226 139.824 331.226C138.824 331.226 137.324 326.726 138.824 326.726Z" fill="#D7D7D7"/>
<path d="M137.824 332.726C137.824 332.726 137.991 332.059 138.324 331.726C144.087 331.217 150.425 331.858 156.324 332.947C159.324 332.947 157.824 328.166 156.824 328.166C148.865 327.184 141.329 327.309 136.824 327.726C135.824 328.226 137.324 332.726 137.824 332.726Z" fill="#D7D7D7"/>
<path d="M196.324 337.726C201.924 340.926 225.824 298.726 226.324 298.226C226.824 297.726 230.824 298.226 231.324 298.726C231.824 299.226 211.824 344.797 195.824 340.226C188.824 338.226 194.324 327.226 199.824 325.726C204.624 326.126 203.324 327.226 203.324 327.226C202.824 327.226 191.824 334.726 196.324 337.726Z" fill="#D7D7D7"/>
<path d="M227.824 351.226C208.824 352.226 222.824 320.726 232.324 296.226C232.712 295.226 236.324 297.726 236.824 300.226C223.224 326.626 225.158 345.226 227.824 351.226Z" fill="#D7D7D7"/>
<path d="M224.324 318.726C223.924 317.126 229.158 308.392 231.824 304.226C233.324 303.726 235.324 306.226 234.824 306.726C230.824 311.726 228.324 320.726 228.324 322.226C227.324 322.226 224.824 320.726 224.324 318.726Z" fill="#D7D7D7"/>
<path d="M256.324 303.226C252.724 302.826 236.824 306.726 229.324 308.726L227.824 314.726C229.824 312.326 243.824 308.226 253.324 308.226C255.824 306.726 257.608 303.368 256.324 303.226Z" fill="#D7D7D7"/>
<path d="M229.824 326.726C231.024 326.726 247.324 311.726 255.324 304.226C255.824 304.226 259.324 305.726 258.324 308.226C257.324 310.726 231.824 331.226 230.824 331.226C229.824 331.226 228.324 326.726 229.824 326.726Z" fill="#D7D7D7"/>
<path d="M228.824 332.726C228.824 332.726 228.991 332.059 229.324 331.726C236.247 331.115 243.999 332.162 250.824 333.653C254.824 334.226 253.324 329.007 251.663 328.726C242.352 327.151 233.049 327.242 227.824 327.726C226.824 328.226 228.324 332.726 228.824 332.726Z" fill="#D7D7D7"/>
<path d="M287.324 337.726C292.924 340.926 316.824 298.726 317.324 298.226C317.824 297.726 321.824 298.226 322.324 298.726C322.824 299.226 302.824 344.797 286.824 340.226C279.824 338.226 285.324 327.226 290.824 325.726C295.624 326.126 294.324 327.226 294.324 327.226C293.824 327.226 282.824 334.726 287.324 337.726Z" fill="#D7D7D7"/>
<path d="M318.824 351.226C299.824 352.226 313.824 320.726 323.324 296.226C323.712 295.226 327.324 297.726 327.824 300.226C314.224 326.626 316.158 345.226 318.824 351.226Z" fill="#D7D7D7"/>
<path d="M315.324 318.726C314.924 317.126 320.158 308.392 322.824 304.226C324.324 303.726 326.324 306.226 325.824 306.726C321.824 311.726 319.324 320.726 319.324 322.226C318.324 322.226 315.824 320.726 315.324 318.726Z" fill="#D7D7D7"/>
<path d="M347.324 303.226C343.724 302.826 327.824 306.726 320.324 308.726L318.824 314.726C320.824 312.326 334.824 308.226 344.324 308.226C346.824 306.726 348.608 303.368 347.324 303.226Z" fill="#D7D7D7"/>
<path d="M320.824 326.726C322.024 326.726 338.324 311.726 346.324 304.226C346.824 304.226 350.324 305.726 349.324 308.226C348.324 310.726 322.824 331.226 321.824 331.226C320.824 331.226 319.324 326.726 320.824 326.726Z" fill="#D7D7D7"/>
<path d="M319.824 332.726C319.824 332.726 319.991 332.059 320.324 331.726C328.643 330.992 338.158 332.652 345.824 334.598C348.824 335.359 348.324 329.547 346.824 329.547C336.223 327.133 324.83 327.17 318.824 327.726C317.824 328.226 319.324 332.726 319.824 332.726Z" fill="#D7D7D7"/>
<path d="M378.324 337.726C383.924 340.926 407.824 298.726 408.324 298.226C408.824 297.726 412.824 298.226 413.324 298.726C413.824 299.226 393.824 344.797 377.824 340.226C370.824 338.226 376.324 327.226 381.824 325.726C386.624 326.126 385.324 327.226 385.324 327.226C384.824 327.226 373.824 334.726 378.324 337.726Z" fill="#D7D7D7"/>
<path d="M409.824 351.226C390.824 352.226 404.824 320.726 414.324 296.226C414.712 295.226 418.324 297.726 418.824 300.226C405.224 326.626 407.158 345.226 409.824 351.226Z" fill="#D7D7D7"/>
<path d="M406.324 318.726C405.924 317.126 411.158 308.392 413.824 304.226C415.324 303.726 417.324 306.226 416.824 306.726C412.824 311.726 410.324 320.726 410.324 322.226C409.324 322.226 406.824 320.726 406.324 318.726Z" fill="#D7D7D7"/>
<path d="M438.324 303.226C434.724 302.826 418.824 306.726 411.324 308.726L409.824 314.726C411.824 312.326 425.824 308.226 435.324 308.226C437.824 306.726 439.608 303.368 438.324 303.226Z" fill="#D7D7D7"/>
<path d="M411.824 326.726C413.024 326.726 429.324 311.726 437.324 304.226C437.824 304.226 441.324 305.726 440.324 308.226C439.324 310.726 413.824 331.226 412.824 331.226C411.824 331.226 410.324 326.726 411.824 326.726Z" fill="#D7D7D7"/>
<path d="M410.824 332.726C410.824 332.726 410.991 332.059 411.324 331.726C421.573 330.822 433.638 333.551 441.824 335.972C444.374 336.726 443.324 330.745 442.324 330.745C430.607 327.133 416.693 327.09 409.824 327.726C408.824 328.226 410.324 332.726 410.824 332.726Z" fill="#D7D7D7"/>
<path d="M469.324 337.726C474.924 340.926 498.824 298.726 499.324 298.226C499.824 297.726 503.824 298.226 504.324 298.726C504.824 299.226 484.824 344.797 468.824 340.226C461.824 338.226 467.324 327.226 472.824 325.726C477.624 326.126 476.324 327.226 476.324 327.226C475.824 327.226 464.824 334.726 469.324 337.726Z" fill="#D7D7D7"/>
<path d="M500.824 351.226C481.824 352.226 495.824 320.726 505.324 296.226C505.712 295.226 509.324 297.726 509.824 300.226C496.224 326.626 498.158 345.226 500.824 351.226Z" fill="#D7D7D7"/>
<path d="M497.324 318.726C496.924 317.126 502.158 308.392 504.824 304.226C506.324 303.726 508.324 306.226 507.824 306.726C503.824 311.726 501.324 320.726 501.324 322.226C500.324 322.226 497.824 320.726 497.324 318.726Z" fill="#D7D7D7"/>
<path d="M529.324 303.226C525.724 302.826 509.824 306.726 502.324 308.726L500.824 314.726C502.824 312.326 516.824 308.226 526.324 308.226C528.824 306.726 530.608 303.368 529.324 303.226Z" fill="#D7D7D7"/>
<path d="M502.825 326.726C504.025 326.726 520.325 311.726 528.325 304.226C528.825 304.226 532.325 305.726 531.325 308.226C530.325 310.726 504.825 331.226 503.825 331.226C502.825 331.226 501.325 326.726 502.825 326.726Z" fill="#D7D7D7"/>
<path d="M501.824 332.726C501.824 332.726 501.991 332.059 502.324 331.726C512.573 330.822 524.638 333.551 532.824 335.972C535.374 336.726 534.324 330.745 533.324 330.745C521.607 327.133 507.693 327.09 500.824 327.726C499.824 328.226 501.324 332.726 501.824 332.726Z" fill="#D7D7D7"/>
<path d="M560.324 337.726C565.924 340.926 589.824 298.726 590.324 298.226C590.824 297.726 594.824 298.226 595.324 298.726C595.824 299.226 575.824 344.797 559.824 340.226C552.824 338.226 558.324 327.226 563.824 325.726C568.624 326.126 567.324 327.226 567.324 327.226C566.824 327.226 555.824 334.726 560.324 337.726Z" fill="#D7D7D7"/>
<path d="M591.824 351.226C572.824 352.226 586.824 320.726 596.324 296.226C596.712 295.226 600.324 297.726 600.824 300.226C587.224 326.626 589.158 345.226 591.824 351.226Z" fill="#D7D7D7"/>
<path d="M588.324 318.726C587.924 317.126 593.158 308.392 595.824 304.226C597.324 303.726 599.324 306.226 598.824 306.726C594.824 311.726 592.324 320.726 592.324 322.226C591.324 322.226 588.824 320.726 588.324 318.726Z" fill="#D7D7D7"/>
<path d="M620.324 303.226C616.724 302.826 600.824 306.726 593.324 308.726L591.824 314.726C593.824 312.326 607.824 308.226 617.324 308.226C619.824 306.726 621.608 303.368 620.324 303.226Z" fill="#D7D7D7"/>
<path d="M593.825 326.726C595.025 326.726 611.325 311.726 619.325 304.226C619.825 304.226 623.325 305.726 622.325 308.226C621.325 310.726 595.825 331.226 594.825 331.226C593.825 331.226 592.325 326.726 593.825 326.726Z" fill="#D7D7D7"/>
<path d="M592.824 332.726C592.824 332.726 592.991 332.059 593.324 331.726C605.412 330.659 620.028 334.648 627.824 337.223C630.824 338.213 628.824 331.962 627.824 331.962C615.513 327.149 599.392 327.025 591.824 327.726C590.824 328.226 592.324 332.726 592.824 332.726Z" fill="#D7D7D7"/>
<path d="M651.324 337.726C656.924 340.926 680.824 298.726 681.324 298.226C681.824 297.726 685.824 298.226 686.324 298.726C686.824 299.226 666.824 344.797 650.824 340.226C643.824 338.226 649.324 327.226 654.824 325.726C659.624 326.126 658.324 327.226 658.324 327.226C657.824 327.226 646.824 334.726 651.324 337.726Z" fill="#D7D7D7"/>
<path d="M682.824 351.226C663.824 352.226 677.824 320.726 687.324 296.226C687.712 295.226 691.324 297.726 691.824 300.226C678.224 326.626 680.158 345.226 682.824 351.226Z" fill="#D7D7D7"/>
<path d="M679.324 318.726C678.924 317.126 684.158 308.392 686.824 304.226C688.324 303.726 690.324 306.226 689.824 306.726C685.824 311.726 683.324 320.726 683.324 322.226C682.324 322.226 679.824 320.726 679.324 318.726Z" fill="#D7D7D7"/>
<path d="M711.324 303.226C707.724 302.826 691.824 306.726 684.324 308.726L682.824 314.726C684.824 312.326 698.824 308.226 708.324 308.226C710.824 306.726 712.608 303.368 711.324 303.226Z" fill="#D7D7D7"/>
<path d="M684.825 326.726C686.025 326.726 702.325 311.726 710.325 304.226C710.825 304.226 714.325 305.726 713.325 308.226C712.325 310.726 686.825 331.226 685.825 331.226C684.825 331.226 683.325 326.726 684.825 326.726Z" fill="#D7D7D7"/>
<path d="M683.824 332.726C683.824 332.726 683.991 332.059 684.324 331.726C699.02 330.429 717.451 336.605 722.824 338.626C724.824 338.626 723.689 334.226 722.824 333.773C710.255 327.188 691.244 326.946 682.824 327.726C681.824 328.226 683.324 332.726 683.824 332.726Z" fill="#D7D7D7"/>
<path d="M742.324 337.726C747.924 340.926 771.824 298.726 772.324 298.226C772.824 297.726 776.824 298.226 777.324 298.726C777.824 299.226 757.824 344.797 741.824 340.226C734.824 338.226 740.324 327.226 745.824 325.726C750.624 326.126 749.324 327.226 749.324 327.226C748.824 327.226 737.824 334.726 742.324 337.726Z" fill="#D7D7D7"/>
<path d="M773.824 351.226C754.824 352.226 768.824 320.726 778.324 296.226C778.712 295.226 782.324 297.726 782.824 300.226C769.224 326.626 771.158 345.226 773.824 351.226Z" fill="#D7D7D7"/>
<path d="M770.324 318.726C769.924 317.126 775.158 308.392 777.824 304.226C779.324 303.726 781.324 306.226 780.824 306.726C776.824 311.726 774.324 320.726 774.324 322.226C773.324 322.226 770.824 320.726 770.324 318.726Z" fill="#D7D7D7"/>
<path d="M802.324 303.226C798.724 302.826 782.824 306.726 775.324 308.726L773.824 314.726C775.824 312.326 789.824 308.226 799.324 308.226C801.824 306.726 803.608 303.368 802.324 303.226Z" fill="#D7D7D7"/>
<path d="M775.825 326.726C777.025 326.726 793.325 311.726 801.325 304.226C801.825 304.226 805.325 305.726 804.325 308.226C803.325 310.726 777.825 331.226 776.825 331.226C775.825 331.226 774.325 326.726 775.825 326.726Z" fill="#D7D7D7"/>
<path d="M816.324 335.226C803.924 327.226 782.824 326.892 773.824 327.726C772.824 328.226 774.324 332.726 774.824 332.726C774.824 332.726 774.991 332.059 775.324 331.726C792.324 330.226 814.324 338.726 815.324 339.226C817.324 340.226 817.824 335.726 816.324 335.226Z" fill="#D7D7D7"/>
<path d="M833.324 337.726C838.924 340.926 862.824 298.726 863.324 298.226C863.824 297.726 867.824 298.226 868.324 298.726C868.824 299.226 848.824 344.797 832.824 340.226C825.824 338.226 831.324 327.226 836.824 325.726C841.624 326.126 840.324 327.226 840.324 327.226C839.824 327.226 828.824 334.726 833.324 337.726Z" fill="#D7D7D7"/>
<path d="M864.824 351.226C845.824 352.226 859.824 320.726 869.324 296.226C869.712 295.226 873.324 297.726 873.824 300.226C860.224 326.626 862.158 345.226 864.824 351.226Z" fill="#D7D7D7"/>
<path d="M861.324 318.726C860.924 317.126 866.158 308.392 868.824 304.226C870.324 303.726 872.324 306.226 871.824 306.726C867.824 311.726 865.324 320.726 865.324 322.226C864.324 322.226 861.824 320.726 861.324 318.726Z" fill="#D7D7D7"/>
<path d="M893.324 303.226C889.724 302.826 873.824 306.726 866.324 308.726L864.824 314.726C866.824 312.326 880.824 308.226 890.324 308.226C892.824 306.726 894.608 303.368 893.324 303.226Z" fill="#D7D7D7"/>
<path d="M866.825 326.726C868.025 326.726 884.325 311.726 892.325 304.226C892.825 304.226 896.325 305.726 895.325 308.226C894.325 310.726 868.825 331.226 867.825 331.226C866.825 331.226 865.325 326.726 866.825 326.726Z" fill="#D7D7D7"/>
<path d="M907.324 335.226C894.924 327.226 873.824 326.892 864.824 327.726C863.824 328.226 865.324 332.726 865.824 332.726C865.824 332.726 865.991 332.059 866.324 331.726C883.324 330.226 905.324 338.726 906.324 339.226C907.124 339.626 906.991 340.726 906.824 341.226C909.324 341.726 909.324 336.226 907.324 335.226Z" fill="#D7D7D7"/>
<path d="M14.3245 278.726C19.9245 281.926 43.8245 239.726 44.3245 239.226C44.8244 238.726 48.8244 239.226 49.3244 239.726C49.8244 240.226 29.8245 285.797 13.8245 281.226C6.82446 279.226 12.3245 268.226 17.8245 266.726C22.6245 267.126 21.3245 268.226 21.3245 268.226C20.8245 268.226 9.82446 275.726 14.3245 278.726Z" fill="#D7D7D7"/>
<path d="M45.8245 292.226C26.8245 293.226 40.8245 261.726 50.3245 237.226C50.7122 236.226 54.3245 238.726 54.8245 241.226C41.2245 267.626 43.1578 286.226 45.8245 292.226Z" fill="#D7D7D7"/>
<path d="M42.3245 259.726C41.9245 258.126 47.1578 249.392 49.8245 245.226C51.3244 244.726 53.3244 247.226 52.8244 247.726C48.8244 252.726 46.3244 261.726 46.3244 263.226C45.3244 263.226 42.8245 261.726 42.3245 259.726Z" fill="#D7D7D7"/>
<path d="M74.3245 244.226C70.7245 243.826 54.8245 247.726 47.3245 249.726L45.8245 255.726C47.8245 253.326 61.8245 249.226 71.3245 249.226C73.8245 247.726 75.6083 244.368 74.3245 244.226Z" fill="#D7D7D7"/>
<path d="M73.3245 245.226C73.8245 245.226 77.3245 246.726 76.3245 249.226C75.8056 250.523 68.6905 256.666 61.8245 262.278C61.2759 262.726 56.4276 260.726 58.6506 258.726C63.7285 254.157 69.4832 248.827 73.3245 245.226Z" fill="#D7D7D7"/>
<path d="M105.324 278.726C110.924 281.926 134.824 239.726 135.324 239.226C135.824 238.726 139.824 239.226 140.324 239.726C140.824 240.226 120.824 285.797 104.824 281.226C97.8245 279.226 103.324 268.226 108.824 266.726C113.624 267.126 112.324 268.226 112.324 268.226C111.824 268.226 100.824 275.726 105.324 278.726Z" fill="#D7D7D7"/>
<path d="M136.824 292.226C117.824 293.226 131.824 261.726 141.324 237.226C141.712 236.226 145.324 238.726 145.824 241.226C132.224 267.626 134.158 286.226 136.824 292.226Z" fill="#D7D7D7"/>
<path d="M133.324 259.726C132.924 258.126 138.158 249.392 140.824 245.226C142.324 244.726 144.324 247.226 143.824 247.726C139.824 252.726 137.324 261.726 137.324 263.226C136.324 263.226 133.824 261.726 133.324 259.726Z" fill="#D7D7D7"/>
<path d="M165.324 244.226C161.724 243.826 145.824 247.726 138.324 249.726L136.824 255.726C138.824 253.326 152.824 249.226 162.324 249.226C164.824 247.726 166.608 244.368 165.324 244.226Z" fill="#D7D7D7"/>
<path d="M164.324 245.226C164.824 245.226 168.324 246.726 167.324 249.226C166.729 250.714 157.448 258.584 149.824 264.708C146.824 266.726 145.824 261.726 146.824 261.25C152.453 256.263 159.747 249.517 164.324 245.226Z" fill="#D7D7D7"/>
<path d="M196.324 278.726C201.924 281.926 225.824 239.726 226.324 239.226C226.824 238.726 230.824 239.226 231.324 239.726C231.824 240.226 211.824 285.797 195.824 281.226C188.824 279.226 194.324 268.226 199.824 266.726C204.624 267.126 203.324 268.226 203.324 268.226C202.824 268.226 191.824 275.726 196.324 278.726Z" fill="#D7D7D7"/>
<path d="M227.824 292.226C208.824 293.226 222.824 261.726 232.324 237.226C232.712 236.226 236.324 238.726 236.824 241.226C223.224 267.626 225.158 286.226 227.824 292.226Z" fill="#D7D7D7"/>
<path d="M224.324 259.726C223.924 258.126 229.158 249.392 231.824 245.226C233.324 244.726 235.324 247.226 234.824 247.726C230.824 252.726 228.324 261.726 228.324 263.226C227.324 263.226 224.824 261.726 224.324 259.726Z" fill="#D7D7D7"/>
<path d="M256.324 244.226C252.724 243.826 236.824 247.726 229.324 249.726L227.824 255.726C229.824 253.326 243.824 249.226 253.324 249.226C255.824 247.726 257.608 244.368 256.324 244.226Z" fill="#D7D7D7"/>
<path d="M255.324 245.226C255.824 245.226 259.324 246.726 258.324 249.226C257.661 250.884 246.216 260.464 238.294 266.726C236.824 267.887 234.425 264.226 235.575 263.226C241.362 258.196 250.108 250.116 255.324 245.226Z" fill="#D7D7D7"/>
<path d="M287.324 278.726C292.924 281.926 316.824 239.726 317.324 239.226C317.824 238.726 321.824 239.226 322.324 239.726C322.824 240.226 302.824 285.797 286.824 281.226C279.824 279.226 285.324 268.226 290.824 266.726C295.624 267.126 294.324 268.226 294.324 268.226C293.824 268.226 282.824 275.726 287.324 278.726Z" fill="#D7D7D7"/>
<path d="M318.824 292.226C299.824 293.226 313.824 261.726 323.324 237.226C323.712 236.226 327.324 238.726 327.824 241.226C314.224 267.626 316.158 286.226 318.824 292.226Z" fill="#D7D7D7"/>
<path d="M315.324 259.726C314.924 258.126 320.158 249.392 322.824 245.226C324.324 244.726 326.324 247.226 325.824 247.726C321.824 252.726 319.324 261.726 319.324 263.226C318.324 263.226 315.824 261.726 315.324 259.726Z" fill="#D7D7D7"/>
<path d="M347.324 244.226C343.724 243.826 327.824 247.726 320.324 249.726L318.824 255.726C320.824 253.326 334.824 249.226 344.324 249.226C346.824 247.726 348.608 244.368 347.324 244.226Z" fill="#D7D7D7"/>
<path d="M346.324 245.226C346.824 245.226 350.324 246.726 349.324 249.226C348.555 251.149 333.283 263.728 325.824 269.427C323.824 270.226 322.824 266.387 323.324 265.98C328.449 261.808 339.989 251.165 346.324 245.226Z" fill="#D7D7D7"/>
<path d="M378.324 278.726C383.924 281.926 407.824 239.726 408.324 239.226C408.824 238.726 412.824 239.226 413.324 239.726C413.824 240.226 393.824 285.797 377.824 281.226C370.824 279.226 376.324 268.226 381.824 266.726C386.624 267.126 385.324 268.226 385.324 268.226C384.824 268.226 373.824 275.726 378.324 278.726Z" fill="#D7D7D7"/>
<path d="M409.824 292.226C390.824 293.226 404.824 261.726 414.324 237.226C414.712 236.226 418.324 238.726 418.824 241.226C405.224 267.626 407.158 286.226 409.824 292.226Z" fill="#D7D7D7"/>
<path d="M406.324 259.726C405.924 258.126 411.158 249.392 413.824 245.226C415.324 244.726 417.324 247.226 416.824 247.726C412.824 252.726 410.324 261.726 410.324 263.226C409.324 263.226 406.824 261.726 406.324 259.726Z" fill="#D7D7D7"/>
<path d="M438.324 244.226C434.724 243.826 418.824 247.726 411.324 249.726L409.824 255.726C411.824 253.326 425.824 249.226 435.324 249.226C437.824 247.726 439.608 244.368 438.324 244.226Z" fill="#D7D7D7"/>
<path d="M437.324 245.226C437.824 245.226 441.324 246.726 440.324 249.226C439.489 251.313 421.569 265.954 415.099 270.726C413.824 271.665 412.028 267.726 412.824 267.149C416.716 264.327 430.258 251.85 437.324 245.226Z" fill="#D7D7D7"/>
<path d="M469.324 278.726C474.924 281.926 498.824 239.726 499.324 239.226C499.824 238.726 503.824 239.226 504.324 239.726C504.824 240.226 484.824 285.797 468.824 281.226C461.824 279.226 467.324 268.226 472.824 266.726C477.624 267.126 476.324 268.226 476.324 268.226C475.824 268.226 464.824 275.726 469.324 278.726Z" fill="#D7D7D7"/>
<path d="M500.824 292.226C481.824 293.226 495.824 261.726 505.324 237.226C505.712 236.226 509.324 238.726 509.824 241.226C496.224 267.626 498.158 286.226 500.824 292.226Z" fill="#D7D7D7"/>
<path d="M497.324 259.726C496.924 258.126 502.158 249.392 504.824 245.226C506.324 244.726 508.324 247.226 507.824 247.726C503.824 252.726 501.324 261.726 501.324 263.226C500.324 263.226 497.824 261.726 497.324 259.726Z" fill="#D7D7D7"/>
<path d="M529.324 244.226C525.724 243.826 509.824 247.726 502.324 249.726L500.824 255.726C502.824 253.326 516.824 249.226 526.324 249.226C528.824 247.726 530.608 244.368 529.324 244.226Z" fill="#D7D7D7"/>
<path d="M502.825 267.726C504.025 267.726 520.325 252.726 528.325 245.226C528.825 245.226 532.325 246.726 531.325 249.226C530.325 251.726 504.825 272.226 503.825 272.226C502.825 272.226 501.325 267.726 502.825 267.726Z" fill="#D7D7D7"/>
<path d="M560.324 278.726C565.924 281.926 589.824 239.726 590.324 239.226C590.824 238.726 594.824 239.226 595.324 239.726C595.824 240.226 575.824 285.797 559.824 281.226C552.824 279.226 558.324 268.226 563.824 266.726C568.624 267.126 567.324 268.226 567.324 268.226C566.824 268.226 555.824 275.726 560.324 278.726Z" fill="#D7D7D7"/>
<path d="M591.824 292.226C572.824 293.226 586.824 261.726 596.324 237.226C596.712 236.226 600.324 238.726 600.824 241.226C587.224 267.626 589.158 286.226 591.824 292.226Z" fill="#D7D7D7"/>
<path d="M588.324 259.726C587.924 258.126 593.158 249.392 595.824 245.226C597.324 244.726 599.324 247.226 598.824 247.726C594.824 252.726 592.324 261.726 592.324 263.226C591.324 263.226 588.824 261.726 588.324 259.726Z" fill="#D7D7D7"/>
<path d="M620.324 244.226C616.724 243.826 600.824 247.726 593.324 249.726L591.824 255.726C593.824 253.326 607.824 249.226 617.324 249.226C619.824 247.726 621.608 244.368 620.324 244.226Z" fill="#D7D7D7"/>
<path d="M593.825 267.726C595.025 267.726 611.325 252.726 619.325 245.226C619.825 245.226 623.325 246.726 622.325 249.226C621.325 251.726 595.825 272.226 594.825 272.226C593.825 272.226 592.325 267.726 593.825 267.726Z" fill="#D7D7D7"/>
<path d="M592.824 273.726C592.824 273.726 592.991 273.059 593.324 272.726C592.324 271.726 591.824 269.226 592.824 268.642C592.477 268.668 592.143 268.696 591.824 268.726C590.824 269.226 592.324 273.726 592.824 273.726Z" fill="#D7D7D7"/>
<path d="M651.324 278.726C656.924 281.926 680.824 239.726 681.324 239.226C681.824 238.726 685.824 239.226 686.324 239.726C686.824 240.226 666.824 285.797 650.824 281.226C643.824 279.226 649.324 268.226 654.824 266.726C659.624 267.126 658.324 268.226 658.324 268.226C657.824 268.226 646.824 275.726 651.324 278.726Z" fill="#D7D7D7"/>
<path d="M682.824 292.226C663.824 293.226 677.824 261.726 687.324 237.226C687.712 236.226 691.324 238.726 691.824 241.226C678.224 267.626 680.158 286.226 682.824 292.226Z" fill="#D7D7D7"/>
<path d="M679.324 259.726C678.924 258.126 684.158 249.392 686.824 245.226C688.324 244.726 690.324 247.226 689.824 247.726C685.824 252.726 683.324 261.726 683.324 263.226C682.324 263.226 679.824 261.726 679.324 259.726Z" fill="#D7D7D7"/>
<path d="M711.324 244.226C707.724 243.826 691.824 247.726 684.324 249.726L682.824 255.726C684.824 253.326 698.824 249.226 708.324 249.226C710.824 247.726 712.608 244.368 711.324 244.226Z" fill="#D7D7D7"/>
<path d="M684.825 267.726C686.025 267.726 702.325 252.726 710.325 245.226C710.825 245.226 714.325 246.726 713.325 249.226C712.325 251.726 686.825 272.226 685.825 272.226C684.825 272.226 683.325 267.726 684.825 267.726Z" fill="#D7D7D7"/>
<path d="M683.824 273.726C683.824 273.726 683.991 273.059 684.324 272.726C684.82 272.682 685.321 272.647 685.824 272.62C687.824 272.226 686.824 268.463 685.324 268.545C684.415 268.595 683.577 268.656 682.824 268.726C681.824 269.226 683.324 273.726 683.824 273.726Z" fill="#D7D7D7"/>
<path d="M742.324 278.726C747.924 281.926 771.824 239.726 772.324 239.226C772.824 238.726 776.824 239.226 777.324 239.726C777.824 240.226 757.824 285.797 741.824 281.226C734.824 279.226 740.324 268.226 745.824 266.726C750.624 267.126 749.324 268.226 749.324 268.226C748.824 268.226 737.824 275.726 742.324 278.726Z" fill="#D7D7D7"/>
<path d="M773.824 292.226C754.824 293.226 768.824 261.726 778.324 237.226C778.712 236.226 782.324 238.726 782.824 241.226C769.224 267.626 771.158 286.226 773.824 292.226Z" fill="#D7D7D7"/>
<path d="M770.324 259.726C769.924 258.126 775.158 249.392 777.824 245.226C779.324 244.726 781.324 247.226 780.824 247.726C776.824 252.726 774.324 261.726 774.324 263.226C773.324 263.226 770.824 261.726 770.324 259.726Z" fill="#D7D7D7"/>
<path d="M802.324 244.226C798.724 243.826 782.824 247.726 775.324 249.726L773.824 255.726C775.824 253.326 789.824 249.226 799.324 249.226C801.824 247.726 803.608 244.368 802.324 244.226Z" fill="#D7D7D7"/>
<path d="M775.825 267.726C777.025 267.726 793.325 252.726 801.325 245.226C801.825 245.226 805.325 246.726 804.325 249.226C803.325 251.726 777.825 272.226 776.825 272.226C775.825 272.226 774.325 267.726 775.825 267.726Z" fill="#D7D7D7"/>
<path d="M774.824 273.726C774.824 273.726 774.991 273.059 775.324 272.726C776.793 272.596 778.298 272.541 779.824 272.549C783.324 272.549 782.324 268.388 779.824 268.426C777.507 268.461 775.465 268.574 773.824 268.726C772.824 269.226 774.324 273.726 774.824 273.726Z" fill="#D7D7D7"/>
<path d="M833.324 278.726C838.924 281.926 862.824 239.726 863.324 239.226C863.824 238.726 867.824 239.226 868.324 239.726C868.824 240.226 848.824 285.797 832.824 281.226C825.824 279.226 831.324 268.226 836.824 266.726C841.624 267.126 840.324 268.226 840.324 268.226C839.824 268.226 828.824 275.726 833.324 278.726Z" fill="#D7D7D7"/>
<path d="M864.824 292.226C845.824 293.226 859.824 261.726 869.324 237.226C869.712 236.226 873.324 238.726 873.824 241.226C860.224 267.626 862.158 286.226 864.824 292.226Z" fill="#D7D7D7"/>
<path d="M861.324 259.726C860.924 258.126 866.158 249.392 868.824 245.226C870.324 244.726 872.324 247.226 871.824 247.726C867.824 252.726 865.324 261.726 865.324 263.226C864.324 263.226 861.824 261.726 861.324 259.726Z" fill="#D7D7D7"/>
<path d="M893.324 244.226C889.724 243.826 873.824 247.726 866.324 249.726L864.824 255.726C866.824 253.326 880.824 249.226 890.324 249.226C892.824 247.726 894.608 244.368 893.324 244.226Z" fill="#D7D7D7"/>
<path d="M866.825 267.726C868.025 267.726 884.325 252.726 892.325 245.226C892.825 245.226 896.325 246.726 895.325 249.226C894.325 251.726 868.825 272.226 867.825 272.226C866.825 272.226 865.325 267.726 866.825 267.726Z" fill="#D7D7D7"/>
<path d="M865.824 273.726C865.824 273.726 865.991 273.059 866.324 272.726C869.158 272.476 872.13 272.504 875.121 272.726C877.324 272.726 877.324 268.473 875.824 268.473C871.427 268.326 867.565 268.472 864.824 268.726C863.824 269.226 865.324 273.726 865.824 273.726Z" fill="#D7D7D7"/>
<path d="M14.3245 219.726C19.9245 222.926 43.8245 180.726 44.3245 180.226C44.8244 179.726 48.8244 180.226 49.3244 180.726C49.8244 181.226 29.8245 226.797 13.8245 222.226C6.82446 220.226 12.3245 209.226 17.8245 207.726C22.6245 208.126 21.3245 209.226 21.3245 209.226C20.8245 209.226 9.82446 216.726 14.3245 219.726Z" fill="#D7D7D7"/>
<path d="M45.8245 233.226C26.8245 234.226 40.8245 202.726 50.3245 178.226C50.7122 177.226 54.3245 179.726 54.8245 182.226C41.2245 208.626 43.1578 227.226 45.8245 233.226Z" fill="#D7D7D7"/>
<path d="M42.3245 200.726C41.9245 199.126 47.1578 190.392 49.8245 186.226C51.3244 185.726 53.3244 188.226 52.8244 188.726C48.8244 193.726 46.3244 202.726 46.3244 204.226C45.3244 204.226 42.8245 202.726 42.3245 200.726Z" fill="#D7D7D7"/>
<path d="M47.3245 190.726L45.8245 196.726C47.0247 195.285 52.5468 193.233 58.8245 191.822C63.3245 189.726 61.8245 187.176 60.8245 187.401C55.8852 188.513 50.7359 189.816 47.3245 190.726Z" fill="#D7D7D7"/>
<path d="M105.324 219.726C110.924 222.926 134.824 180.726 135.324 180.226C135.824 179.726 139.824 180.226 140.324 180.726C140.824 181.226 120.824 226.797 104.824 222.226C97.8245 220.226 103.324 209.226 108.824 207.726C113.624 208.126 112.324 209.226 112.324 209.226C111.824 209.226 100.824 216.726 105.324 219.726Z" fill="#D7D7D7"/>
<path d="M136.824 233.226C117.824 234.226 131.824 202.726 141.324 178.226C141.712 177.226 145.324 179.726 145.824 182.226C132.224 208.626 134.158 227.226 136.824 233.226Z" fill="#D7D7D7"/>
<path d="M133.324 200.726C132.924 199.126 138.158 190.392 140.824 186.226C142.324 185.726 144.324 188.226 143.824 188.726C139.824 193.726 137.324 202.726 137.324 204.226C136.324 204.226 133.824 202.726 133.324 200.726Z" fill="#D7D7D7"/>
<path d="M138.324 190.726L136.824 196.726C138.244 195.022 145.712 192.461 153.324 191.119C157.824 189.226 155.824 186.533 154.824 186.744C149.074 187.961 142.437 189.629 138.324 190.726Z" fill="#D7D7D7"/>
<path d="M196.324 219.726C201.924 222.926 225.824 180.726 226.324 180.226C226.824 179.726 230.824 180.226 231.324 180.726C231.824 181.226 211.824 226.797 195.824 222.226C188.824 220.226 194.324 209.226 199.824 207.726C204.624 208.126 203.324 209.226 203.324 209.226C202.824 209.226 191.824 216.726 196.324 219.726Z" fill="#D7D7D7"/>
<path d="M227.824 233.226C208.824 234.226 222.824 202.726 232.324 178.226C232.712 177.226 236.324 179.726 236.824 182.226C223.224 208.626 225.158 227.226 227.824 233.226Z" fill="#D7D7D7"/>
<path d="M224.324 200.726C223.924 199.126 229.158 190.392 231.824 186.226C233.324 185.726 235.324 188.226 234.824 188.726C230.824 193.726 228.324 202.726 228.324 204.226C227.324 204.226 224.824 202.726 224.324 200.726Z" fill="#D7D7D7"/>
<path d="M229.324 190.726L227.824 196.726C229.463 194.76 239.152 191.654 247.824 190.594C250.824 189.726 250.824 185.766 249.824 185.949C243.462 187.114 234.44 189.362 229.324 190.726Z" fill="#D7D7D7"/>
<path d="M287.324 219.726C292.924 222.926 316.824 180.726 317.324 180.226C317.824 179.726 321.824 180.226 322.324 180.726C322.824 181.226 302.824 226.797 286.824 222.226C279.824 220.226 285.324 209.226 290.824 207.726C295.624 208.126 294.324 209.226 294.324 209.226C293.824 209.226 282.824 216.726 287.324 219.726Z" fill="#D7D7D7"/>
<path d="M318.824 233.226C299.824 234.226 313.824 202.726 323.324 178.226C323.712 177.226 327.324 179.726 327.824 182.226C314.224 208.626 316.158 227.226 318.824 233.226Z" fill="#D7D7D7"/>
<path d="M315.324 200.726C314.924 199.126 320.158 190.392 322.824 186.226C324.324 185.726 326.324 188.226 325.824 188.726C321.824 193.726 319.324 202.726 319.324 204.226C318.324 204.226 315.824 202.726 315.324 200.726Z" fill="#D7D7D7"/>
<path d="M320.324 190.726L318.824 196.726C320.622 194.568 332.118 191.037 341.324 190.345C343.324 190.195 346.324 185.133 344.324 185.389C338.297 186.162 326.481 189.084 320.324 190.726Z" fill="#D7D7D7"/>
<path d="M378.324 219.726C383.924 222.926 407.824 180.726 408.324 180.226C408.824 179.726 412.824 180.226 413.324 180.726C413.824 181.226 393.824 226.797 377.824 222.226C370.824 220.226 376.324 209.226 381.824 207.726C386.624 208.126 385.324 209.226 385.324 209.226C384.824 209.226 373.824 216.726 378.324 219.726Z" fill="#D7D7D7"/>
<path d="M409.824 233.226C390.824 234.226 404.824 202.726 414.324 178.226C414.712 177.226 418.324 179.726 418.824 182.226C405.224 208.626 407.158 227.226 409.824 233.226Z" fill="#D7D7D7"/>
<path d="M406.324 200.726C405.924 199.126 411.158 190.392 413.824 186.226C415.324 185.726 417.324 188.226 416.824 188.726C412.824 193.726 410.324 202.726 410.324 204.226C409.324 204.226 406.824 202.726 406.324 200.726Z" fill="#D7D7D7"/>
<path d="M438.324 185.226C434.724 184.826 418.824 188.726 411.324 190.726L409.824 196.726C411.824 194.326 425.824 190.226 435.324 190.226C437.824 188.726 439.608 185.368 438.324 185.226Z" fill="#D7D7D7"/>
<path d="M469.324 219.726C474.924 222.926 498.824 180.726 499.324 180.226C499.824 179.726 503.824 180.226 504.324 180.726C504.824 181.226 484.824 226.797 468.824 222.226C461.824 220.226 467.324 209.226 472.824 207.726C477.624 208.126 476.324 209.226 476.324 209.226C475.824 209.226 464.824 216.726 469.324 219.726Z" fill="#D7D7D7"/>
<path d="M500.824 233.226C481.824 234.226 495.824 202.726 505.324 178.226C505.712 177.226 509.324 179.726 509.824 182.226C496.224 208.626 498.158 227.226 500.824 233.226Z" fill="#D7D7D7"/>
<path d="M497.324 200.726C496.924 199.126 502.158 190.392 504.824 186.226C506.324 185.726 508.324 188.226 507.824 188.726C503.824 193.726 501.324 202.726 501.324 204.226C500.324 204.226 497.824 202.726 497.324 200.726Z" fill="#D7D7D7"/>
<path d="M529.324 185.226C525.724 184.826 509.824 188.726 502.324 190.726L500.824 196.726C502.824 194.326 516.824 190.226 526.324 190.226C528.824 188.726 530.608 185.368 529.324 185.226Z" fill="#D7D7D7"/>
<path d="M528.325 186.226C528.825 186.226 532.325 187.726 531.325 190.226C531.211 190.511 530.778 191.03 530.1 191.726C528.324 192.226 525.65 188.726 526.825 187.629C527.35 187.138 527.852 186.669 528.325 186.226Z" fill="#D7D7D7"/>
<path d="M560.324 219.726C565.924 222.926 589.824 180.726 590.324 180.226C590.824 179.726 594.824 180.226 595.324 180.726C595.824 181.226 575.824 226.797 559.824 222.226C552.824 220.226 558.324 209.226 563.824 207.726C568.624 208.126 567.324 209.226 567.324 209.226C566.824 209.226 555.824 216.726 560.324 219.726Z" fill="#D7D7D7"/>
<path d="M591.824 233.226C572.824 234.226 586.824 202.726 596.324 178.226C596.712 177.226 600.324 179.726 600.824 182.226C587.224 208.626 589.158 227.226 591.824 233.226Z" fill="#D7D7D7"/>
<path d="M588.324 200.726C587.924 199.126 593.158 190.392 595.824 186.226C597.324 185.726 599.324 188.226 598.824 188.726C594.824 193.726 592.324 202.726 592.324 204.226C591.324 204.226 588.824 202.726 588.324 200.726Z" fill="#D7D7D7"/>
<path d="M620.324 185.226C616.724 184.826 600.824 188.726 593.324 190.726L591.824 196.726C593.824 194.326 607.824 190.226 617.324 190.226C619.824 188.726 621.608 185.368 620.324 185.226Z" fill="#D7D7D7"/>
<path d="M619.324 186.226C619.824 186.226 623.324 187.726 622.324 190.226C622.099 190.79 620.625 192.271 618.468 194.226C616.31 196.181 613.824 191.346 614.494 190.726C616.274 189.077 617.926 187.537 619.324 186.226Z" fill="#D7D7D7"/>
<path d="M651.324 219.726C656.924 222.926 680.824 180.726 681.324 180.226C681.824 179.726 685.824 180.226 686.324 180.726C686.824 181.226 666.824 226.797 650.824 222.226C643.824 220.226 649.324 209.226 654.824 207.726C659.624 208.126 658.324 209.226 658.324 209.226C657.824 209.226 646.824 216.726 651.324 219.726Z" fill="#D7D7D7"/>
<path d="M682.824 233.226C663.824 234.226 677.824 202.726 687.324 178.226C687.712 177.226 691.324 179.726 691.824 182.226C678.224 208.626 680.158 227.226 682.824 233.226Z" fill="#D7D7D7"/>
<path d="M679.324 200.726C678.924 199.126 684.158 190.392 686.824 186.226C688.324 185.726 690.324 188.226 689.824 188.726C685.824 193.726 683.324 202.726 683.324 204.226C682.324 204.226 679.824 202.726 679.324 200.726Z" fill="#D7D7D7"/>
<path d="M711.324 185.226C707.724 184.826 691.824 188.726 684.324 190.726L682.824 196.726C684.824 194.326 698.824 190.226 708.324 190.226C710.824 188.726 712.608 185.368 711.324 185.226Z" fill="#D7D7D7"/>
<path d="M710.324 186.226C710.824 186.226 714.324 187.726 713.324 190.226C713.01 191.012 710.273 193.577 706.638 196.726C704.324 198.729 701.699 194.226 702.786 193.226C705.587 190.648 708.238 188.182 710.324 186.226Z" fill="#D7D7D7"/>
<path d="M742.324 219.726C747.924 222.926 771.824 180.726 772.324 180.226C772.824 179.726 776.824 180.226 777.324 180.726C777.824 181.226 757.824 226.797 741.824 222.226C734.824 220.226 740.324 209.226 745.824 207.726C750.624 208.126 749.324 209.226 749.324 209.226C748.824 209.226 737.824 216.726 742.324 219.726Z" fill="#D7D7D7"/>
<path d="M773.824 233.226C754.824 234.226 768.824 202.726 778.324 178.226C778.712 177.226 782.324 179.726 782.824 182.226C769.224 208.626 771.158 227.226 773.824 233.226Z" fill="#D7D7D7"/>
<path d="M770.324 200.726C769.924 199.126 775.158 190.392 777.824 186.226C779.324 185.726 781.324 188.226 780.824 188.726C776.824 193.726 774.324 202.726 774.324 204.226C773.324 204.226 770.824 202.726 770.324 200.726Z" fill="#D7D7D7"/>
<path d="M802.324 185.226C798.724 184.826 782.824 188.726 775.324 190.726L773.824 196.726C775.824 194.326 789.824 190.226 799.324 190.226C801.824 188.726 803.608 185.368 802.324 185.226Z" fill="#D7D7D7"/>
<path d="M801.324 186.226C801.824 186.226 805.324 187.726 804.324 190.226C803.93 191.212 799.722 195 794.709 199.226C792.824 200.226 790.324 196.226 791.324 195.484C795.003 192.12 798.633 188.749 801.324 186.226Z" fill="#D7D7D7"/>
<path d="M833.324 219.726C838.924 222.926 862.824 180.726 863.324 180.226C863.824 179.726 867.824 180.226 868.324 180.726C868.824 181.226 848.824 226.797 832.824 222.226C825.824 220.226 831.324 209.226 836.824 207.726C841.624 208.126 840.324 209.226 840.324 209.226C839.824 209.226 828.824 216.726 833.324 219.726Z" fill="#D7D7D7"/>
<path d="M864.824 233.226C845.824 234.226 859.824 202.726 869.324 178.226C869.712 177.226 873.324 179.726 873.824 182.226C860.224 208.626 862.158 227.226 864.824 233.226Z" fill="#D7D7D7"/>
<path d="M861.324 200.726C860.924 199.126 866.158 190.392 868.824 186.226C870.324 185.726 872.324 188.226 871.824 188.726C867.824 193.726 865.324 202.726 865.324 204.226C864.324 204.226 861.824 202.726 861.324 200.726Z" fill="#D7D7D7"/>
<path d="M893.324 185.226C889.724 184.826 873.824 188.726 866.324 190.726L864.824 196.726C866.824 194.326 880.824 190.226 890.324 190.226C892.824 188.726 894.608 185.368 893.324 185.226Z" fill="#D7D7D7"/>
<path d="M892.324 186.226C892.824 186.226 896.324 187.726 895.324 190.226C894.856 191.397 889.01 196.519 882.824 201.634C882.108 202.226 878.324 199.122 879.824 197.761C884.308 193.693 889.023 189.321 892.324 186.226Z" fill="#D7D7D7"/>
</svg>
