<?xml version="1.0" encoding="utf-8"?>
<!-- Generator: Adobe Illustrator 23.0.6, SVG Export Plug-In . SVG Version: 6.00 Build 0)  -->
<svg version="1.1" id="Слой_1" xmlns="http://www.w3.org/2000/svg" xmlns:xlink="http://www.w3.org/1999/xlink" x="0px" y="0px"
	 viewBox="0 0 39.9 39.9" style="enable-background:new 0 0 39.9 39.9;" xml:space="preserve">
<style type="text/css">
	.st0{fill:#3968FF;}
</style>
<g>
	<path id="Link" class="st0" d="M22.1,29.1c0.4-0.4,1-0.4,1.4,0c0.4,0.4,0.4,1,0,1.4l-6.4,6.4c-3.9,3.9-10.2,3.9-14.1,0
		s-3.9-10.2,0-14.1l5.7-5.7c3.9-3.9,10.2-3.9,14.1,0c0.4,0.4,0.4,1,0,1.4c-0.4,0.4-1,0.4-1.4,0c-3.1-3.1-8.2-3.1-11.3,0l-5.7,5.7
		c-3.1,3.1-3.1,8.2,0,11.3c3.1,3.1,8.2,3.1,11.3,0L22.1,29.1z M19.2,9.3c-0.4,0.4-1,0.4-1.4,0s-0.4-1,0-1.4L22.8,3
		C26.7-0.9,33-0.9,36.9,3s3.9,10.2,0,14.1l-5.7,5.7c-3.9,3.9-10.2,3.9-14.1,0c-0.4-0.4-0.4-1,0-1.4c0.4-0.4,1-0.4,1.4,0
		c3.1,3.1,8.2,3.1,11.3,0l5.7-5.7c3.1-3.1,3.1-8.2,0-11.3c-3.1-3.1-8.2-3.1-11.3,0L19.2,9.3z"/>
</g>
</svg>
