<svg width="48" height="48" viewBox="0 0 48 48" fill="none" xmlns="http://www.w3.org/2000/svg">
<path d="M26.2256 28.6099C24.7704 28.8575 23.2835 28.8575 21.8283 28.6099C19.9028 33.1522 20.7579 38.3967 24.0268 42.0916C27.2956 38.3967 28.151 33.1522 26.2256 28.6099Z" fill="#A6D3F6"/>
<path d="M35.0937 20.8407C31.4836 20.4238 27.8675 21.5743 25.1621 24.001C25.9264 24.85 26.5878 25.7867 27.1324 26.7905C30.4747 25.9518 33.3425 23.8089 35.0937 20.8407Z" fill="#A6D3F6"/>
<path d="M22.6035 27.108C23.5493 27.2194 24.5051 27.2194 25.4511 27.108C25.0396 26.4093 24.5628 25.7513 24.0273 25.1421C23.4921 25.7513 23.0153 26.4093 22.6035 27.108Z" fill="#A6D3F6"/>
<path d="M14.385 19.1532C17.9483 19.1548 21.3841 20.4782 24.0274 22.8672C27.2254 19.9386 31.5891 18.6385 35.8687 19.3388C38.1448 13.9577 36.5062 7.71845 31.8795 4.15012C27.253 0.581471 20.8022 0.581471 16.1757 4.15012C11.5489 7.71845 9.91042 13.9577 12.1865 19.3388C12.9137 19.2207 13.6486 19.1586 14.385 19.1532Z" fill="#007BDB"/>
<path d="M14.3834 46.4731C17.5214 46.4724 20.5495 45.3176 22.8914 43.2293C19.227 39.159 18.1981 33.3577 20.2397 28.2754C16.4036 27.2292 13.1651 24.6553 11.2796 21.1548C4.976 22.7195 0.831673 28.7416 1.62174 35.1883C2.41244 41.6347 7.88861 46.4775 14.3834 46.4731Z" fill="#6CD41C"/>
<path d="M27.8161 28.2754C29.8574 33.3577 28.8288 39.159 25.1641 43.2293C29.1555 46.7687 34.9192 47.4719 39.6445 44.9965C44.3699 42.5212 47.0731 37.3821 46.4359 32.0861C45.7987 26.7898 41.9535 22.4386 36.7762 21.1548C34.8906 24.6553 31.6516 27.2292 27.8161 28.2754Z" fill="#F6C000"/>
<path d="M12.9609 20.8407C14.7125 23.8089 17.5796 25.9518 20.9225 26.7905C21.4671 25.7867 22.1282 24.85 22.8928 24.001C20.1874 21.5743 16.5713 20.4238 12.9609 20.8407Z" fill="#A6D3F6"/>
</svg>
