<svg width="80" height="80" viewBox="0 0 80 80" fill="none" xmlns="http://www.w3.org/2000/svg">
<path d="M80 11.0813C80 10.816 79.9307 10.572 79.8253 10.3467C79.7893 10.068 79.676 9.79733 79.4867 9.57467L71.28 0H8.72L0.512 9.576C0.322667 9.79733 0.209333 10.0667 0.174667 10.3467C0.0693333 10.572 0 10.816 0 11.0813V25.3333H4V80H76V25.3333H80V11.0813ZM9.94667 2.66667H70.0533L75.768 9.33333H4.232L9.94667 2.66667ZM73.3333 77.3333H6.66667V25.3333H73.3333V77.3333ZM77.3333 22.6667H2.66667V12H77.3333V22.6667Z" fill="url(#paint0_linear)"/>
<path d="M56.0002 30.6667H24.0002V44H56.0002V30.6667ZM53.3335 41.3333H26.6668V33.3333H53.3335V41.3333Z" fill="url(#paint1_linear)"/>
<path d="M60 50.6667H20V69.3333H60V50.6667ZM57.3333 66.6667H22.6667V53.3333H57.3333V66.6667Z" fill="url(#paint2_linear)"/>
<path d="M29.3332 64H35.9999C36.7359 64 37.3332 63.404 37.3332 62.6667C37.3332 61.9293 36.7359 61.3333 35.9999 61.3333H29.3332C28.5972 61.3333 27.9999 61.9293 27.9999 62.6667C27.9999 63.404 28.5972 64 29.3332 64Z" fill="url(#paint3_linear)"/>
<path d="M36.0002 58.6667H50.6668C51.4028 58.6667 52.0002 58.0707 52.0002 57.3333C52.0002 56.596 51.4028 56 50.6668 56H36.0002C35.2642 56 34.6668 56.596 34.6668 57.3333C34.6668 58.0707 35.2642 58.6667 36.0002 58.6667Z" fill="url(#paint4_linear)"/>
<path d="M29.3332 58.6666C29.6799 58.6666 30.0266 58.52 30.2799 58.28C30.5199 58.0266 30.6666 57.68 30.6666 57.3333C30.6666 56.9853 30.5199 56.6386 30.2799 56.3866C29.7732 55.8933 28.8932 55.8933 28.3866 56.3866C28.1466 56.6386 27.9999 56.9853 27.9999 57.3333C27.9999 57.6933 28.1466 58.0266 28.3866 58.28C28.6399 58.52 28.9732 58.6666 29.3332 58.6666Z" fill="url(#paint5_linear)"/>
<path d="M41.7201 61.72C41.4801 61.972 41.3334 62.3186 41.3334 62.6666C41.3334 63.0133 41.4801 63.36 41.7201 63.6133C41.9734 63.8533 42.3201 64 42.6668 64C43.0134 64 43.3601 63.8533 43.6134 63.6133C43.8534 63.36 44.0001 63.0133 44.0001 62.6666C44.0001 62.3186 43.8534 61.972 43.6134 61.72C43.1201 61.2266 42.2134 61.2266 41.7201 61.72Z" fill="url(#paint6_linear)"/>
<path d="M50.6666 61.3333H49.3332C48.5972 61.3333 47.9999 61.9293 47.9999 62.6667C47.9999 63.404 48.5972 64 49.3332 64H50.6666C51.4026 64 51.9999 63.404 51.9999 62.6667C51.9999 61.9293 51.4026 61.3333 50.6666 61.3333Z" fill="url(#paint7_linear)"/>
<defs>
<linearGradient id="paint0_linear" x1="2.43064" y1="-7.9547e-05" x2="69.1819" y2="88.333" gradientUnits="userSpaceOnUse">
<stop stop-color="#007ADA"/>
<stop offset="1" stop-color="#003C6A"/>
</linearGradient>
<linearGradient id="paint1_linear" x1="2.43064" y1="-7.9547e-05" x2="69.1819" y2="88.333" gradientUnits="userSpaceOnUse">
<stop stop-color="#007ADA"/>
<stop offset="1" stop-color="#003C6A"/>
</linearGradient>
<linearGradient id="paint2_linear" x1="2.43064" y1="-7.9547e-05" x2="69.1819" y2="88.333" gradientUnits="userSpaceOnUse">
<stop stop-color="#007ADA"/>
<stop offset="1" stop-color="#003C6A"/>
</linearGradient>
<linearGradient id="paint3_linear" x1="2.43064" y1="-7.9547e-05" x2="69.1819" y2="88.333" gradientUnits="userSpaceOnUse">
<stop stop-color="#007ADA"/>
<stop offset="1" stop-color="#003C6A"/>
</linearGradient>
<linearGradient id="paint4_linear" x1="2.43064" y1="-7.9547e-05" x2="69.1819" y2="88.333" gradientUnits="userSpaceOnUse">
<stop stop-color="#007ADA"/>
<stop offset="1" stop-color="#003C6A"/>
</linearGradient>
<linearGradient id="paint5_linear" x1="2.43064" y1="-7.9547e-05" x2="69.1819" y2="88.333" gradientUnits="userSpaceOnUse">
<stop stop-color="#007ADA"/>
<stop offset="1" stop-color="#003C6A"/>
</linearGradient>
<linearGradient id="paint6_linear" x1="2.43064" y1="-7.9547e-05" x2="69.1819" y2="88.333" gradientUnits="userSpaceOnUse">
<stop stop-color="#007ADA"/>
<stop offset="1" stop-color="#003C6A"/>
</linearGradient>
<linearGradient id="paint7_linear" x1="2.43064" y1="-7.9547e-05" x2="69.1819" y2="88.333" gradientUnits="userSpaceOnUse">
<stop stop-color="#007ADA"/>
<stop offset="1" stop-color="#003C6A"/>
</linearGradient>
</defs>
</svg>
