<svg width="108" height="70" viewBox="0 0 108 70" fill="none" xmlns="http://www.w3.org/2000/svg">
<g clip-path="url(#clip0)">
<path d="M0.214576 0H18.421C18.421 0.188737 18.421 0.377474 18.4222 0.567406C12.3478 0.562628 6.27458 0.576962 0.200176 0.560239C0.197776 0.372696 0.198976 0.186348 0.214576 0Z" fill="#007ADA"/>
<path d="M18.4209 0H46.8477C46.8093 0.185154 46.7793 0.371502 46.7481 0.55785C37.3065 0.579352 27.8637 0.560239 18.4221 0.567406C18.4209 0.377474 18.4209 0.188737 18.4209 0Z" fill="#007ADA"/>
<path d="M1.05199 11.3578C1.04719 10.9098 1.63399 10.6685 1.98079 10.9194C2.21479 11.0448 2.28679 11.3291 2.27839 11.5764C2.28199 12.8438 2.27719 14.1124 2.27959 15.3798C3.74959 15.3798 5.21959 15.3798 6.68959 15.3798C6.69439 14.0359 6.67999 12.6921 6.69559 11.3494C6.71239 10.9182 7.27639 10.684 7.62919 10.9014C7.87759 11.0149 7.96039 11.31 7.94959 11.5632C7.94839 14.4373 7.95199 17.3137 7.94839 20.1878C7.99879 20.5891 7.59679 20.9595 7.19959 20.8675C6.92359 20.8376 6.68479 20.5903 6.69199 20.3084C6.68359 19.0434 6.69319 17.7796 6.68959 16.5146C5.21959 16.5146 3.74959 16.5146 2.27959 16.5146C2.27839 17.7091 2.28079 18.9025 2.27959 20.097C2.29039 20.3873 2.19439 20.7253 1.88839 20.8304C1.53079 21.0025 1.01479 20.7182 1.05199 20.3025C1.04839 17.3209 1.04719 14.3393 1.05199 11.3578Z" fill="#007ADA"/>
<path d="M65.9465 14.4491C65.9357 13.8172 66.9521 13.6631 67.1261 14.2699C67.2281 15.0607 67.1416 15.867 67.1704 16.6638C68.05 16.6638 68.9296 16.6626 69.8104 16.6638C69.8248 15.8897 69.7816 15.1133 69.8296 14.3416C69.9004 13.8877 70.5472 13.7252 70.852 14.0513C71.0632 14.2484 71.0392 14.553 71.0428 14.8158C71.0344 16.61 71.0464 18.4042 71.038 20.1984C71.0608 20.5317 70.7944 20.859 70.4488 20.8494C70.1368 20.8757 69.8176 20.6273 69.8164 20.3071C69.7984 19.4411 69.8164 18.575 69.8104 17.709C68.9296 17.709 68.05 17.709 67.1704 17.709C67.1632 18.5703 67.1837 19.4315 67.1633 20.2916C67.1705 20.6308 66.8224 20.9032 66.4924 20.8459C66.166 20.8339 65.9009 20.5114 65.9405 20.1901C65.9441 18.2764 65.9321 16.3628 65.9465 14.4491Z" fill="#007ADA"/>
<path d="M16.7822 14.3358C16.889 13.7421 17.903 13.7481 17.9618 14.3632C17.9822 16.1347 17.9642 17.9074 17.9702 19.6801C18.9206 19.6801 19.8698 19.6801 20.8202 19.6801C20.8214 17.9421 20.8154 16.2052 20.8226 14.4684C20.807 14.1196 21.155 13.8221 21.4994 13.8962C21.7874 13.9081 22.0322 14.1757 22.0178 14.4624C22.0238 16.2016 22.019 17.9397 22.0202 19.6789C22.4006 19.7136 22.949 19.5368 23.1566 19.9668C23.2358 20.631 23.1662 21.3071 23.1926 21.9772C23.1722 22.258 23.2682 22.6151 23.0042 22.8134C22.7318 23.0738 22.2002 22.9281 22.1222 22.5506C22.0898 21.9533 22.121 21.3537 22.1102 20.7552C20.5406 20.754 18.9698 20.7564 17.4002 20.7552C17.0822 20.7994 16.757 20.5366 16.7726 20.2105C16.775 18.2527 16.7546 16.2936 16.7822 14.3358Z" fill="#007ADA"/>
<path d="M24.3068 14.3417C24.3944 13.7647 25.3496 13.7372 25.4888 14.3011C25.5152 15.6246 25.4936 16.9506 25.4972 18.2765C26.522 17.1572 27.542 16.0355 28.5572 14.9103C28.5668 14.5961 28.4876 14.1601 28.8308 13.9881C29.18 13.7372 29.786 13.9726 29.7572 14.4325C29.7608 16.3951 29.762 18.3577 29.7572 20.3204C29.7716 20.6273 29.4728 20.9033 29.168 20.8794C28.8524 20.8937 28.5536 20.6226 28.562 20.3036C28.5524 19.0338 28.5668 17.764 28.556 16.4942C27.5408 17.6183 26.5064 18.7256 25.4996 19.8569C25.4768 20.1352 25.5836 20.4744 25.3532 20.6907C25.0412 21.0693 24.2792 20.8531 24.302 20.3347C24.302 18.3374 24.29 16.339 24.3068 14.3417Z" fill="#007ADA"/>
<path d="M38.8137 13.9856C39.1377 13.7407 39.6897 13.933 39.7389 14.3487C39.7689 15.1192 39.7401 15.8921 39.7497 16.6637C40.6401 16.6637 41.5293 16.6637 42.4197 16.6637C42.4293 15.8837 42.4005 15.1037 42.4317 14.3248C42.5277 13.8769 43.1817 13.7156 43.4721 14.0799C43.6485 14.2352 43.6173 14.4825 43.6221 14.6939C43.6089 16.5944 43.6365 18.4962 43.6089 20.3955C43.5117 20.9975 42.5349 20.9927 42.4305 20.3979C42.4005 19.5032 42.4293 18.6049 42.4197 17.709C41.5293 17.709 40.6401 17.709 39.7497 17.709C39.7401 18.6156 39.7689 19.5235 39.7377 20.4289C39.6069 21.0549 38.5449 20.9402 38.5521 20.3047C38.5449 18.3922 38.5533 16.4798 38.5485 14.5673C38.5305 14.3439 38.6049 14.1002 38.8137 13.9856Z" fill="#007ADA"/>
<path d="M52.5796 14.4253C52.5928 14.1398 52.864 13.9188 53.1472 13.9487C54.4336 13.9451 55.7212 13.9439 57.0076 13.9487C57.3268 13.9451 57.5776 14.2712 57.5392 14.5782C57.5404 16.4871 57.544 18.3972 57.538 20.3061C57.5764 20.8185 56.8972 21.0514 56.5348 20.7671C56.3152 20.6119 56.3128 20.3192 56.3092 20.0791C56.3116 18.3936 56.3104 16.7069 56.3104 15.0214C55.4704 15.0214 54.6304 15.0214 53.7904 15.0214C53.788 16.5671 53.8612 18.1607 53.344 19.6431C53.1688 20.091 52.9432 20.582 52.4968 20.8197C52.12 21.0168 51.6316 20.7241 51.6172 20.3025C51.7204 19.8258 52.1332 19.4938 52.258 19.0231C52.7296 17.5359 52.4884 15.9543 52.5796 14.4253Z" fill="#007ADA"/>
<path fill-rule="evenodd" clip-rule="evenodd" d="M35.6557 14.1899C34.9369 13.8207 34.0837 13.798 33.3049 13.9581C32.1817 14.1636 31.4821 15.2805 31.4497 16.3603C31.4497 16.5677 31.4454 16.7757 31.4412 16.9839C31.4291 17.5734 31.417 18.1647 31.5013 18.7482C31.6357 19.6405 32.2669 20.4898 33.1741 20.7132C34.1065 20.939 35.2069 20.9091 35.9893 20.2916C36.6349 19.7492 36.8941 18.8796 36.8977 18.0614C36.8951 17.8654 36.8979 17.6688 36.9007 17.472C36.9086 16.9211 36.9164 16.3688 36.8077 15.8276C36.6505 15.1682 36.2809 14.5064 35.6557 14.1899ZM34.7795 15.0749C34.3367 14.9423 33.8423 14.9507 33.4151 15.1311C32.9075 15.3628 32.6783 15.9457 32.6723 16.4725C32.6675 17.0817 32.6651 17.6933 32.6735 18.3038C32.6855 18.8258 32.9375 19.398 33.4523 19.6034C34.0235 19.8184 34.7375 19.7922 35.2223 19.3932C35.6183 19.0241 35.6843 18.4507 35.6975 17.9406C35.697 17.8012 35.6986 17.6614 35.7002 17.5215C35.7056 17.0563 35.7111 16.5898 35.6363 16.1297C35.5655 15.6614 35.2475 15.2123 34.7795 15.0749Z" fill="#007ADA"/>
<path fill-rule="evenodd" clip-rule="evenodd" d="M81.4632 13.9473C80.8188 13.9593 80.1144 14.197 79.7664 14.7716C79.4456 15.231 79.478 15.8059 79.5082 16.3419C79.5112 16.3955 79.5142 16.4486 79.5168 16.5013C79.59 17.1571 80.0844 17.6922 80.7048 17.8941C80.2956 18.5224 79.9116 19.1699 79.5684 19.8364C79.5632 19.8472 79.558 19.858 79.5527 19.8689C79.4552 20.0698 79.3464 20.2941 79.4352 20.5173C79.6104 20.9593 80.346 20.9987 80.5416 20.5555C80.5645 20.5107 80.5875 20.4658 80.6104 20.4209C81.0277 19.6043 81.4456 18.7866 81.9324 18.0076H82.95C82.9561 18.327 82.9527 18.6471 82.9494 18.9672C82.9441 19.472 82.9388 19.9769 82.9704 20.4791C83.142 21.0823 84.1872 20.9366 84.1476 20.2939C84.1515 19.0675 84.1509 17.8405 84.1503 16.6136C84.1499 15.9322 84.1496 15.2509 84.15 14.5697C84.1956 14.2257 83.8716 13.9008 83.526 13.9462C82.8384 13.945 82.1508 13.9438 81.4632 13.9473ZM81.2605 15.0381C80.5357 15.246 80.4829 16.296 80.9257 16.7869C81.3301 17.0947 81.8345 17.0734 82.3308 17.0523C82.5414 17.0434 82.7506 17.0345 82.9501 17.0509V14.9629C82.7783 14.968 82.6056 14.9646 82.4327 14.9613C82.0391 14.9536 81.6449 14.946 81.2605 15.0381Z" fill="#007ADA"/>
<path fill-rule="evenodd" clip-rule="evenodd" d="M11.8536 13.8928C11.2572 13.9334 10.6332 14.0493 10.14 14.4088C9.85919 14.6561 9.97319 15.1769 10.3392 15.2761C10.5615 15.3324 10.7597 15.2366 10.9576 15.1409C11.062 15.0905 11.1663 15.0401 11.274 15.0121C11.8488 14.8448 12.5256 14.7791 13.0632 15.0921C13.5173 15.4345 13.5241 16.0428 13.5302 16.575C13.531 16.6461 13.5317 16.7159 13.5336 16.7836C13.2971 16.7892 13.0595 16.7862 12.8216 16.7832C12.1987 16.7755 11.5743 16.7677 10.9656 16.9138C10.368 17.0595 9.81599 17.4752 9.61799 18.0701C9.45599 18.579 9.46559 19.1476 9.65279 19.6481C9.89519 20.2752 10.5216 20.6945 11.1792 20.7805C12.06 20.9238 13.0788 20.8498 13.7532 20.2035C14.004 20.7638 14.9232 21.146 15.3144 20.5416C15.448 20.2262 15.2598 20.0551 15.0659 19.8788C14.9132 19.7399 14.7569 19.5978 14.7516 19.3793C14.7191 18.807 14.7243 18.2332 14.7295 17.659C14.7343 17.1294 14.7391 16.5995 14.7144 16.0704C14.6592 15.3991 14.4732 14.6441 13.872 14.2487C13.2732 13.8796 12.5364 13.8653 11.8536 13.8928ZM12.8731 17.7091C12.3507 17.6989 11.8261 17.6886 11.3276 17.8501C10.4948 18.1261 10.4972 19.5117 11.3252 19.7877C11.9648 19.9943 12.8168 19.9848 13.268 19.4114C13.5518 19.0273 13.541 18.5523 13.5306 18.092C13.5276 17.9624 13.5247 17.834 13.5284 17.7092C13.3118 17.7176 13.0926 17.7134 12.8731 17.7091Z" fill="#007ADA"/>
<path fill-rule="evenodd" clip-rule="evenodd" d="M48.8022 13.9929C47.8158 13.7982 46.7106 13.8125 45.8178 14.319C45.4194 14.485 45.4446 15.1313 45.8526 15.2651C46.0734 15.3416 46.2723 15.2455 46.4704 15.1499C46.5663 15.1036 46.662 15.0574 46.7598 15.0309C47.3646 14.8374 48.0966 14.7646 48.6534 15.1253C49.0409 15.4691 49.0588 16.0051 49.0755 16.4998C49.0787 16.5965 49.0819 16.6916 49.0878 16.7833C48.8214 16.7945 48.5489 16.7896 48.2749 16.7847C47.4626 16.7701 46.6367 16.7553 45.9162 17.1572C45.0498 17.635 44.8746 18.7949 45.1986 19.655C45.417 20.2296 45.963 20.6321 46.5594 20.748C47.4822 20.9356 48.5598 20.8842 49.287 20.2152C49.4778 20.4757 49.7082 20.76 50.0502 20.8137C50.3562 20.8997 50.8506 20.8149 50.8782 20.4267C50.9438 20.1659 50.7749 20.0197 50.6029 19.8708C50.4637 19.7504 50.3226 19.6283 50.3022 19.4424C50.2635 18.9093 50.2723 18.3729 50.2811 17.8364C50.2939 17.0565 50.3067 16.2764 50.1738 15.5064C50.0574 14.7873 49.5438 14.1338 48.8022 13.9929ZM48.4171 17.7091C47.8871 17.6988 47.3542 17.6884 46.8486 17.8558C46.0398 18.1342 46.0458 19.4947 46.8474 19.7779C47.463 19.9881 48.2634 19.9869 48.7434 19.49C49.0953 19.0876 49.0882 18.5449 49.0814 18.0323C49.08 17.9226 49.0785 17.8142 49.0806 17.7089C48.8615 17.7177 48.6395 17.7134 48.4171 17.7091Z" fill="#007ADA"/>
<path fill-rule="evenodd" clip-rule="evenodd" d="M76.6206 14.1408C75.8214 13.8016 74.9106 13.835 74.073 13.9903C74.0377 14.0001 74.0017 14.0098 73.9653 14.0197C73.589 14.1215 73.1636 14.2366 72.9546 14.584C72.771 14.9961 73.2498 15.4667 73.6566 15.2458C74.355 14.8946 75.2322 14.7022 75.9618 15.0654C76.4555 15.3895 76.464 16.0223 76.4713 16.5677C76.4723 16.6414 76.4733 16.7136 76.4754 16.7831C76.2125 16.7938 75.9436 16.7891 75.6732 16.7844C74.8587 16.7701 74.0302 16.7555 73.3086 17.1618C72.5466 17.5823 72.3126 18.5534 72.5058 19.3514C72.6402 20.1004 73.3206 20.6618 74.0598 20.7705C74.9586 20.9258 76.005 20.8613 76.6986 20.2043C76.8846 20.5005 77.1462 20.792 77.5206 20.829C77.8578 20.9198 78.3486 20.7215 78.2742 20.3058C78.2949 20.093 78.1446 19.9738 77.992 19.8528C77.8432 19.7348 77.6922 19.6151 77.6958 19.4051C77.6577 18.8264 77.664 18.2457 77.6703 17.6649C77.6763 17.113 77.6824 16.5609 77.6502 16.0103C77.5902 15.2899 77.3358 14.4633 76.6206 14.1408ZM75.8028 17.709C75.2666 17.6978 74.728 17.6865 74.2217 17.8702C73.4117 18.1867 73.4657 19.57 74.3117 19.8041C74.9549 19.9929 75.8045 19.9702 76.2329 19.3789C76.4915 18.9988 76.4816 18.5425 76.472 18.0974C76.4692 17.9662 76.4664 17.836 76.4705 17.7089C76.25 17.7184 76.0266 17.7137 75.8028 17.709Z" fill="#007ADA"/>
<path fill-rule="evenodd" clip-rule="evenodd" d="M60.4038 14.0416C60.0654 13.7525 59.4126 13.9843 59.4318 14.4585C59.4315 14.9449 59.4306 15.4314 59.4298 15.9179C59.4273 17.3777 59.4249 18.8379 59.4366 20.2974C59.5068 20.7921 60.0441 20.7739 60.4519 20.7601C60.504 20.7584 60.5539 20.7567 60.6006 20.7561C60.8744 20.7405 61.1549 20.7478 61.4365 20.7551C62.1448 20.7735 62.8601 20.792 63.4938 20.4467C64.1334 20.0932 64.3422 19.3107 64.293 18.6287C64.3338 18.0063 64.0566 17.3469 63.495 17.0351C62.8309 16.6345 62.058 16.6489 61.3001 16.6631C61.0638 16.6675 60.829 16.6719 60.5994 16.6636C60.598 16.2812 60.5989 15.8991 60.5997 15.517C60.6004 15.1985 60.6011 14.88 60.6006 14.5612C60.6078 14.3713 60.5718 14.1575 60.4038 14.0416ZM61.2032 17.7384C61.0015 17.7422 60.7999 17.746 60.5996 17.7388V19.6799C60.8477 19.6582 61.1032 19.6694 61.3593 19.6807C61.8489 19.7022 62.3404 19.7237 62.7848 19.5151C63.2708 19.0791 63.2432 17.9861 62.5028 17.8248C62.0768 17.7219 61.6397 17.7301 61.2032 17.7384Z" fill="#007ADA"/>
<path d="M0 30.3353C0.132 30.1956 0.276 30.02 0.4932 30.0463C1.9656 30.0403 3.4392 30.0379 4.9116 30.0474C5.49 30.0068 5.5932 30.9696 5.028 31.0652C4.4544 31.1213 3.876 31.0736 3.3 31.0879C3.3012 32.7913 3.2976 34.4959 3.3036 36.2005C3.306 36.4382 3.3 36.7309 3.066 36.8671C2.7168 37.1705 2.0616 36.9089 2.1024 36.4275C2.094 34.6476 2.1024 32.8678 2.1 31.0879C1.5288 31.0759 0.9564 31.1142 0.3864 31.0724C0.2052 31.0664 0.1104 30.8884 0 30.7725V30.3353Z" fill="#007ADA"/>
<path d="M12.6155 30.9005C12.4115 30.5672 12.5855 30.0858 12.9791 30.0034C13.2575 29.921 13.5887 30.0285 13.7123 30.3032C14.0891 31.0379 14.5463 31.7283 15.0395 32.3901C15.5639 31.6996 16.0379 30.9745 16.4639 30.2208C16.7543 29.7012 17.7311 30.093 17.4935 30.6807C17.0627 31.6447 16.4039 32.488 15.7823 33.3361C16.4747 34.2524 17.2199 35.153 17.7119 36.1947C17.9171 36.8027 16.9751 37.2387 16.6247 36.731C16.1423 35.8889 15.5855 35.0933 15.0155 34.3097C14.4431 35.0658 13.9019 35.8483 13.4387 36.6761C13.2455 37.0404 12.6719 37.0309 12.4487 36.7035C12.2795 36.4861 12.3599 36.1851 12.4883 35.9701C13.0055 35.0491 13.6475 34.2058 14.3003 33.3791C13.6859 32.5908 13.0847 31.7844 12.6155 30.9005Z" fill="#007ADA"/>
<path d="M18.9023 30.5956C18.8867 30.1847 19.3571 29.8598 19.7387 30.0151C20.0135 30.0927 20.1431 30.3985 20.1299 30.6625C20.1347 31.3613 20.1263 32.0601 20.1299 32.7601C21.0095 32.7601 21.8891 32.7601 22.7699 32.7601C22.7831 31.9932 22.7447 31.2251 22.7867 30.4594C22.8419 30.021 23.4359 29.8251 23.7623 30.1058C23.9843 30.2683 24.0095 30.5598 24.0023 30.8118C23.9951 32.6466 24.0047 34.4826 23.9975 36.3174C24.0467 36.7666 23.5175 37.0963 23.1239 36.8968C22.8839 36.806 22.7591 36.5504 22.7723 36.3043C22.7627 35.4813 22.7735 34.6582 22.7699 33.8352C21.8903 33.8352 21.0095 33.8352 20.1299 33.8352C20.1215 34.6917 20.1443 35.5493 20.1203 36.4058C20.1179 36.8765 19.5071 37.1106 19.1531 36.8347C18.9335 36.6997 18.8891 36.4309 18.8987 36.1956C18.9035 34.3285 18.8951 32.4615 18.9023 30.5956Z" fill="#007ADA"/>
<path d="M46.7409 30.7211C46.7157 30.3974 46.9425 30.0367 47.2965 30.045C48.4797 30.0438 49.6629 30.0331 50.8461 30.0498C51.4089 30.0785 51.4737 30.9863 50.9145 31.0914C49.9269 31.1559 48.9309 31.0986 47.9397 31.1177C47.9385 32.8868 47.9433 34.6559 47.9385 36.4251C47.9577 36.8443 47.4129 37.1083 47.0673 36.8981C46.7949 36.7846 46.7337 36.4633 46.7385 36.2017C46.7421 34.3752 46.7361 32.5476 46.7409 30.7211Z" fill="#007ADA"/>
<path d="M52.3589 30.493C52.3997 29.842 53.4989 29.8289 53.5685 30.4739C53.5973 31.7676 53.5733 33.0637 53.5793 34.3586C54.5861 33.2548 55.5845 32.1427 56.5985 31.0461C56.6273 30.7427 56.5445 30.3628 56.8181 30.1442C57.1661 29.8097 57.8705 30.0522 57.8369 30.5707C57.8381 32.5261 57.8513 34.4828 57.8309 36.4383C57.8165 36.8778 57.2705 37.1168 56.9081 36.8993C56.6513 36.7668 56.6009 36.4526 56.6093 36.1934C56.6153 34.9929 56.6009 33.7935 56.6177 32.593C55.6061 33.6992 54.6005 34.8101 53.5865 35.9139C53.5613 36.2077 53.6477 36.5661 53.4101 36.7978C53.0801 37.1645 52.3553 36.9495 52.3565 36.4311C52.3481 34.4517 52.3433 32.4712 52.3589 30.493Z" fill="#007ADA"/>
<path d="M59.6786 30.5121C59.7254 29.9136 60.6794 29.7966 60.8582 30.3747C60.9746 31.0855 60.8378 31.8189 60.923 32.5345C60.9734 32.9418 61.2878 33.293 61.6922 33.3802C62.2922 33.4961 62.9066 33.3718 63.4814 33.1927C63.4886 32.28 63.4622 31.365 63.4922 30.4536C63.581 29.8468 64.6022 29.8456 64.6706 30.4596C64.6946 32.3756 64.6706 34.2928 64.6826 36.2089C64.6898 36.4299 64.6826 36.6879 64.4822 36.8312C64.1558 37.1585 63.4886 36.9089 63.4862 36.437C63.467 35.7096 63.4862 34.9821 63.4802 34.2546C62.6186 34.4875 61.6634 34.6452 60.8054 34.3227C60.1586 34.0909 59.7602 33.4387 59.7038 32.777C59.6402 32.0244 59.6726 31.2671 59.6786 30.5121Z" fill="#007ADA"/>
<path d="M74.8185 30.0796C75.6885 29.8921 76.6821 29.9136 77.4573 30.3997C77.9289 30.6506 77.5605 31.4641 77.0625 31.3064C76.5273 31.0926 75.9381 30.8955 75.3609 31.0567C74.8329 31.1798 74.4586 31.6516 74.3206 32.1545C74.161 32.7327 74.2353 33.3371 74.2185 33.9272C74.2137 34.5352 74.3302 35.2245 74.8377 35.6258C75.3465 36.0057 76.0545 35.9412 76.6257 35.7489C76.8753 35.6772 77.1297 35.4813 77.3949 35.6115C77.7669 35.7692 77.7693 36.3736 77.3997 36.5361C76.5105 37.0079 75.3993 37.0748 74.4585 36.7165C73.4686 36.3079 73.021 35.1743 73.0186 34.1697C73.0486 33.2833 72.8938 32.3468 73.2862 31.5154C73.5622 30.8501 74.1093 30.2767 74.8185 30.0796Z" fill="#007ADA"/>
<path d="M78.9988 30.4692C79.0504 29.8397 80.0872 29.848 80.1712 30.4632C80.218 31.2767 80.176 32.0949 80.1904 32.9096C80.4172 32.9096 80.6452 32.9096 80.8744 32.9096C81.5224 32.0185 82.1716 31.1298 82.8244 30.2422C83.0224 29.9185 83.5564 29.8743 83.7772 30.1956C83.9716 30.4035 83.9536 30.7391 83.7772 30.9518C83.1628 31.7915 82.534 32.6205 81.9172 33.4579C82.5736 34.2965 83.2144 35.1494 83.8096 36.0321C83.9596 36.2137 83.9104 36.4538 83.908 36.6688C83.662 36.9806 83.1244 37.112 82.8664 36.7429C82.2256 35.8183 81.574 34.9009 80.8828 34.0134C80.6512 34.0146 80.4208 34.0146 80.1904 34.0146C80.1844 34.7946 80.2012 35.5746 80.1844 36.3547C80.2 36.7286 79.8088 37.0547 79.444 36.9543C79.15 36.9006 78.946 36.6031 78.9892 36.3117C78.9976 34.3646 78.9784 32.4163 78.9988 30.4692Z" fill="#007ADA"/>
<path d="M33.0323 30.5574C33.0083 30.2623 33.3107 30.0091 33.5999 30.0437C34.8779 30.0413 36.1559 30.0389 37.4351 30.0449C37.7723 30.0353 38.0267 30.3758 37.9811 30.6971C37.9715 32.6347 37.9955 34.5746 37.9703 36.511C37.9139 37.1046 36.9335 37.1656 36.7907 36.5922C36.7631 34.7681 36.7883 32.9429 36.7799 31.1176C35.9303 31.1176 35.0795 31.1176 34.2299 31.1176C34.2227 32.7255 34.3223 34.4014 33.7139 35.9256C33.5195 36.3497 33.2663 36.8622 32.7635 36.9685C32.3003 37.0891 31.8635 36.4895 32.1671 36.1024C32.4575 35.6557 32.7455 35.1934 32.8319 34.657C33.0851 33.3072 33.0107 31.9239 33.0323 30.5574Z" fill="#007ADA"/>
<path fill-rule="evenodd" clip-rule="evenodd" d="M8.15045 30.0271C7.41845 30.1382 6.77885 30.6399 6.48365 31.3136C6.15484 31.952 6.16654 32.6633 6.1781 33.3661C6.18186 33.5944 6.1856 33.8218 6.17765 34.0455C6.14885 34.859 6.38285 35.7191 6.96845 36.3104C7.53245 36.8551 8.36885 36.9722 9.12125 36.9339C9.81245 36.8838 10.5229 36.7476 11.1121 36.3665C11.4589 36.0703 11.1577 35.3607 10.6849 35.4885C9.89405 35.8278 8.95805 36.0834 8.12525 35.7442C7.41485 35.4085 7.34285 34.5234 7.37765 33.8353C7.87484 33.8343 8.37182 33.835 8.86876 33.8357C9.55203 33.8366 10.2352 33.8376 10.9189 33.8341C11.1769 33.8532 11.4937 33.7218 11.5093 33.4292C11.5729 32.4293 11.4697 31.2873 10.7005 30.5539C10.0177 29.9351 9.01685 29.9124 8.15045 30.0271ZM9.9095 31.3254C9.41149 30.8584 8.59789 30.8464 8.01469 31.1522C7.43149 31.5094 7.35589 32.2608 7.37389 32.8795H10.3271C10.3283 32.342 10.2983 31.7411 9.9095 31.3254Z" fill="#007ADA"/>
<path fill-rule="evenodd" clip-rule="evenodd" d="M70.0492 30.099C69.3028 29.9138 68.4784 29.9078 67.7596 30.2005C66.8848 30.584 66.4192 31.5479 66.3664 32.4594C66.3565 32.7931 66.3578 33.1264 66.3591 33.4598C66.36 33.6945 66.3609 33.9291 66.358 34.164C66.3436 34.9775 66.6124 35.8352 67.234 36.3894C67.8388 36.8983 68.6824 36.9867 69.4432 36.9222C70.0732 36.8648 70.7164 36.7263 71.2588 36.3882C71.6728 36.1171 71.3224 35.3084 70.828 35.5019C70.0324 35.8459 69.076 36.0896 68.2492 35.7193C67.5796 35.3585 67.5268 34.5068 67.558 33.8355C68.0355 33.8345 68.5133 33.8351 68.9912 33.8357C69.7081 33.8365 70.4252 33.8374 71.1424 33.8331C71.3848 33.845 71.6596 33.7065 71.6812 33.4413C71.7328 32.8894 71.692 32.3268 71.5708 31.7857C71.3884 31.0212 70.8424 30.2985 70.0492 30.099ZM69.7876 31.1081C69.2104 30.856 68.4448 30.8751 67.9708 31.3255C67.576 31.7376 67.5436 32.342 67.5544 32.8796C67.8823 32.8796 68.2104 32.8797 68.5385 32.8798C69.1949 32.8801 69.8515 32.8803 70.5076 32.8796C70.522 32.2369 70.432 31.4354 69.7876 31.1081Z" fill="#007ADA"/>
<path fill-rule="evenodd" clip-rule="evenodd" d="M30.1146 30.4488C29.469 29.9626 28.6146 29.9387 27.8406 29.9984C27.0954 30.0725 26.3694 30.4822 26.0214 31.1595C25.6186 31.8486 25.6334 32.6386 25.6481 33.4167C25.6528 33.6679 25.6575 33.9178 25.6482 34.1626C25.6242 35.0884 26.001 36.0894 26.8254 36.5839C27.5862 36.9984 28.5114 37.0152 29.3406 36.8216C30.0018 36.6628 30.5538 36.1718 30.8178 35.5518C31.1089 34.9411 31.0947 34.2731 31.0806 33.6098C31.0752 33.3546 31.0697 33.1001 31.0818 32.8498C31.1358 31.9646 30.8418 31.0042 30.1146 30.4488ZM29.6215 31.6578C29.2627 31.0976 28.4935 30.9996 27.8911 31.1394C27.4579 31.2278 27.0967 31.5658 26.9719 31.9875C26.8321 32.4851 26.8404 33.0021 26.8486 33.5166C26.8515 33.7 26.8545 33.8831 26.8507 34.0648C26.8567 34.6489 26.9827 35.3525 27.5539 35.6512C28.2451 35.9844 29.2831 35.9032 29.6767 35.1638C29.8981 34.7639 29.8893 34.3098 29.8806 33.863C29.8779 33.7239 29.8752 33.5855 29.8795 33.4496C29.8768 33.3277 29.8788 33.2035 29.8808 33.0785C29.8888 32.5873 29.897 32.0835 29.6215 31.6578Z" fill="#007ADA"/>
<path fill-rule="evenodd" clip-rule="evenodd" d="M94.1946 30.0402C93.621 30.0318 93.0126 30.0354 92.4978 30.3221C92.0058 30.5849 91.683 31.1081 91.6386 31.6588C91.5834 32.2668 91.6134 32.9548 92.0262 33.4446C92.2326 33.7122 92.5434 33.8591 92.8422 34.0001C92.4426 34.6164 92.0742 35.2507 91.7262 35.897C91.605 36.1216 91.5066 36.3808 91.5798 36.6388C91.767 37.0306 92.4342 37.1059 92.6502 36.7021C92.7968 36.4328 92.9386 36.1608 93.0804 35.8889C93.3957 35.284 93.711 34.6792 94.0794 34.104H95.0706C95.078 34.413 95.0739 34.7228 95.0698 35.0325C95.0634 35.5214 95.0569 36.0104 95.0958 36.4966C95.1534 36.9243 95.6454 37.0091 96.0006 36.947V30.0796C95.6006 30.0334 95.1984 30.0371 94.7966 30.0408C94.5957 30.0427 94.395 30.0445 94.1946 30.0402ZM93.4997 31.113C93.1289 31.1739 92.8037 31.5072 92.8205 31.8919C92.7761 32.2944 92.8205 32.7854 93.2261 32.9956C93.6126 33.1823 94.0409 33.1656 94.4667 33.1489C94.6701 33.141 94.873 33.133 95.0705 33.1473V31.0593C94.9259 31.0613 94.781 31.0593 94.6361 31.0574C94.2552 31.0523 93.8743 31.0473 93.4997 31.113Z" fill="#007ADA"/>
<path fill-rule="evenodd" clip-rule="evenodd" d="M43.4555 30.1214C43.4845 30.0638 43.5111 29.9968 43.5386 29.9275C43.6499 29.6471 43.7758 29.3298 44.1347 29.4572C44.5114 29.6105 44.338 29.9605 44.1945 30.25C44.1602 30.3193 44.1276 30.3851 44.1047 30.4439C44.5331 30.7915 44.8559 31.2669 44.9783 31.8069C45.1073 32.3679 45.0989 32.9426 45.0905 33.5157C45.0872 33.737 45.084 33.9581 45.0887 34.178C45.0911 35.1121 44.7227 36.1359 43.8635 36.6101C43.0703 37.0186 42.1187 37.0151 41.2739 36.7773C41.2462 36.8349 41.2206 36.8939 41.1949 36.9532C41.1203 37.1253 41.0451 37.2987 40.9175 37.4391C40.7315 37.4749 40.4711 37.4534 40.4003 37.2408C40.3405 37.0402 40.4345 36.8571 40.5265 36.6778C40.5638 36.6052 40.6008 36.5331 40.6271 36.4608C40.2179 36.1287 39.8987 35.6855 39.7643 35.1743C39.6109 34.5922 39.6202 33.9907 39.6294 33.3915C39.6329 33.1656 39.6363 32.94 39.6311 32.7159C39.6323 31.8331 39.9575 30.8823 40.7255 30.3782C41.5319 29.8729 42.5615 29.8992 43.4555 30.1214ZM41.3085 31.4284C41.7681 31.0246 42.4329 31.0425 42.9981 31.1584L42.7921 31.6212C42.2585 32.8205 41.7247 34.0202 41.1825 35.2151C40.8275 34.7571 40.8427 34.1932 40.8576 33.6399C40.8626 33.4543 40.8675 33.27 40.8585 33.0912C40.8429 32.5166 40.8549 31.8513 41.3085 31.4284ZM43.7217 31.9769C43.6827 31.8704 43.6415 31.7577 43.5097 31.7869C42.9097 33.1021 42.3229 34.4233 41.7373 35.7444C42.3037 35.8914 42.9829 35.8842 43.4377 35.4709C43.8781 35.0396 43.8937 34.3779 43.8913 33.8033C43.8852 33.6418 43.888 33.4785 43.8908 33.3147C43.8978 32.897 43.905 32.4769 43.7653 32.0796C43.7486 32.0503 43.7353 32.014 43.7217 31.9769Z" fill="#007ADA"/>
<path fill-rule="evenodd" clip-rule="evenodd" d="M86.9746 29.9878C86.3506 30.0355 85.6714 30.1359 85.1818 30.5528C84.835 30.9291 85.3066 31.5968 85.7818 31.3495C86.4874 30.9959 87.373 30.8 88.1122 31.1656C88.5856 31.4897 88.6026 32.102 88.6175 32.6391C88.6197 32.7215 88.622 32.8022 88.6258 32.8797C88.3622 32.8906 88.0931 32.8862 87.8227 32.8818C87.022 32.8688 86.2093 32.8556 85.4926 33.2369C84.5638 33.7219 84.3814 34.9785 84.7894 35.8625C85.051 36.4383 85.6498 36.7942 86.2642 36.8803C87.145 37.0236 88.153 36.9448 88.837 36.314C89.065 36.7178 89.5186 37.026 89.9986 36.9268C90.3538 36.9053 90.5338 36.4741 90.373 36.1838C90.3157 36.119 90.247 36.0602 90.1781 36.0011C90.0034 35.8514 89.8272 35.7004 89.8306 35.4468C89.8136 34.9179 89.8168 34.3884 89.82 33.8587C89.8229 33.381 89.8258 32.9033 89.8138 32.4258C89.7778 31.7378 89.6602 30.9756 89.131 30.4811C88.5358 29.9878 87.7102 29.9603 86.9746 29.9878ZM87.8422 33.8343C87.3661 33.8186 86.8898 33.8028 86.4345 33.9402C85.6017 34.1851 85.5633 35.5541 86.3613 35.8646C86.9865 36.0964 87.8205 36.0964 88.3005 35.5696C88.6373 35.1768 88.629 34.6583 88.621 34.164C88.6192 34.0526 88.6175 33.9424 88.6197 33.8351C88.3629 33.8516 88.1026 33.843 87.8422 33.8343Z" fill="#007ADA"/>
<path d="M1.028 46.6384C1.0316 46.151 1.7036 45.893 2.0516 46.2215C2.204 46.3314 2.2628 46.5154 2.2496 46.6981C2.252 47.9524 2.246 49.2067 2.2508 50.4609C3.2672 49.3417 4.2812 48.22 5.3036 47.1067C5.3324 46.8319 5.2352 46.501 5.4488 46.28C5.7476 45.9062 6.494 46.0686 6.5036 46.5823C6.518 48.5437 6.5072 50.5063 6.5084 52.469C6.5444 52.8548 6.1232 53.157 5.7608 53.0507C5.4848 53.0017 5.2868 52.7222 5.3096 52.4487C5.3096 51.1896 5.3084 49.9306 5.312 48.6715C4.2932 49.7789 3.29 50.9017 2.2616 51.9995C2.2388 52.3328 2.3264 52.7664 1.9892 52.9754C1.5836 53.2502 0.982403 52.9169 1.022 52.4283C1.022 50.498 1.0088 48.5676 1.028 46.6384Z" fill="#007ADA"/>
<path d="M8.56644 46.2813C8.85684 45.893 9.57084 46.071 9.61764 46.5632C9.64884 47.3265 9.62004 48.0922 9.62964 48.8567C10.5092 48.8567 11.39 48.8567 12.2696 48.8567C12.2768 48.1352 12.2564 47.4137 12.2768 46.6922C12.272 46.3828 12.5168 46.0746 12.842 46.0746C13.1984 46.0185 13.5344 46.3505 13.4984 46.7041C13.5008 48.6178 13.502 50.5326 13.4972 52.4463C13.5332 52.9038 12.95 53.2024 12.5792 52.9552C12.3392 52.8464 12.2684 52.5693 12.272 52.3304C12.2648 51.5205 12.2732 50.7118 12.2696 49.9019C11.39 49.9019 10.5092 49.9019 9.62964 49.9019C9.62004 50.7823 9.64764 51.6639 9.61884 52.5442C9.57924 53.022 8.90004 53.2108 8.59164 52.8596C8.39964 52.7067 8.40924 52.4427 8.39964 52.2241C8.39844 50.4598 8.40084 48.6966 8.39844 46.9323C8.40804 46.7089 8.38884 46.4485 8.56644 46.2813Z" fill="#007ADA"/>
<path d="M15.5281 46.2798C15.8389 45.8964 16.5889 46.0827 16.6093 46.6012C16.6357 47.8793 16.6117 49.1587 16.6201 50.438C17.6305 49.3307 18.6397 48.2233 19.6441 47.1124C19.6501 46.7732 19.5925 46.3121 19.9741 46.1472C20.3665 45.9167 20.9293 46.2344 20.8777 46.7015C20.8825 48.6128 20.8825 50.524 20.8777 52.4353C20.9065 52.8498 20.4601 53.1866 20.0689 53.0397C19.7653 52.968 19.6333 52.6312 19.6501 52.3493C19.6477 51.1285 19.6537 49.9076 19.6489 48.688C18.6433 49.8001 17.6197 50.8979 16.6213 52.0172C16.6165 52.3194 16.6705 52.6778 16.4257 52.9107C16.0969 53.2332 15.4237 53.0421 15.3997 52.5571C15.3757 50.6877 15.3997 48.817 15.3877 46.9476C15.3973 46.7218 15.3481 46.4554 15.5281 46.2798Z" fill="#007ADA"/>
<path d="M22.7727 46.6967C22.7223 46.2583 23.2383 45.9454 23.6223 46.121C23.8659 46.1938 23.9955 46.4543 23.9715 46.6955C23.9691 48.4217 23.9703 50.1466 23.9703 51.8727C24.9207 51.8727 25.8699 51.8727 26.8203 51.8727C26.8215 50.1561 26.8167 48.4396 26.8215 46.7242C26.7939 46.4041 27.0387 46.0816 27.3735 46.0768C27.7203 46.0362 28.0707 46.3491 28.0203 46.7051C28.0215 48.4276 28.0203 50.1502 28.0203 51.8727C28.4127 51.9025 29.0295 51.7174 29.1795 52.2263C29.2059 53.0194 29.1867 53.815 29.1879 54.6094C29.2167 54.9259 28.8711 55.1875 28.5687 55.1266C28.3155 55.1039 28.0959 54.859 28.1139 54.6046C28.1007 54.0515 28.1151 53.4996 28.1103 52.9478C26.5347 52.9454 24.9591 52.9525 23.3835 52.9454C23.0451 52.9693 22.7175 52.6671 22.7703 52.3218C22.7715 50.4476 22.7667 48.5722 22.7727 46.6967Z" fill="#007ADA"/>
<path d="M30.3063 46.5774C30.3351 46.1104 30.9938 45.9204 31.3226 46.2191C31.5038 46.3612 31.5303 46.6085 31.5315 46.8235C31.5303 48.0252 31.5279 49.2269 31.5315 50.4286C32.4999 49.3846 33.4466 48.3215 34.4102 47.2739C34.7282 46.9991 34.3922 46.4508 34.7798 46.2083C35.1602 45.887 35.8298 46.1749 35.783 46.6933C35.8022 48.4887 35.7818 50.2865 35.7926 52.0819C35.7842 52.3745 35.8262 52.7401 35.5514 52.9324C35.2238 53.237 34.5914 53.0088 34.571 52.5537C34.541 51.2648 34.5734 49.9759 34.5566 48.687C33.5498 49.7967 32.5286 50.8933 31.5326 52.0138C31.5158 52.2933 31.5807 52.6218 31.3803 52.8536C31.1475 53.139 30.6567 53.1426 30.4275 52.8524C30.2511 52.678 30.3123 52.4187 30.2979 52.1989C30.3087 50.3247 30.2883 48.4505 30.3063 46.5774Z" fill="#007ADA"/>
<path d="M43.733 46.2765C43.9358 46.0662 44.2562 46.12 44.5202 46.1068C45.8366 46.12 47.1554 46.0913 48.4718 46.12C49.0418 46.0865 49.2026 46.9705 48.665 47.1473C48.0794 47.2321 47.4806 47.1616 46.8902 47.1843C46.8854 48.9725 46.8974 50.7596 46.8854 52.5478C46.8758 53.1689 45.8222 53.2765 45.701 52.6517C45.6746 50.83 45.6986 49.006 45.6902 47.1843C45.1442 47.1748 44.5982 47.2022 44.0534 47.1736C43.6046 47.1843 43.4222 46.5524 43.733 46.2765Z" fill="#007ADA"/>
<path d="M49.9835 46.7232C49.9679 46.4078 50.2151 46.1104 50.5331 46.0805C50.8391 46.0303 51.2063 46.2537 51.2063 46.5858C51.2171 47.8771 51.2039 49.1684 51.2123 50.4597C52.2335 49.3452 53.2451 48.2211 54.2651 47.1054C54.2855 46.8259 54.2027 46.4986 54.4151 46.2728C54.7199 45.9037 55.4627 46.0781 55.4675 46.5918C55.4675 48.5891 55.4795 50.5875 55.4615 52.5848C55.4051 53.1868 54.4079 53.2346 54.2903 52.6373C54.2387 51.3234 54.2879 50.0034 54.2675 48.6882C53.2415 49.7967 52.2227 50.9124 51.2123 52.0353C51.1811 52.3065 51.2915 52.6445 51.0767 52.8619C50.8415 53.151 50.3519 53.1307 50.1263 52.844C49.9643 52.6696 49.9907 52.4152 49.9775 52.1978C49.9847 50.3725 49.9727 48.5472 49.9835 46.7232Z" fill="#007ADA"/>
<path fill-rule="evenodd" clip-rule="evenodd" d="M41.492 46.3865C40.7516 45.9995 39.8732 46.0413 39.0668 46.1308C38.6084 46.2181 38.1044 46.3363 37.772 46.6827C37.4648 47.0554 37.9424 47.6611 38.3792 47.4472C39.0656 47.102 39.9032 46.9049 40.6412 47.2071C41.2345 47.5046 41.2275 48.24 41.2219 48.8305C41.2214 48.8802 41.2209 48.9289 41.2208 48.9762C40.9587 48.9857 40.6942 48.9811 40.4295 48.9765C39.7914 48.9653 39.1513 48.9542 38.5364 49.1399C37.8644 49.3286 37.304 49.9223 37.238 50.6259C37.2032 51.1336 37.2032 51.6867 37.5068 52.1239C37.8812 52.7522 38.654 53.009 39.356 53.0126C40.0952 53.0556 40.9112 52.9385 41.4536 52.3878C41.63 52.6757 41.8844 52.9684 42.2444 53.0066C42.584 53.0831 43.076 52.9636 43.0496 52.5324C43.0723 52.3058 42.9161 52.178 42.7589 52.0493C42.6078 51.9256 42.4557 51.8012 42.4604 51.5875C42.4414 51.1096 42.4454 50.6308 42.4494 50.1522C42.4552 49.4549 42.4611 48.7578 42.3956 48.0636C42.3224 47.4269 42.0944 46.7114 41.492 46.3865ZM40.516 49.9017C40.006 49.8884 39.4941 49.8749 39.0115 50.0465C38.1619 50.3392 38.2243 51.7989 39.1111 52.0032C39.7471 52.1716 40.5799 52.1489 40.9951 51.56C41.246 51.1986 41.233 50.765 41.2203 50.34C41.2158 50.1918 41.2114 50.0447 41.2183 49.902C40.9866 49.9141 40.7515 49.9079 40.516 49.9017Z" fill="#007ADA"/>
<path fill-rule="evenodd" clip-rule="evenodd" d="M67.5034 46.2907C66.6742 45.9825 65.7418 46.0255 64.8898 46.2143C64.8404 46.2319 64.7884 46.2491 64.7351 46.2668C64.3809 46.3842 63.9704 46.5203 63.889 46.919C63.8506 47.3025 64.2958 47.6298 64.6426 47.4279C65.3554 47.0683 66.2686 46.8796 67.0006 47.2881C67.4376 47.6484 67.4394 48.2582 67.441 48.7916C67.4411 48.8543 67.4413 48.916 67.4422 48.976C67.1708 48.9879 66.8934 48.9822 66.6147 48.9765C65.8273 48.9603 65.0289 48.944 64.3234 49.3224C63.331 49.8612 63.1714 51.2767 63.7486 52.169C64.1578 52.8033 64.9594 53.0243 65.677 53.016C66.385 53.0494 67.1518 52.9085 67.669 52.39C67.9294 52.9742 68.7634 53.2585 69.2518 52.7806C69.2436 52.7224 69.2451 52.6593 69.2466 52.5956C69.2501 52.4462 69.2538 52.2934 69.1318 52.1929C69.1079 52.1723 69.0834 52.1516 69.0586 52.1307C68.8625 51.9657 68.6517 51.7883 68.6602 51.5073C68.6293 50.9503 68.6346 50.3922 68.64 49.8343C68.6454 49.2673 68.6509 48.7004 68.6182 48.1351C68.5534 47.404 68.2534 46.5678 67.5034 46.2907ZM66.7607 49.9015C66.2513 49.8901 65.7402 49.8787 65.2514 50.0323C64.4078 50.3059 64.4102 51.7166 65.2598 51.9806C65.897 52.1741 66.7418 52.1657 67.187 51.5936C67.4645 51.2207 67.4526 50.7608 67.441 50.3127C67.4374 50.1737 67.4338 50.0359 67.439 49.9021C67.2147 49.9117 66.9878 49.9066 66.7607 49.9015Z" fill="#007ADA"/>
<path fill-rule="evenodd" clip-rule="evenodd" d="M57.3587 46.8176C57.3179 46.4783 57.5783 46.1259 57.9347 46.1247C58.6691 46.0961 59.4059 46.0949 60.1403 46.1355C60.6851 46.1582 61.2563 46.3505 61.6055 46.7877C62.0171 47.2882 62.0483 47.9942 61.9247 48.6034C61.8539 48.9534 61.6055 49.2258 61.3151 49.4181C61.7111 49.6438 62.1095 49.9652 62.1875 50.4406C62.2883 51.1585 62.2643 52.0305 61.6415 52.5203C61.0725 52.9592 60.3311 52.9539 59.6382 52.949C59.558 52.9484 59.4785 52.9478 59.3999 52.9479C59.1994 52.9442 58.9985 52.9464 58.7976 52.9485H58.7975C58.4899 52.9519 58.1822 52.9553 57.8759 52.9372C57.5735 52.9109 57.3479 52.6254 57.3623 52.3316C57.3584 51.3358 57.3591 50.3403 57.3598 49.3449C57.3603 48.5025 57.3609 47.6602 57.3587 46.8176ZM59.1204 47.1532H59.1204C59.4532 47.1478 59.7861 47.1425 60.1164 47.1807C60.9804 47.2739 61.0416 48.7611 60.21 48.951C59.8004 49.0432 59.3805 49.0397 58.9622 49.0361H58.9622H58.9622C58.8279 49.0349 58.6937 49.0338 58.5601 49.0358V47.1544C58.7465 47.1592 58.9335 47.1562 59.1204 47.1532ZM59.2125 49.9908C58.9943 49.9966 58.7762 50.0024 58.5601 49.9917V51.9328C58.7637 51.9273 58.9681 51.9302 59.1726 51.9331C59.5912 51.939 60.0105 51.9449 60.4248 51.8791C61.2804 51.7429 61.2828 50.2605 60.4536 50.0729C60.0484 49.9686 59.6303 49.9797 59.2125 49.9908Z" fill="#007ADA"/>
<path d="M0.988281 64.2865C1.02908 64.2447 1.11068 64.1599 1.15028 64.1169C2.09228 64.1169 3.03428 64.1157 3.97508 64.1157C4.14788 64.0942 4.30148 64.1659 4.44668 64.2471C4.43468 65.8119 4.43468 67.378 4.44668 68.944C4.25108 69.1089 3.82868 69.1578 3.81908 68.8114C3.79508 67.4461 3.81668 66.0795 3.80948 64.7141C3.07988 64.7141 2.34908 64.7141 1.61948 64.7141C1.61108 66.0819 1.63508 67.4496 1.60868 68.8162C1.63388 69.1758 0.952281 69.1722 0.991881 68.809C0.984681 67.3015 0.993081 65.794 0.988281 64.2865Z" fill="#007ADA"/>
<path d="M13.1331 65.6483C13.5663 65.5169 14.0643 65.5336 14.4735 65.7367C14.7375 65.8084 14.6835 66.2396 14.4111 66.2575C14.0427 66.1584 13.6071 65.9684 13.2615 66.2336C12.8283 66.5609 12.9387 67.163 12.9291 67.636C12.9051 68.0243 13.1223 68.4865 13.5543 68.5236C13.9203 68.6287 14.2695 68.2536 14.6187 68.4328C14.6403 68.5917 14.6919 68.827 14.4831 68.8843C13.9191 69.1459 13.1499 69.1746 12.6783 68.7171C12.2391 68.2285 12.2823 67.5249 12.3075 66.9157C12.3339 66.3961 12.6147 65.8299 13.1331 65.6483Z" fill="#007ADA"/>
<path d="M14.8418 66.0795C14.885 65.9242 14.7866 65.6543 15.0158 65.622C15.7682 65.5957 16.5218 65.6113 17.2742 65.6137C17.5634 65.5587 17.6738 65.9445 17.4602 66.1094C17.1566 66.1811 16.8386 66.1381 16.5302 66.1476C16.5206 67.0232 16.547 67.8988 16.5206 68.7744C16.5614 69.1232 15.977 69.2212 15.9098 68.8843C15.8834 67.9729 15.9086 67.0602 15.9002 66.1488C15.5462 66.1488 15.1874 66.1703 14.8418 66.0795Z" fill="#007ADA"/>
<path d="M24.9723 65.8227C24.9819 65.5013 25.5543 65.4798 25.5747 65.8095C25.6143 66.1882 25.5819 66.5716 25.5891 66.9539C26.0295 66.9527 26.4699 66.9539 26.9103 66.9539C26.9103 66.537 26.9127 66.1213 26.9067 65.7056C27.0819 65.5479 27.4851 65.5049 27.5007 65.8155C27.5199 66.8117 27.5127 67.8092 27.5043 68.8066C27.5343 69.1124 27.0267 69.1757 26.9271 68.9093C26.8863 68.4482 26.9187 67.9836 26.9115 67.5213C26.4699 67.5213 26.0295 67.5213 25.5903 67.5213C25.5795 67.9848 25.6191 68.4518 25.5663 68.9141C25.4331 69.1853 24.9699 69.0945 24.9663 68.7923C24.9591 67.8032 24.9471 66.8117 24.9723 65.8227Z" fill="#007ADA"/>
<path d="M28.3405 66.8738C28.3693 66.2359 28.8481 65.561 29.5417 65.5753C29.9617 65.5622 30.563 65.5658 30.7322 66.0388C30.6674 66.0997 30.5402 66.2204 30.4766 66.2813C30.1118 66.1618 29.6822 65.9659 29.3257 66.2156C28.9033 66.5023 28.9405 67.0685 28.9489 67.5152C28.9477 67.8652 29.0245 68.2917 29.3737 68.4637C29.7445 68.6357 30.1418 68.4518 30.497 68.3311C30.6266 68.4613 30.7934 68.6548 30.6026 68.8185C30.1022 69.141 29.3905 69.1625 28.8781 68.8543C28.2673 68.4004 28.2901 67.5523 28.3405 66.8738Z" fill="#007ADA"/>
<path d="M30.9924 65.627C31.7772 65.5899 32.5644 65.6126 33.3504 65.615C33.6552 65.5768 33.6924 66.0486 33.426 66.1263C33.1356 66.1681 32.8416 66.143 32.55 66.1478C32.544 67.0341 32.5608 67.9205 32.544 68.808C32.5668 69.1759 31.8972 69.1867 31.926 68.8056C31.9092 67.9205 31.926 67.0341 31.92 66.1478C31.6164 66.1323 31.2996 66.192 31.0068 66.1072C30.8052 66.0092 30.8412 65.7524 30.9924 65.627Z" fill="#007ADA"/>
<path d="M49.1986 65.9886C49.5982 65.5706 50.2546 65.4571 50.7802 65.6888C51.3502 65.991 51.415 66.8834 50.8774 67.2525C51.529 67.6407 51.4258 68.7433 50.7082 68.9965C50.2246 69.1398 49.6114 69.1327 49.2286 68.7636C49.063 68.6178 49.1374 68.3574 49.3414 68.2881C49.651 68.3885 49.9258 68.662 50.2774 68.576C50.7166 68.5533 50.9062 67.9393 50.587 67.6574C50.3302 67.452 49.969 67.5702 49.675 67.4711C49.6126 67.3337 49.615 67.1951 49.6822 67.0566C49.975 67.0339 50.3002 67.0852 50.5546 66.9025C50.8294 66.6886 50.7238 66.1511 50.365 66.0902C50.0254 65.9922 49.7338 66.2467 49.4398 66.3685C49.249 66.3243 49.2286 66.1451 49.1986 65.9886Z" fill="#007ADA"/>
<path d="M52.0892 65.818C52.0808 65.5517 52.544 65.4788 52.6208 65.7452C52.9652 66.4261 53.2892 67.1189 53.6156 67.8093C53.9672 67.0663 54.3284 66.3281 54.6836 65.5875C54.8432 65.5875 54.9992 65.615 55.142 65.6926C55.1276 66.7665 55.1588 67.8416 55.1288 68.9155C55.0472 69.2213 54.5516 69.1042 54.5792 68.808C54.5516 68.2 54.5792 67.5919 54.5684 66.9839C54.2936 67.5203 54.0944 68.0996 53.7692 68.6097C53.6828 68.6133 53.5088 68.6192 53.4212 68.6228C53.174 68.0626 52.904 67.5119 52.6472 66.9552C52.6412 67.611 52.6688 68.2692 52.6376 68.9262C52.544 69.1998 52.0472 69.115 52.0868 68.8163C52.076 67.8177 52.0712 66.8167 52.0892 65.818Z" fill="#007ADA"/>
<path d="M59.1865 66.0318C58.9489 65.7655 59.4517 65.3975 59.6533 65.6711C60.0313 66.0963 60.3037 66.6076 60.6937 67.0221C60.7753 67.0329 60.9373 67.0556 61.0177 67.0663C61.0309 66.6255 60.9961 66.1847 61.0357 65.7463C61.1437 65.5325 61.4989 65.5325 61.6057 65.7487C61.6429 66.1859 61.6093 66.6267 61.6225 67.0663C61.7065 67.0544 61.8733 67.0329 61.9561 67.0221C62.3641 66.5933 62.6269 66.0462 63.0409 65.6233C63.2593 65.4382 63.6421 65.775 63.4669 66.0056C63.1765 66.4655 62.8165 66.8776 62.4997 67.3184C62.8345 67.7687 63.2101 68.1951 63.4837 68.6873C63.6349 68.9525 63.2269 69.2368 63.0157 69.0325C62.6413 68.5762 62.3341 68.0697 61.9597 67.6134C61.8457 67.611 61.7329 67.6098 61.6201 67.6098C61.6141 68.0399 61.6369 68.4699 61.6105 68.8999C61.5397 69.1556 61.0765 69.1639 61.0309 68.8928C60.9997 68.4663 61.0261 68.0387 61.0213 67.6122C60.9373 67.6122 60.7693 67.6098 60.6853 67.6098C60.3301 68.0494 60.0169 68.5201 59.6857 68.9764C59.5141 69.2607 58.9993 69.0062 59.1505 68.6969C59.4289 68.2035 59.8009 67.7699 60.1405 67.3184C59.8273 66.8859 59.4769 66.4786 59.1865 66.0318Z" fill="#007ADA"/>
<path d="M64.0622 65.8168C64.091 65.4847 64.661 65.4906 64.6694 65.8239C64.6958 66.2002 64.6754 66.5765 64.679 66.9539C65.1194 66.9528 65.5598 66.9528 66.0014 66.9539C66.0074 66.5466 65.9762 66.1381 66.0182 65.7331C66.1322 65.4859 66.5942 65.5336 66.593 65.8263C66.6062 66.8214 66.6038 67.8176 66.5942 68.8126C66.6098 69.1125 66.1262 69.171 66.0158 68.9118C65.9774 68.4495 66.0086 67.9848 66.0002 67.5214C65.5598 67.5214 65.1194 67.5214 64.6802 67.5214C64.6682 67.9801 64.7102 68.4435 64.6574 68.901C64.5506 69.1853 64.0586 69.0958 64.0586 68.7983C64.0466 67.8057 64.0382 66.8094 64.0622 65.8168Z" fill="#007ADA"/>
<path d="M70.9823 65.9277C70.9547 65.7581 71.0891 65.5813 71.2703 65.6136C71.8691 65.61 72.4691 65.5945 73.0679 65.6219C73.3283 65.6219 73.3451 66.1153 73.0775 66.1356C72.5795 66.1678 72.0791 66.138 71.5799 66.1475C71.5715 67.0649 71.5967 67.9835 71.5703 68.9009C71.4623 69.1805 70.9595 69.1243 70.9847 68.8006C70.9727 67.8426 70.9787 66.8846 70.9823 65.9277Z" fill="#007ADA"/>
<path fill-rule="evenodd" clip-rule="evenodd" d="M6.05306 65.8023C5.83346 65.6135 5.56106 65.5538 5.27666 65.5825C5.27006 65.6267 5.25986 65.6933 5.24966 65.7599C5.23946 65.8265 5.22926 65.8931 5.22266 65.9373C5.3173 66.016 5.41313 66.097 5.50897 66.1781L5.50946 66.1785C5.56501 66.9845 5.55782 67.7929 5.55064 68.6013C5.5465 69.0677 5.54235 69.534 5.55026 69.9999H6.15026C6.15146 69.6176 6.15146 69.2354 6.14306 68.8543C6.62905 69.0932 7.24825 69.1804 7.71145 68.8448C8.17429 68.4658 8.16996 67.8143 8.16635 67.27L8.16625 67.256C8.16618 67.2254 8.16622 67.1943 8.16626 67.1629C8.16691 66.6955 8.16766 66.1581 7.77745 65.8357C7.29385 65.432 6.57865 65.5287 6.05306 65.8023ZM7.28341 66.2168C6.91861 65.9994 6.48421 66.1368 6.15421 66.3506C6.14925 66.7247 6.14973 67.0988 6.15022 67.4729C6.15055 67.7319 6.15089 67.9909 6.14941 68.2499C6.46141 68.4816 6.91261 68.6489 7.26421 68.3956C7.54246 68.181 7.53738 67.8258 7.53267 67.4963C7.53142 67.4094 7.53021 67.3243 7.53421 67.2441C7.53175 67.1796 7.53242 67.1119 7.53309 67.0429C7.53605 66.7415 7.53925 66.4151 7.28341 66.2168Z" fill="#007ADA"/>
<path fill-rule="evenodd" clip-rule="evenodd" d="M11.2697 65.9457C10.8689 65.5037 10.1849 65.5037 9.64848 65.6494C9.13488 65.8262 8.86728 66.3841 8.86128 66.8989C8.86002 66.9379 8.8586 66.9774 8.85716 67.0173C8.83545 67.6207 8.81062 68.3107 9.27888 68.76C9.72528 69.1303 10.3841 69.1411 10.9097 68.944C11.4197 68.729 11.6153 68.1389 11.6105 67.6264C11.6108 67.5628 11.6118 67.4982 11.6128 67.4329C11.621 66.9151 11.6299 66.3541 11.2697 65.9457ZM10.7729 66.3231C10.5317 66.101 10.1633 66.1057 9.86926 66.2025C9.57046 66.3435 9.48526 66.697 9.48166 66.9981C9.48219 67.0791 9.4802 67.1611 9.4782 67.2435C9.47104 67.5392 9.46375 67.8402 9.57166 68.1186C9.77566 68.5617 10.4369 68.6179 10.7765 68.3061C10.9827 68.1038 10.9825 67.8117 10.9823 67.5377C10.9822 67.4802 10.9822 67.4234 10.9841 67.3684C10.982 67.3018 10.9828 67.2331 10.9835 67.1638C10.9867 66.8649 10.99 66.5519 10.7729 66.3231Z" fill="#007ADA"/>
<path fill-rule="evenodd" clip-rule="evenodd" d="M18.6456 65.8001C18.4236 65.6293 18.156 65.56 17.8788 65.5576L17.8164 65.9064C17.8474 65.9484 17.8852 65.9885 17.9233 66.0289C18.0241 66.1356 18.1274 66.245 18.1152 66.401C18.1244 67.1049 18.1224 67.8093 18.1204 68.5136C18.1189 69.0092 18.1175 69.5047 18.12 70.0001H18.7512C18.7512 69.619 18.7512 69.238 18.7416 68.8581C19.2204 69.0911 19.836 69.1818 20.2896 68.8438C20.7558 68.4744 20.7612 67.8315 20.7657 67.288C20.7658 67.2762 20.7659 67.2644 20.766 67.2527C20.7657 67.228 20.7655 67.203 20.7652 67.1779C20.7605 66.7081 20.7551 66.1682 20.3724 65.8371C19.8864 65.4406 19.1688 65.5194 18.6456 65.8001ZM19.873 66.2191C19.5118 66.0113 19.0726 66.1236 18.7498 66.3481C18.7541 66.5947 18.7517 66.8415 18.7494 67.0883C18.7458 67.4619 18.7423 67.8354 18.7618 68.208C18.9802 68.5449 19.5346 68.6202 19.8598 68.392C20.1351 68.1606 20.1335 67.7931 20.132 67.4561C20.1316 67.3877 20.1314 67.3205 20.1334 67.256C20.1308 67.1926 20.131 67.1261 20.1312 67.0582C20.1323 66.751 20.1334 66.4158 19.873 66.2191Z" fill="#007ADA"/>
<path fill-rule="evenodd" clip-rule="evenodd" d="M39.6709 66.0007C39.3325 65.5516 38.7001 65.5158 38.1889 65.603C37.5913 65.6937 37.2061 66.2994 37.2301 66.8751C37.2361 67.0144 37.2321 67.1589 37.2279 67.3048C37.215 67.7662 37.2016 68.2423 37.5061 68.6144C37.8817 69.1077 38.5933 69.1436 39.1477 68.9895C39.6757 68.8306 39.9589 68.2644 39.9589 67.7448C39.957 67.6332 39.9595 67.5187 39.962 67.403C39.9725 66.913 39.9834 66.4018 39.6709 66.0007ZM39.3122 66.6824C39.2474 66.1724 38.6066 66.0195 38.201 66.2214C37.9022 66.3563 37.853 66.7171 37.8374 67.0062C37.8218 67.3621 37.8074 67.7324 37.9154 68.0777C38.129 68.6976 39.2234 68.6224 39.3122 67.9546C39.3446 67.5318 39.3458 67.1041 39.3122 66.6824Z" fill="#007ADA"/>
<path fill-rule="evenodd" clip-rule="evenodd" d="M48.3742 66.0376C47.9854 65.4965 47.197 65.4821 46.6198 65.6744C46.1398 65.8715 45.8974 66.4043 45.901 66.8988C45.9024 67.0056 45.9 67.1147 45.8975 67.2248C45.8872 67.6926 45.8764 68.1783 46.1542 68.5748C46.5082 69.0884 47.2354 69.1458 47.7946 68.9976C48.3394 68.8543 48.6514 68.2773 48.631 67.7434C48.6252 67.6062 48.6288 67.4647 48.6325 67.322C48.644 66.8719 48.6557 66.4103 48.3742 66.0376ZM47.9894 66.6781C47.9294 66.2062 47.363 66.0426 46.967 66.1859C46.6682 66.2791 46.5218 66.6052 46.5314 66.8991C46.5323 67.0001 46.5298 67.102 46.5273 67.2042C46.5202 67.4921 46.513 67.7822 46.583 68.0625C46.7678 68.6538 47.7578 68.6443 47.9594 68.0697C48.0746 67.6182 48.0506 67.1356 47.9894 66.6781Z" fill="#007ADA"/>
<path fill-rule="evenodd" clip-rule="evenodd" d="M58.3412 65.9184C57.9212 65.5015 57.242 65.4991 56.7092 65.6639C56.2088 65.8431 55.9724 66.3914 55.9592 66.8883C55.9577 66.9431 55.9558 66.9987 55.9539 67.0549C55.9339 67.6428 55.9115 68.2986 56.354 68.7435C56.8088 69.1353 57.5048 69.1508 58.0412 68.925C58.4924 68.7184 58.6904 68.2047 58.7024 67.7389C58.7037 67.6727 58.7057 67.6053 58.7078 67.5373C58.7251 66.9726 58.7439 66.3565 58.3412 65.9184ZM58.0496 66.6745C57.9668 66.1692 57.3308 66.0127 56.924 66.2289C56.5245 66.5071 56.5552 67.0129 56.5831 67.4727C56.5909 67.6013 56.5985 67.7262 56.5964 67.8416C56.5808 68.5929 57.7844 68.747 58.0208 68.0769C58.1192 67.6194 58.0976 67.1368 58.0496 66.6745Z" fill="#007ADA"/>
<path fill-rule="evenodd" clip-rule="evenodd" d="M69.8291 65.946C69.4235 65.5076 68.7395 65.5016 68.203 65.651C67.6906 65.8254 67.429 66.3844 67.4218 66.8945C67.4205 66.9334 67.419 66.9728 67.4175 67.0126C67.3947 67.6159 67.3686 68.305 67.8346 68.7555C68.2786 69.1318 68.9423 69.1402 69.4691 68.9443C69.9767 68.7269 70.1759 68.138 70.1699 67.6243C70.1701 67.5608 70.1712 67.4961 70.1722 67.4308C70.1804 66.9132 70.1892 66.3533 69.8291 65.946ZM69.3337 66.3231C69.0913 66.101 68.7229 66.1057 68.4277 66.2025C68.1325 66.3411 68.0461 66.6911 68.0425 66.9897C68.0425 67.0677 68.0403 67.1466 68.0381 67.2259C68.0298 67.5277 68.0213 67.8347 68.1325 68.1185C68.3353 68.5617 68.9977 68.619 69.3373 68.3049C69.5412 68.1029 69.5415 67.8123 69.5417 67.5406C69.5418 67.4844 69.5418 67.4291 69.5437 67.3755C69.5414 67.3064 69.5421 67.2351 69.5429 67.163C69.546 66.8642 69.5493 66.5522 69.3337 66.3231Z" fill="#007ADA"/>
<path fill-rule="evenodd" clip-rule="evenodd" d="M75.9985 65.8764C75.5797 65.5121 74.9557 65.5061 74.4481 65.6507C73.9321 65.8083 73.6705 66.3578 73.6561 66.8631C73.655 66.9414 73.6527 67.0213 73.6503 67.1024C73.6337 67.6633 73.6157 68.2745 74.0173 68.7087C74.4553 69.1292 75.1597 69.1495 75.7045 68.9428C76.2085 68.729 76.4005 68.1461 76.4053 67.6384C76.406 67.6061 76.4068 67.5734 76.4076 67.5406C76.4218 66.9636 76.4379 66.3104 75.9985 65.8764ZM75.7129 66.5516C75.5617 66.1382 75.0349 66.0606 74.6665 66.2039C74.3749 66.3437 74.2693 66.683 74.2801 66.984C74.2823 67.0806 74.2796 67.1787 74.2769 67.2772C74.2691 67.5675 74.2612 67.8617 74.3749 68.1319C74.6257 68.7005 75.6577 68.6014 75.7477 67.9599C75.7969 67.4952 75.8257 67.0091 75.7129 66.5516Z" fill="#007ADA"/>
<path fill-rule="evenodd" clip-rule="evenodd" d="M23.0503 65.5935C22.5727 65.5565 22.0327 65.547 21.6331 65.8516C21.4399 66.0272 21.6691 66.3843 21.9055 66.2732C22.2895 66.1263 22.7587 65.9591 23.1379 66.2087C23.3143 66.3583 23.3273 66.5968 23.3397 66.8218C23.3432 66.8861 23.3467 66.9493 23.3539 67.0091C23.2245 67.0153 23.0925 67.0147 22.9597 67.0141C22.5553 67.0123 22.1441 67.0105 21.7819 67.2002C21.1495 67.5454 21.1783 68.6229 21.8323 68.9299C22.3507 69.1581 22.9807 69.1079 23.4535 68.7949C23.6419 68.9884 23.9323 69.182 24.1999 69.0004C24.3507 68.8349 24.2394 68.7031 24.126 68.569C24.0635 68.4949 24.0003 68.4202 23.9803 68.3386C23.9568 68.0739 23.9631 67.8058 23.9695 67.5377C23.9803 67.081 23.9911 66.6244 23.8543 66.1848C23.7487 65.8348 23.4043 65.6198 23.0503 65.5935ZM22.9621 67.5199C22.5297 67.4984 22.0396 67.4739 21.9596 67.9612C21.8432 68.5692 22.688 68.7436 23.084 68.4629C23.345 68.2937 23.3444 67.9745 23.3438 67.6889C23.3437 67.6317 23.3436 67.5758 23.3456 67.5228C23.2341 67.5335 23.1011 67.5269 22.9621 67.5199Z" fill="#007ADA"/>
<path fill-rule="evenodd" clip-rule="evenodd" d="M34.0939 65.8146C34.1347 65.5998 34.3533 65.6047 34.5415 65.6088C34.5908 65.6099 34.6381 65.611 34.6795 65.608C34.8027 65.6138 34.9278 65.6109 35.0531 65.6079C35.3389 65.6012 35.626 65.5944 35.8963 65.6916C36.4963 65.9436 36.5587 66.8288 36.1207 67.2564C36.8347 67.6817 36.5767 69.0279 35.6815 69.0076C35.5014 68.9884 35.3101 69.0023 35.1179 69.0163C34.7479 69.0431 34.3748 69.0702 34.0723 68.8619C34.0865 68.3805 34.0834 67.8986 34.0804 67.4168C34.077 66.8823 34.0737 66.348 34.0939 65.8146ZM34.6807 66.1169C34.7603 66.119 34.8405 66.1174 34.9208 66.1159C35.115 66.112 35.3097 66.1082 35.4991 66.1563C35.8962 66.2447 35.8926 66.9185 35.4991 67.0128C35.309 67.0517 35.1147 67.0487 34.9208 67.0458H34.9208C34.8406 67.0446 34.7604 67.0433 34.6807 67.0451V66.1169ZM35.0374 67.5495C34.9148 67.5556 34.7936 67.5617 34.6807 67.551V68.5078C34.7709 68.5058 34.8616 68.507 34.9525 68.5082C35.1877 68.5112 35.4236 68.5142 35.6539 68.4624C35.9575 68.3908 35.9563 67.9882 35.8675 67.7553C35.6529 67.5188 35.341 67.5343 35.0374 67.5495Z" fill="#007ADA"/>
<path fill-rule="evenodd" clip-rule="evenodd" d="M42.7519 65.9361C42.7447 65.8083 42.8119 65.6148 42.9667 65.622C43.066 65.6198 43.1656 65.6164 43.2656 65.6129C43.6684 65.5989 44.0752 65.5848 44.4704 65.6566C45.1496 65.8298 45.2732 66.8213 44.7872 67.2561C45.4604 67.6252 45.3272 68.8496 44.5376 68.9798C44.0821 69.0364 43.6193 69.0222 43.1605 69.0082L43.1602 69.0082C43.0956 69.0063 43.0311 69.0043 42.9667 69.0025C42.8143 69.0073 42.7459 68.8174 42.7531 68.6931C42.7459 67.7745 42.7471 66.8547 42.7519 65.9361ZM43.6175 66.1154H43.6175C43.8372 66.113 44.0588 66.1106 44.2674 66.1859C44.5458 66.3579 44.5386 66.837 44.247 66.9934C44.0478 67.0508 43.8408 67.048 43.6348 67.0452H43.6348C43.5493 67.044 43.4639 67.0428 43.3794 67.046V66.1143C43.4581 66.1171 43.5377 66.1163 43.6175 66.1154ZM43.6519 67.5497C43.5609 67.5514 43.4699 67.5531 43.3794 67.5513V68.5081C43.4703 68.5058 43.5618 68.5072 43.6535 68.5085C43.9017 68.512 44.1508 68.5156 44.391 68.4484C44.697 68.2632 44.6634 67.6624 44.2806 67.5811C44.0736 67.5419 43.8626 67.5458 43.6519 67.5497Z" fill="#007ADA"/>
</g>
<defs>
<clipPath id="clip0">
<rect width="108" height="70" fill="white"/>
</clipPath>
</defs>
</svg>
