<svg viewBox="0 0 152 91" fill="none" xmlns="http://www.w3.org/2000/svg">
<path fill-rule="evenodd" clip-rule="evenodd" d="M152 86.6431L151.173 88.8268L152 90.5538H131.126V75.3711H152L151.219 77.4638L152 79.1839H140.413L140.46 80.7753L151.77 80.638L150.896 82.5934L151.724 84.5951L140.496 84.686V86.6414H152V86.6431ZM135.342 26.8445C146.67 30.9869 152 36.8238 152 45.7696C152 56.4133 143.635 64.5077 126.074 64.5077H95.5614L94.6096 40.2143C94.3246 32.5869 94.0379 23.3595 94.0379 14.1304H93.7529C91.7545 22.2282 89.0893 31.2685 86.6141 38.707L78.8085 63.4725H67.4811L60.6273 38.8959C58.5338 31.4573 56.3436 22.4153 54.8202 14.1304H54.6302C54.2485 22.6986 53.9635 32.4993 53.4885 40.3963L52.345 64.5077H0V1.03694H39.5995V12.8137H14.5644V25.9964H38.1727V37.6701H14.5644V52.7361H39.6824L43.0091 1.03694H62.3407L68.6228 22.223C70.6213 29.5672 72.6215 37.4778 74.0482 44.9164H74.3332C76.1416 37.5723 78.3318 29.1912 80.4253 22.1286L87.2808 1.03694H106.227L109.146 53.6374C110.131 53.6374 121.065 53.6751 126.968 53.6751C133.632 53.6751 137.159 50.9438 137.159 46.8082C137.159 42.8598 134.112 40.5937 126.402 37.8624C115.727 34.1886 108.784 28.35 108.784 19.1226C108.784 8.29354 117.923 0.0069094 133.057 0.0069094C138.682 -0.0980366 144.264 0.993596 149.43 3.2086L146.193 14.7913C142.007 12.788 137.418 11.7577 132.772 11.7785C126.49 11.7785 123.445 14.6042 123.445 17.8986C123.443 21.9466 127.06 23.7355 135.342 26.8427V26.8445ZM9.65545 90.7358H0V75.3711H9.65545V90.7358ZM40.0917 83.5049L40.0002 75.3711H46.3911V90.7358H40.5063L21.2455 82.238V90.7358H15.0273V75.3711H21.28L40.0917 83.5049ZM54.8046 85.4586C54.8046 85.4586 55.0395 87.1307 60.3215 87.6525C61.842 87.5578 63.3348 87.2042 64.7347 86.6071C64.7347 86.6071 50.3984 85.3573 50.6661 80.3307C50.6661 80.3307 50.0529 75.0999 61.655 75.0999C71.2949 75.0999 72.276 76.8286 72.276 76.8286L69.426 80.3307L67.7246 80.2861C66.1931 79.2726 64.4135 78.6912 62.5756 78.6037C61.2943 78.713 60.0204 78.8953 58.7601 79.1496C59.3508 80.0629 72.9704 80.0595 72.9669 85.6526C72.9669 91.5856 59.8638 90.9744 59.8638 90.9744C52.9703 91.2096 49.8456 89.7469 49.8456 89.7469C50.7102 88.3853 51.4612 86.9557 52.0911 85.4723L54.8046 85.4586ZM83.0818 75.3711L89.7491 80.8286L96.2782 75.3711H129.152L128.369 77.5084L129.152 79.4191L120.324 79.2372L120.37 90.5675H110.718V79.1839L101.564 79.4569L102.299 77.7282L102.244 77.4398L92.7442 84.2311V90.5538H83.0352V84.7324L70.4831 75.3711H83.0818Z" fill="white"/>
</svg>
